<?xml version="1.0" encoding="UTF-8"?>
<!DOCTYPE svg PUBLIC "-//W3C//DTD SVG 1.1//EN" "http://www.w3.org/Graphics/SVG/1.1/DTD/svg11.dtd">
<!-- Creator: CorelDRAW X6 -->
<svg xmlns="http://www.w3.org/2000/svg" xml:space="preserve" width="210mm" height="297mm" version="1.1" style="shape-rendering:geometricPrecision; text-rendering:geometricPrecision; image-rendering:optimizeQuality; fill-rule:evenodd; clip-rule:evenodd"
viewBox="0 0 21000 29700"
 xmlns:xlink="http://www.w3.org/1999/xlink">
 <defs>
  <style type="text/css">
   <![CDATA[
    .fil2 {fill:#0186CB}
    .fil3 {fill:#2AA6DC}
    .fil0 {fill:#CADDEB}
    .fil1 {fill:#E9F6FC}
    .fil4 {fill:white}
   ]]>
  </style>
 </defs>
 <g id="Слой_x0020_1">
  <metadata id="CorelCorpID_0Corel-Layer"/>
  <path class="fil0" d="M5397 9107c19,226 175,590 265,750 134,237 293,436 437,575 1019,982 2629,916 3568,-107 87,-95 369,-466 403,-619 -40,-24 -209,-75 -263,-80 -41,159 -276,456 -361,553 -137,155 -293,281 -507,405 -463,267 -918,380 -1482,290 -906,-144 -1649,-865 -1812,-1723 -8,-40 -9,-68 -32,-101 -41,2 -77,11 -112,20l-77 22c-28,12 -11,3 -27,15z"/>
  <path class="fil1" d="M6473 6915c23,46 101,131 141,162 13,9 21,11 28,14 677,-519 1738,-532 2395,40 29,25 47,32 70,55l244 269c369,479 509,1167 294,1798 -115,337 -205,415 -375,650 -39,54 -88,77 -130,132 -224,287 -712,778 110,-52 263,-265 338,-482 386,-530 44,8 64,19 107,34 68,23 37,17 93,34 24,-25 82,-224 92,-260 24,-84 62,-228 66,-317 -112,-76 -201,-145 -208,-325 -8,-191 74,-301 188,-359 1,-150 -113,-428 -168,-549 -207,-455 -631,-856 -1087,-1061 -349,-157 -787,-226 -1240,-160 -355,52 -605,182 -890,356 -64,38 -63,61 -116,69z"/>
  <path class="fil2" d="M6415 6608c15,41 142,169 172,199 92,-27 403,-308 1022,-376 433,-47 864,45 1192,200 566,267 964,741 1153,1306 25,76 48,226 81,286 82,4 120,-15 217,-2 -18,-360 -314,-887 -482,-1098 -225,-282 -488,-516 -879,-707 -364,-177 -841,-283 -1318,-233 -231,24 -445,75 -637,148 -151,57 -403,175 -521,277z"/>
  <path class="fil3" d="M10082 8313c-362,103 -222,669 172,562 351,-95 222,-675 -172,-562z"/>
  <path class="fil4" d="M10112 8404c-273,91 -126,477 127,391 248,-84 134,-477 -127,-391z"/>
  <path class="fil2" d="M9917 9434l226 62c57,-192 95,-327 135,-533 -102,6 -151,-2 -238,-1 -17,82 -31,158 -51,236 -21,80 -59,160 -72,236z"/>
  <path class="fil2" d="M10144 8486c-140,33 -103,265 64,222 128,-33 91,-258 -64,-222z"/>
  <path class="fil3" d="M9836 9521c-29,-15 -25,-11 -93,-34 -43,-15 -116,-62 -160,-70 -31,75 -115,287 -378,552 -399,403 -605,515 -1182,587 -252,31 -583,-33 -794,-105 -1215,-412 -1676,-1879 -1017,-2882 91,-140 183,-256 303,-371 44,-43 105,-66 99,-121 -40,-31 -118,-116 -141,-162 -185,116 -448,439 -577,689 -512,984 -221,2093 581,2737 931,746 2342,598 3105,-401 47,-62 87,-122 126,-187 31,-51 109,-204 128,-232z"/>
 </g>
</svg>
