<?xml version="1.0" encoding="UTF-8" standalone="no"?>
<svg
   xmlns:dc="http://purl.org/dc/elements/1.1/"
   xmlns:cc="http://creativecommons.org/ns#"
   xmlns:rdf="http://www.w3.org/1999/02/22-rdf-syntax-ns#"
   xmlns:svg="http://www.w3.org/2000/svg"
   xmlns="http://www.w3.org/2000/svg"
   viewBox="0 0 25.333332 26.666668"
   height="26.666668"
   width="25.333332"
   xml:space="preserve"
   id="svg2"
   version="1.1"><metadata
     id="metadata8"><rdf:RDF><cc:Work
         rdf:about=""><dc:format>image/svg+xml</dc:format><dc:type
           rdf:resource="http://purl.org/dc/dcmitype/StillImage" /></cc:Work></rdf:RDF></metadata><defs
     id="defs6" /><g
     transform="matrix(1.3333333,0,0,-1.3333333,0,26.666667)"
     id="g10"><g
       transform="scale(0.1)"
       id="g12"><path
         id="path14"
         style="fill:#007691;fill-opacity:1;fill-rule:evenodd;stroke:none"
         d="m 93.8594,197.41 c 51.7776,0 93.7496,-41.972 93.7496,-93.75 0,-51.7772 -41.972,-93.74984 -93.7496,-93.74984 -51.7774,0 -93.750025,41.97264 -93.750025,93.74984 0,51.778 41.972625,93.75 93.750025,93.75" /><path
         id="path16"
         style="fill:#ffffff;fill-opacity:1;fill-rule:evenodd;stroke:none"
         d="m 93.9023,196.043 c 50.9377,0 92.2307,-41.289 92.2307,-92.227 0,-50.9371 -41.293,-92.2262 -92.2307,-92.2262 -50.9335,0 -92.22652,41.2891 -92.22652,92.2262 0,50.938 41.29302,92.227 92.22652,92.227" /><path
         id="path18"
         style="fill:#808080;fill-opacity:1;fill-rule:evenodd;stroke:none"
         d="M 98.9023,78.832 C 104.098,68.6328 109.168,57.1875 114.27,46.6641 c 2.785,-5.7422 6.785,-3.6289 7.847,-3.0391 3.762,1.9453 2.434,2.3984 -4.926,18.1758 -1.64,3.5078 -8.742,19.2422 -9.179,21.0703 3.258,1.8594 11.523,8.8281 13.992,12.4844 8.32,12.3165 7.848,28.7535 0.418,41.3285 -14.109,23.882 -52.4142,25.691 -66.8361,-3.661 -12.8242,-26.101 8.1602,-61.2613 43.3164,-54.191" /><path
         id="path20"
         style="fill:#fefefe;fill-opacity:1;fill-rule:evenodd;stroke:none"
         d="M 84.6719,150.344 C 60.1211,146.5 48.3867,120.18 60.1523,99.1484 c 6.5196,-11.6523 20.5,-18.7578 34.129,-16.6601 17.1447,2.6367 31.6247,18.5037 28.7967,38.6997 -2.402,17.171 -18.402,32.289 -38.4061,29.156" /><path
         id="path22"
         style="fill:#808080;fill-opacity:1;fill-rule:evenodd;stroke:none"
         d="m 83.6289,110.207 c -1.375,1.172 -3.0391,5.215 -4.2344,7.09 l -16.2343,-2.234 c -1.293,-3.817 1.5429,-2.993 5.9882,-3.583 8.3125,-1.105 6.0196,1.016 11.4336,-8.996 1.1368,-2.109 2.4688,-4.7848 3.7891,-6.7457 1.0547,1.168 9.3984,24.6447 10.8477,28.2347 l 3.7539,-11.828 18.2153,1.714 0.183,3.215 -14.008,1.946 -5.7341,17.234 c -0.3203,0.996 -0.5937,1.809 -0.8867,2.75 l -0.8008,2.191 c -0.3828,0.625 -0.1601,0.328 -0.6133,0.774 L 83.6289,110.207" /></g></g></svg>