<?xml version="1.0" encoding="UTF-8" standalone="no"?>
<svg
   xmlns:dc="http://purl.org/dc/elements/1.1/"
   xmlns:cc="http://creativecommons.org/ns#"
   xmlns:rdf="http://www.w3.org/1999/02/22-rdf-syntax-ns#"
   xmlns:svg="http://www.w3.org/2000/svg"
   xmlns="http://www.w3.org/2000/svg"
   viewBox="0 0 26.666668 26.666668"
   height="26.666668"
   width="26.666668"
   xml:space="preserve"
   id="svg2"
   version="1.1"><metadata
     id="metadata8"><rdf:RDF><cc:Work
         rdf:about=""><dc:format>image/svg+xml</dc:format><dc:type
           rdf:resource="http://purl.org/dc/dcmitype/StillImage" /></cc:Work></rdf:RDF></metadata><defs
     id="defs6" /><g
     transform="matrix(1.3333333,0,0,-1.3333333,0,26.666667)"
     id="g10"><g
       transform="scale(0.1)"
       id="g12"><path
         id="path14"
         style="fill:#007691;fill-opacity:1;fill-rule:evenodd;stroke:none"
         d="m 96.5469,192.359 c 51.7771,0 93.7501,-41.972 93.7501,-93.7496 0,-51.7774 -41.973,-93.75002 -93.7501,-93.75002 -51.7774,0 -93.75002,41.97262 -93.75002,93.75002 0,51.7776 41.97262,93.7496 93.75002,93.7496" /><path
         id="path16"
         style="fill:#ffffff;fill-opacity:1;fill-rule:evenodd;stroke:none"
         d="m 96.5898,190.996 c 50.9372,0 92.2262,-41.293 92.2262,-92.2304 0,-50.9336 -41.289,-92.22654 -92.2262,-92.22654 -50.9375,0 -92.22652,41.29294 -92.22652,92.22654 0,50.9374 41.28902,92.2304 92.22652,92.2304" /><path
         id="path18"
         style="fill:#808080;fill-opacity:1;fill-rule:evenodd;stroke:none"
         d="m 59.4727,92.2188 c 1.414,0.0546 3.5507,0.1953 4.7226,1.0078 -2.8164,5.9804 -5.5,11.0824 -5.7148,18.9764 -0.6992,25.985 24.3711,20.758 30.7929,15.449 l 3.2383,-3.23 c 2.1094,-3.195 1.6914,-7.465 5.9219,-6.578 1.207,1.359 0.9727,2.14 1.8864,4.047 0.696,1.453 1.516,2.527 2.43,3.574 1.926,2.195 3.867,3.59 7.172,4.883 6.508,2.547 15.105,2.211 19.711,-1.711 13.535,-11.524 0.683,-34.6214 0.515,-35.6175 l 4.938,-0.8711 c 1.629,6.1993 9.187,17.6796 3.641,31.6836 -1.161,2.93 -3.332,6.363 -5.129,7.844 -9.563,7.859 -27.434,7.094 -36.2542,-5.438 -2.1016,1.731 -1.211,2.532 -6.5743,6.176 -8.2109,5.582 -21.9492,6.024 -29.9023,-0.277 -9.5703,-7.578 -8.6406,-28.821 -1.3945,-39.9182" /><path
         id="path20"
         style="fill:#808080;fill-opacity:1;fill-rule:evenodd;stroke:none"
         d="m 52.0586,104.344 c -0.0664,1.902 -0.0742,3.269 -0.9258,4.722 -9.4844,-4.093 -11.6914,-15.5426 -2.9531,-22.0387 7.0273,-5.2265 22.2109,-0.2734 29.8047,2.0547 8.1328,2.4883 18.789,5.9961 25.7346,9.918 8.652,4.879 16.847,7.012 28.648,7.504 l 0.93,4.73 C 114.008,111.328 109.195,106.363 96.4727,100.723 88.3125,97.1016 68.0039,90.4023 59.8867,89.7656 54.3438,89.332 50.4609,89.7344 48.418,93.75 c -2.5899,5.0859 0.3672,8.285 3.6406,10.594" /><path
         id="path22"
         style="fill:#808080;fill-opacity:1;fill-rule:evenodd;stroke:none"
         d="m 65.2656,83.3086 c 2.3047,-4.5469 7.2735,-9.0664 10.8633,-12.8047 L 92.3672,55.2383 c 4.9297,-3.9141 4.2812,-4.8711 9.2698,-0.0078 l 8.308,7.4375 c 1.325,1.3984 2.7,2.4414 4.141,3.7422 2.824,2.5468 12.621,12.75 14.914,16.6211 l -1.223,0.6328 c -0.047,0.0156 -1.48,0.3984 -1.504,0.4062 -3.835,0.7735 -3.441,-2.5508 -9.644,-8.1523 l -5.813,-5.7813 C 108.617,67.8359 99.5313,59.0781 97,57.7852 c -1.2305,0.832 -2.4375,2.0273 -3.4258,2.8281 l -3.6523,3.2969 c -1.5078,1.2187 -1.8516,1.7226 -3.3047,3.1718 -3.7578,3.75 -8.9414,7.6993 -13.3984,13.4766 -1.0821,1.4023 -2.0782,2.4805 -3.043,3.7852 l -4.9102,-1.0352" /><path
         id="path24"
         style="fill:#808080;fill-opacity:1;fill-rule:evenodd;stroke:none"
         d="m 142.133,104.809 c 3.707,-2.61 7.93,-6.4692 3.668,-12.2035 -5.961,-8.0039 -29.942,2.1992 -38.254,4.7187 -2.375,0.7188 -4.676,-1.2969 -6.938,-2.2304 0.387,-0.3516 0.262,-0.2852 0.887,-0.6211 l 3.012,-1.1524 c 13.262,-4.8008 43.34,-16.9726 47.39,1.5195 1.633,7.4612 -3.824,13.0272 -9.074,14.5152 l -0.691,-4.546" /><path
         id="path26"
         style="fill:#808080;fill-opacity:1;fill-rule:evenodd;stroke:none"
         d="m 94.9883,102.172 c -1.625,1.656 -11.5781,5.758 -14.7852,6.707 -4.9922,1.469 -13.6445,2.91 -19.1523,2.226 0.082,-6.062 0.7734,-4.48 6.3125,-4.812 19.2148,-1.164 17.8789,-8.8867 27.625,-4.121" /></g></g></svg>