<?xml version="1.0" encoding="UTF-8"?>
<!DOCTYPE svg PUBLIC "-//W3C//DTD SVG 1.1//EN" "http://www.w3.org/Graphics/SVG/1.1/DTD/svg11.dtd">
<!-- Creator: CorelDRAW X6 -->
<svg xmlns="http://www.w3.org/2000/svg" xml:space="preserve" width="16mm" height="16mm" version="1.1" style="shape-rendering:geometricPrecision; text-rendering:geometricPrecision; image-rendering:optimizeQuality; fill-rule:evenodd; clip-rule:evenodd"
viewBox="0 0 1600 1600"
 xmlns:xlink="http://www.w3.org/1999/xlink">
 <defs>
  <style type="text/css">
   <![CDATA[
    .fil0 {fill:#0E82CD}
    .fil1 {fill:white}
   ]]>
  </style>
 </defs>
 <g id="Слой_x0020_1">
  <metadata id="CorelCorpID_0Corel-Layer"/>
  <path class="fil0" d="M692 27c-394,59 -733,417 -665,886 57,390 425,729 888,660 388,-58 727,-424 658,-889 -57,-382 -423,-726 -881,-657z"/>
  <g id="_841375568">
   <path class="fil1" d="M427 984l0 -367c0,-46 19,-98 49,-128 1,-2 2,-2 3,-3l3 -4c3,-2 4,-3 6,-5 14,-14 32,-25 50,-33 22,-11 54,-17 79,-17l366 0c26,0 55,6 78,16 3,2 5,3 8,4 5,2 18,10 22,13 16,10 31,25 43,40 25,31 39,74 39,114l0 372c0,40 -13,75 -34,106 -5,8 -20,26 -27,31 -6,5 -10,10 -20,16 -30,21 -64,34 -106,34l-372 0c-25,0 -46,-5 -68,-14 -19,-7 -43,-21 -58,-36l-6 -5c-15,-16 -30,-37 -38,-56 -10,-22 -17,-47 -17,-78zm-68 -379l0 390c0,10 2,19 3,28 2,13 5,26 9,38 3,10 9,25 13,34 9,19 18,32 30,48 6,8 18,22 26,29 12,11 26,21 40,30l20 12c15,8 40,16 57,20 16,4 36,7 56,7l374 0c40,0 76,-10 103,-23l41 -23c7,-5 15,-11 22,-17l20 -20c7,-8 20,-23 25,-31 18,-30 28,-48 36,-83 4,-16 7,-37 7,-57l0 -374c0,-62 -26,-126 -66,-169 -8,-9 -12,-13 -23,-23 -2,-1 -2,-2 -4,-3 -20,-16 -29,-22 -53,-34 -11,-6 -34,-14 -45,-17 -17,-4 -35,-8 -55,-8l-390 0c-20,0 -35,4 -53,8 -5,1 -8,2 -12,3 -11,3 -35,13 -44,18l-19 12c-23,14 -48,37 -64,58 -7,9 -13,19 -19,28 -2,4 -3,6 -5,10 -17,32 -30,73 -30,109z"/>
   <path class="fil1" d="M969 800c0,35 -10,68 -30,96 -15,24 -42,47 -69,58 -23,9 -42,15 -69,15 -25,0 -47,-5 -66,-13 -2,0 -3,-1 -5,-2l-11 -5c-2,-2 -3,-2 -5,-3 -10,-6 -19,-13 -28,-21 -2,-2 -4,-3 -8,-7 -8,-10 -13,-15 -21,-27 -4,-6 -8,-13 -11,-21 -14,-33 -20,-71 -11,-107 4,-18 9,-32 18,-46 3,-7 7,-13 12,-19 14,-18 31,-34 51,-45 32,-18 65,-24 103,-21 18,1 46,10 61,19 4,2 7,3 10,6 10,6 27,19 35,28 2,3 4,5 7,9 23,29 37,67 37,106zm-406 -6c0,47 8,78 26,115 7,14 18,31 29,43l21 22c8,8 24,20 33,26 3,2 5,3 8,5 32,19 77,32 113,32 37,0 54,-2 87,-13 7,-2 14,-6 20,-9 15,-7 32,-16 45,-27l12 -9c7,-7 14,-15 21,-22 2,-2 2,-2 4,-4 8,-8 18,-24 24,-34 18,-31 31,-76 31,-112 0,-36 -2,-54 -13,-87 -9,-26 -29,-61 -49,-80l-10 -11c-7,-7 -21,-18 -28,-23 -15,-11 -31,-19 -47,-26 -23,-10 -58,-17 -84,-17 -32,0 -57,3 -85,13 -13,5 -28,11 -40,18 -9,6 -17,11 -25,18 -16,12 -32,27 -44,43 -2,3 -4,6 -6,8 -11,16 -14,22 -21,37 -12,23 -22,61 -22,94z"/>
   <path class="fil1" d="M1037 527c0,7 0,10 4,17l5 7c0,1 0,1 1,2l0 0c21,21 58,8 58,-25 0,-29 -36,-45 -58,-24 -4,5 -10,14 -10,23z"/>
  </g>
 </g>
</svg>
