<?xml version="1.0" encoding="UTF-8"?>
<!DOCTYPE svg PUBLIC "-//W3C//DTD SVG 1.1//EN" "http://www.w3.org/Graphics/SVG/1.1/DTD/svg11.dtd">
<!-- Creator: CorelDRAW -->
<svg xmlns="http://www.w3.org/2000/svg" xml:space="preserve" width="13mm" height="13mm" style="shape-rendering:geometricPrecision; text-rendering:geometricPrecision; image-rendering:optimizeQuality; fill-rule:evenodd; clip-rule:evenodd"
viewBox="0 0 13 13"
 xmlns:xlink="http://www.w3.org/1999/xlink">
 <defs>
  <style type="text/css">
   <![CDATA[
    .fil1 {fill:#999999}
    .fil0 {fill:#F877A0}
   ]]>
  </style>
 </defs>
 <g id="Слой_x0020_1">
  <metadata id="CorelCorpID_0Corel-Layer"/>
  <polygon class="fil0" points="6.4651,4.4711 5.9873,4.4711 5.9873,4.7101 6.4651,4.7101 6.4651,5.1879 6.704,5.1879 6.704,4.7101 7.1818,4.7101 7.1818,4.4711 6.704,4.4711 6.704,3.9933 6.4651,3.9933 "/>
  <path class="fil0" d="M9.332 5.9046l0 0.4778 -0.9557 0 0 -0.4778 0.9557 0zm-1.0751 0.5972l1.1945 0 0 -0.7167 -1.1945 0 0 0.7167z"/>
  <path class="fil0" d="M7.7789 5.3234l2.1255 -0.0086 0 3.3286 -2.1255 0.0086 0 -3.3286zm-1.5626 2.0418c0,0 0.3479,-0.0186 0.7307,-0.0272l0 1.314 -0.7208 0c0,-0.3186 -0.0099,-1.6053 -0.0099,-1.2868zm-2.9765 -2.6551l2.1502 0 0 3.9419 -2.1502 0 0 -3.9419zm2.2879 -1.1855l2.1045 0.0092 0 5.1274 -0.5698 -0.0092 0 -1.4334 -0.9557 0 0 1.4334 -0.579 0 0 -5.1274zm-3.0046 5.3663l8.2423 0c-0.1372,-0.1872 0.1944,-0.1251 -0.2244,-0.1251l-0.4923 0 0 -3.5779 -2.2696 0 0 -1.7919 -2.3891 0 0 1.1946 -2.2696 0 0 4.1809 -0.5973 0 0 0.1194z"/>
  <path id="path14" class="fil1" d="M6.4999 0.5906c3.3256,0 6.0216,2.696 6.0216,6.0215 0.0001,3.3254 -2.6959,6.0214 -6.0216,6.0214 -3.3254,0 -6.0214,-2.696 -6.0214,-6.0214 0,-3.3255 2.696,-6.0215 6.0215,-6.0215l-0.0001 0zm0.0062 0.1601c3.2093,0 5.8112,2.6148 5.8112,5.8403 0,3.2251 -2.6018,5.8399 -5.8112,5.8399 -3.2095,0 -5.8114,-2.6148 -5.8114,-5.8399 0,-3.2254 2.6019,-5.8403 5.8115,-5.8403m-0.0001 0l0 0 0 0z"/>
  <path class="fil0" d="M4.7992 7.6004l0 0.4778 -0.9557 0 0 -0.4778 0.9557 0zm-1.0751 0.5972l1.1945 0 0 -0.7167 -1.1945 0 0 0.7167z"/>
  <path class="fil0" d="M4.7801 6.504l0 0.4778 -0.9557 0 0 -0.4778 0.9557 0zm-1.0751 0.5972l1.1945 0 0 -0.7167 -1.1945 0 0 0.7167z"/>
  <path class="fil0" d="M4.8007 5.3665l0 0.4778 -0.9557 0 0 -0.4778 0.9557 0zm-1.0751 0.5972l1.1945 0 0 -0.7167 -1.1945 0 0 0.7167z"/>
  <path class="fil0" d="M8.4572 7.1142l0.8749 0 0 0.9515 -0.8749 0 0 -0.9515zm0.9777 1.0601l0 -1.1893 -1.1022 0 0 1.1893 1.1022 0z"/>
 </g>
</svg>
