<?xml version="1.0" encoding="UTF-8" standalone="no"?>
<!-- Creator: CorelDRAW -->

<svg
   xmlns:dc="http://purl.org/dc/elements/1.1/"
   xmlns:cc="http://creativecommons.org/ns#"
   xmlns:rdf="http://www.w3.org/1999/02/22-rdf-syntax-ns#"
   xmlns:svg="http://www.w3.org/2000/svg"
   xmlns="http://www.w3.org/2000/svg"
   xmlns:sodipodi="http://sodipodi.sourceforge.net/DTD/sodipodi-0.dtd"
   xmlns:inkscape="http://www.inkscape.org/namespaces/inkscape"
   xml:space="preserve"
   width="19.127001mm"
   height="12.3623mm"
   style="clip-rule:evenodd;fill-rule:evenodd;image-rendering:optimizeQuality;shape-rendering:geometricPrecision;text-rendering:geometricPrecision"
   viewBox="0 0 19.127001 12.3623"
   version="1.1"
   id="svg10"
   sodipodi:docname="kontact_site.svg"
   inkscape:version="0.92.2 (5c3e80d, 2017-08-06)"><metadata
     id="metadata14"><rdf:RDF><cc:Work
         rdf:about=""><dc:format>image/svg+xml</dc:format><dc:type
           rdf:resource="http://purl.org/dc/dcmitype/StillImage" /></cc:Work></rdf:RDF></metadata><sodipodi:namedview
     pagecolor="#ffffff"
     bordercolor="#666666"
     borderopacity="1"
     objecttolerance="10"
     gridtolerance="10"
     guidetolerance="10"
     inkscape:pageopacity="0"
     inkscape:pageshadow="2"
     inkscape:window-width="751"
     inkscape:window-height="480"
     id="namedview12"
     showgrid="false"
     inkscape:zoom="0.62441667"
     inkscape:cx="55.522393"
     inkscape:cy="12.199183"
     inkscape:window-x="0"
     inkscape:window-y="0"
     inkscape:window-maximized="0"
     inkscape:current-layer="svg10" /><defs
     id="defs4"><style
       type="text/css"
       id="style2"><![CDATA[
    .fil0 {fill:#004D94}
   ]]></style></defs><g
     id="Слой_x0020_1"
     transform="translate(-35.3097,-40.8654)"><metadata
       id="CorelCorpID_0Corel-Layer" /><path
       class="fil0"
       d="m 35.3097,53.0364 0.0956,0.0957 0.0957,0.0956 h 18.7444 l 0.0956,-0.0956 0.0957,-0.0957 v -0.765 h -8.2246 l -0.0957,0.1912 -0.0956,0.0957 H 43.7256 L 43.6299,52.4626 43.5343,52.2714 H 35.3097 Z M 38.37,43.2817 h 4.6268 c 0.1943,0.8984 0.9991,1.5553 1.9677,1.5553 h 0.0531 c 0.5525,0 1.0515,-0.3115 1.332,-0.5917 0.2193,-0.2195 0.439,-0.5608 0.5301,-0.9636 h 4.4967 v 7.6508 H 38.37 Z m 5.5676,0 h 0.0017 c -0.113,-0.112 -0.2279,-0.2364 -0.2279,-0.2845 v -0.0355 c 0,-0.0805 0.2687,-0.3456 0.3547,-0.3456 h 0.0266 c 0.0677,0 0.2322,0.1922 0.2813,0.2414 0.0401,0.0402 0.2509,0.2318 0.2593,0.2638 0.038,-0.0101 0.5484,-0.5441 0.6229,-0.6183 0.0877,-0.0878 0.5555,-0.5962 0.6449,-0.5962 h 0.0354 c 0.0431,0 0.1818,0.1245 0.2698,0.2268 l 0.0019,0.0022 7e-4,8e-4 c 0.0491,0.0558 0.0853,0.1063 0.0853,0.1296 v 0.0354 c 0,0.0357 -0.08,0.1257 -0.1682,0.215 h -0.0254 c -0.3647,0.3654 -0.6671,0.6938 -1.001,1.0283 -0.067,0.0669 -0.3443,0.3789 -0.4278,0.3789 h -0.0354 c -0.0852,0 -0.4088,-0.36 -0.4809,-0.4321 -0.0331,-0.033 -0.1264,-0.1187 -0.2179,-0.21 z m 2.9627,-0.7651 C 46.7519,41.593 45.91,40.8654 44.9377,40.8654 c -0.9851,0 -1.7957,0.7115 -1.9566,1.6512 h -5.1849 l -0.0956,0.0956 -0.0957,0.0957 v 8.7984 l 0.0957,0.0956 0.0956,0.0956 h 14.154 l 0.0956,-0.0956 0.0957,-0.0956 v -8.7984 l -0.0957,-0.0957 -0.0956,-0.0956 z"
       id="path7"
       inkscape:connector-curvature="0"
       style="fill:#004d94" /></g></svg>