<?xml version="1.0" encoding="UTF-8" standalone="no"?>
<!-- Creator: CorelDRAW -->

<svg
   xmlns:dc="http://purl.org/dc/elements/1.1/"
   xmlns:cc="http://creativecommons.org/ns#"
   xmlns:rdf="http://www.w3.org/1999/02/22-rdf-syntax-ns#"
   xmlns:svg="http://www.w3.org/2000/svg"
   xmlns="http://www.w3.org/2000/svg"
   xmlns:sodipodi="http://sodipodi.sourceforge.net/DTD/sodipodi-0.dtd"
   xmlns:inkscape="http://www.inkscape.org/namespaces/inkscape"
   xml:space="preserve"
   width="12.043mm"
   height="12.0429mm"
   style="clip-rule:evenodd;fill-rule:evenodd;image-rendering:optimizeQuality;shape-rendering:geometricPrecision;text-rendering:geometricPrecision"
   viewBox="0 0 12.043 12.0429"
   version="1.1"
   id="svg17"
   sodipodi:docname="pitanie_1bludo.svg"
   inkscape:version="0.92.2 (5c3e80d, 2017-08-06)"><metadata
     id="metadata21"><rdf:RDF><cc:Work
         rdf:about=""><dc:format>image/svg+xml</dc:format><dc:type
           rdf:resource="http://purl.org/dc/dcmitype/StillImage" /></cc:Work></rdf:RDF></metadata><sodipodi:namedview
     pagecolor="#ffffff"
     bordercolor="#666666"
     borderopacity="1"
     objecttolerance="10"
     gridtolerance="10"
     guidetolerance="10"
     inkscape:pageopacity="0"
     inkscape:pageshadow="2"
     inkscape:window-width="751"
     inkscape:window-height="480"
     id="namedview19"
     showgrid="false"
     inkscape:zoom="0.62441667"
     inkscape:cx="19.959684"
     inkscape:cy="31.222679"
     inkscape:window-x="0"
     inkscape:window-y="0"
     inkscape:window-maximized="0"
     inkscape:current-layer="svg17" /><defs
     id="defs4"><style
       type="text/css"
       id="style2"><![CDATA[
    .fil3 {fill:#E3D600}
    .fil1 {fill:#C6AE0A}
    .fil0 {fill:#CEB92D}
    .fil2 {fill:#F7F6E7}
   ]]></style></defs><g
     id="Слой_x0020_1"
     transform="translate(-44.719,-46.2181)"><metadata
       id="CorelCorpID_0Corel-Layer" /><path
       class="fil0"
       d="m 49.7665,49.6134 c 0,0.4876 0.7584,0.4605 0.7584,0.9481 0,0.2125 -0.075,0.2081 -0.1896,0.3792 0.2401,-0.0641 0.474,-0.1832 0.474,-0.474 0,-0.4539 -0.6636,-0.4807 -0.6636,-0.8533 0,-0.256 0.0453,-0.2614 0.0948,-0.474 -0.1032,0.0691 -0.474,0.3423 -0.474,0.474 z"
       id="path7"
       inkscape:connector-curvature="0"
       style="fill:#ceb92d" /><path
       class="fil0"
       d="m 50.7145,49.5186 c 0,0.6706 0.6636,0.5589 0.6636,1.0429 0,0.2125 -0.075,0.2081 -0.1346,0.4429 l 0.5138,-0.5377 c -0.1908,-0.3607 -0.7584,-0.7462 -0.7584,-0.8533 0,-0.1605 0.1263,-0.3543 0.1896,-0.474 -0.1816,0.0485 -0.474,0.1852 -0.474,0.3792 z"
       id="path9"
       inkscape:connector-curvature="0"
       style="fill:#ceb92d" /><path
       class="fil1"
       d="m 48.06,51.8887 c 0.221,0.2543 0.2497,0.6861 0.4414,1.0755 0.268,0.5445 0.4248,0.5101 0.6962,0.9154 C 48.4982,53.8214 48.06,52.6936 48.06,51.8887 Z m -0.3792,-0.0948 c 0,1.2308 0.8881,2.5145 1.896,2.7493 v 0.3792 h 2.3701 v -0.3792 c 0.9046,-0.2107 1.8961,-1.42 1.8961,-2.4649 v -0.5688 h -6.1622 z"
       id="path11"
       inkscape:connector-curvature="0"
       style="fill:#c6ae0a" /><path
       class="fil2"
       d="M 49.1976,53.8796 C 48.9262,53.4743 48.7694,53.5087 48.5014,52.9642 48.3097,52.5748 48.281,52.143 48.06,51.8887 c 0,0.8049 0.4382,1.9327 1.1376,1.9909 z"
       id="path13"
       inkscape:connector-curvature="0"
       style="fill:#f7f6e7" /><path
       id="path14"
       class="fil3"
       d="m 50.7404,46.2181 c 3.3256,0 6.0216,2.696 6.0216,6.0215 10e-5,3.3254 -2.6959,6.0214 -6.0216,6.0214 -3.3254,0 -6.0214,-2.696 -6.0214,-6.0214 0,-3.3255 2.696,-6.0215 6.0215,-6.0215 z m 0.0062,0.1601 c 3.2093,0 5.8112,2.6148 5.8112,5.8403 0,3.2251 -2.6018,5.8399 -5.8112,5.8399 -3.2095,0 -5.8114,-2.6148 -5.8114,-5.8399 0,-3.2254 2.6019,-5.8403 5.8115,-5.8403 m -10e-5,0 z"
       inkscape:connector-curvature="0"
       style="fill:#e3d600" /></g></svg>