<?xml version="1.0" encoding="UTF-8" standalone="no"?>
<!-- Creator: CorelDRAW -->

<svg
   xmlns:dc="http://purl.org/dc/elements/1.1/"
   xmlns:cc="http://creativecommons.org/ns#"
   xmlns:rdf="http://www.w3.org/1999/02/22-rdf-syntax-ns#"
   xmlns:svg="http://www.w3.org/2000/svg"
   xmlns="http://www.w3.org/2000/svg"
   xmlns:sodipodi="http://sodipodi.sourceforge.net/DTD/sodipodi-0.dtd"
   xmlns:inkscape="http://www.inkscape.org/namespaces/inkscape"
   xml:space="preserve"
   width="12.043mm"
   height="12.0429mm"
   style="clip-rule:evenodd;fill-rule:evenodd;image-rendering:optimizeQuality;shape-rendering:geometricPrecision;text-rendering:geometricPrecision"
   viewBox="0 0 12.043 12.0429"
   version="1.1"
   id="svg13"
   sodipodi:docname="pitanie_2bludo.svg"
   inkscape:version="0.92.2 (5c3e80d, 2017-08-06)"><metadata
     id="metadata17"><rdf:RDF><cc:Work
         rdf:about=""><dc:format>image/svg+xml</dc:format><dc:type
           rdf:resource="http://purl.org/dc/dcmitype/StillImage" /></cc:Work></rdf:RDF></metadata><sodipodi:namedview
     pagecolor="#ffffff"
     bordercolor="#666666"
     borderopacity="1"
     objecttolerance="10"
     gridtolerance="10"
     guidetolerance="10"
     inkscape:pageopacity="0"
     inkscape:pageshadow="2"
     inkscape:window-width="751"
     inkscape:window-height="480"
     id="namedview15"
     showgrid="false"
     inkscape:zoom="0.62441667"
     inkscape:cx="34.668849"
     inkscape:cy="21.686175"
     inkscape:window-x="0"
     inkscape:window-y="0"
     inkscape:window-maximized="0"
     inkscape:current-layer="svg13" /><defs
     id="defs4"><style
       type="text/css"
       id="style2"><![CDATA[
    .fil1 {fill:#B05728}
    .fil0 {fill:#B54E2F}
   ]]></style></defs><g
     id="Слой_x0020_1"
     transform="translate(-40.8272,-43.6949)"><metadata
       id="CorelCorpID_0Corel-Layer" /><path
       class="fil0"
       d="M 48.2759,51.2093 47.404,50.9735 c -0.2584,0.1039 -0.4011,0.3236 -0.7753,0.3117 -0.4272,0 -0.807,-0.1659 -0.807,-0.5668 v -0.0981 c 0,-0.2298 0.1629,-0.3927 0.3927,-0.3927 h 0.1963 c 0.6727,0 0.6633,0.589 1.0798,0.589 h 0.2945 c 0.4425,-0.0068 0.8407,-0.1649 0.4988,0.1427 -0.0486,0.0438 0.1119,0.2824 -0.0079,0.25 z m -4.6139,0.4908 h 0.6872 c 0.0584,0.2188 0.0229,0.2945 0.2945,0.2945 h 4.5157 c 0.2716,0 0.2361,-0.0757 0.2945,-0.2945 H 50.141 C 50.1137,50.4747 48.3012,49.4072 46.9,49.376 v -0.4909 h -0.1963 v 0.4925 c -1.2909,0.1022 -3.0048,0.6638 -3.0417,2.3225 z"
       id="path7"
       inkscape:connector-curvature="0"
       style="fill:#b54e2f" /><path
       id="path14"
       class="fil1"
       d="m 46.8486,43.6949 c 3.3256,0 6.0216,2.696 6.0216,6.0215 1e-4,3.3254 -2.6959,6.0214 -6.0216,6.0214 -3.3254,0 -6.0214,-2.696 -6.0214,-6.0214 0,-3.3255 2.696,-6.0215 6.0215,-6.0215 z m 0.0062,0.1601 c 3.2093,0 5.8112,2.6148 5.8112,5.8403 0,3.2251 -2.6018,5.8399 -5.8112,5.8399 -3.2095,0 -5.8114,-2.6148 -5.8114,-5.8399 0,-3.2254 2.6019,-5.8403 5.8115,-5.8403 m -1e-4,0 z"
       inkscape:connector-curvature="0"
       style="fill:#b05728" /><path
       class="fil1"
       d="m 46.6076,47.1475 c 0,0.3762 0.3448,0.3553 0.3448,0.7315 0,0.164 -0.0341,0.1606 -0.0862,0.2926 0.1092,-0.0495 0.2156,-0.1413 0.2156,-0.3658 0,-0.3502 -0.3018,-0.3708 -0.3018,-0.6583 0,-0.1975 0.0206,-0.2016 0.0431,-0.3657 -0.0469,0.0533 -0.2155,0.2641 -0.2155,0.3657 z"
       id="path10"
       inkscape:connector-curvature="0"
       style="fill:#b05728" /></g></svg>