<?xml version="1.0" encoding="UTF-8" standalone="no"?>
<!-- Creator: CorelDRAW -->

<svg
   xmlns:dc="http://purl.org/dc/elements/1.1/"
   xmlns:cc="http://creativecommons.org/ns#"
   xmlns:rdf="http://www.w3.org/1999/02/22-rdf-syntax-ns#"
   xmlns:svg="http://www.w3.org/2000/svg"
   xmlns="http://www.w3.org/2000/svg"
   xmlns:sodipodi="http://sodipodi.sourceforge.net/DTD/sodipodi-0.dtd"
   xmlns:inkscape="http://www.inkscape.org/namespaces/inkscape"
   xml:space="preserve"
   width="58.414402mm"
   height="7.5046mm"
   style="clip-rule:evenodd;fill-rule:evenodd;image-rendering:optimizeQuality;shape-rendering:geometricPrecision;text-rendering:geometricPrecision"
   viewBox="0 0 58.414402 7.5046"
   version="1.1"
   id="svg14"
   sodipodi:docname="materinstvo_line.svg"
   inkscape:version="0.92.2 (5c3e80d, 2017-08-06)"><metadata
     id="metadata18"><rdf:RDF><cc:Work
         rdf:about=""><dc:format>image/svg+xml</dc:format><dc:type
           rdf:resource="http://purl.org/dc/dcmitype/StillImage" /></cc:Work></rdf:RDF></metadata><sodipodi:namedview
     pagecolor="#ffffff"
     bordercolor="#666666"
     borderopacity="1"
     objecttolerance="10"
     gridtolerance="10"
     guidetolerance="10"
     inkscape:pageopacity="0"
     inkscape:pageshadow="2"
     inkscape:window-width="751"
     inkscape:window-height="480"
     id="namedview16"
     showgrid="false"
     inkscape:zoom="0.62441667"
     inkscape:cx="101.50828"
     inkscape:cy="42.494742"
     inkscape:window-x="0"
     inkscape:window-y="0"
     inkscape:window-maximized="0"
     inkscape:current-layer="svg14" /><defs
     id="defs4"><style
       type="text/css"
       id="style2"><![CDATA[
    .fil0 {fill:#F168C4}
    .fil1 {fill:#FEFEFE}
   ]]></style></defs><g
     id="Слой_x0020_1"
     transform="translate(-23.1426,-53.7388)"><metadata
       id="CorelCorpID_0Corel-Layer" /><path
       class="fil0"
       d="m 24.5586,58.362 c 0.0931,0.1346 0.5717,0.5567 0.5717,0.6908 0,0.1367 -0.0717,0.284 -0.2028,0.284 h -0.1217 c -0.1215,0 -0.8113,-0.762 -0.8113,-0.8519 0,-0.3747 0.2628,-1.1764 0.6896,-1.1764 h 0.0406 c 0.2574,0 0.8113,0.4038 0.8113,0.6085 v 0.1622 c 0,0.091 -0.0321,0.0891 -0.0812,0.1623 0.2088,0.1105 0.5274,0.3459 0.5274,0.6491 v 0.3245 c 0,0.3346 -0.452,0.6896 -0.8113,0.6896 h -0.8113 c -0.1146,0 -0.1565,-0.0931 -0.2029,-0.1623 v -0.7707 c 0.2283,0.1528 0.36,0.5273 0.6491,0.5273 h 0.1217 c 0.2024,0 0.3651,-0.1983 0.3651,-0.365 0,-0.4155 -0.5274,-0.6493 -0.5274,-0.8114 0,-0.2793 0.2159,-0.3809 -0.0676,-0.4014 z m 0.1661,-1.2158 h -0.0812 c -0.1095,0 -0.1118,-0.0193 -0.2028,-0.0405 -0.1396,0.2639 -0.3298,0.4868 -0.7302,0.4868 -0.0739,0 -0.0651,-0.0618 -0.0811,-0.1217 0.2624,-0.0219 0.2839,-0.245 0.2851,-0.5258 l 0.2422,-0.1638 c 0,-0.3572 0.1921,-0.6897 0.4868,-0.6897 0.3043,0 0.5679,0.1978 0.5679,0.4868 v 0.0406 c 0,0.289 -0.2127,0.5273 -0.4867,0.5273 z m -1.5821,4.0972 c 1.0823,0 2.3096,-0.3715 2.9784,-0.7942 0.4023,-0.2542 0.6817,-0.5763 0.9089,-0.9978 0.2638,-0.4894 0.291,-0.8864 0.291,-1.6155 v -0.2434 c 0,-0.766 -0.8959,-1.7263 -1.4204,-2.0278 -0.7752,-0.4455 -2.0403,-0.3265 -2.4631,-0.9756 L 23.386,54.2255 c 0.3794,-0.5666 4.6569,-0.3245 5.8009,-0.3245 2.0418,0 4.0836,0 6.1254,0 4.0035,0 8.1783,0.0406 12.2508,0.0406 H 81.557 V 53.7388 H 23.1426 Z"
       id="path7"
       inkscape:connector-curvature="0"
       style="fill:#f168c4" /><path
       class="fil1"
       d="m 24.7247,57.1462 c 0.274,0 0.4867,-0.2383 0.4867,-0.5273 v -0.0406 c 0,-0.289 -0.2636,-0.4868 -0.5679,-0.4868 -0.2947,0 -0.4868,0.3325 -0.4868,0.6897 l -0.2422,0.1638 c -0.0012,0.2808 -0.0227,0.5039 -0.2851,0.5258 0.016,0.0599 0.0072,0.1217 0.0811,0.1217 0.4004,0 0.5906,-0.2229 0.7302,-0.4868 0.091,0.0212 0.0933,0.0405 0.2028,0.0405 z"
       id="path9"
       inkscape:connector-curvature="0"
       style="fill:#fefefe" /><path
       class="fil1"
       d="m 24.6976,57.9212 c 0.2835,0.0205 0.0676,0.1221 0.0676,0.4014 0,0.1621 0.5274,0.3959 0.5274,0.8114 0,0.1667 -0.1627,0.365 -0.3651,0.365 h -0.1217 c -0.2891,0 -0.4208,-0.3745 -0.6491,-0.5273 v 0.7707 c 0.0464,0.0692 0.0883,0.1623 0.2029,0.1623 h 0.8113 c 0.3593,0 0.8113,-0.355 0.8113,-0.6896 v -0.3245 c 0,-0.3032 -0.3186,-0.5386 -0.5274,-0.6491 0.0491,-0.0732 0.0812,-0.0713 0.0812,-0.1623 V 57.917 c 0,-0.2047 -0.5539,-0.6085 -0.8113,-0.6085 h -0.0406 c -0.4268,0 -0.6896,0.8017 -0.6896,1.1764 0,0.0899 0.6898,0.8519 0.8113,0.8519 h 0.1217 c 0.1311,0 0.2028,-0.1473 0.2028,-0.284 0,-0.1341 -0.4786,-0.5562 -0.5717,-0.6908 z"
       id="path11"
       inkscape:connector-curvature="0"
       style="fill:#fefefe" /></g></svg>