<?xml version="1.0" encoding="UTF-8" standalone="no"?>
<svg
   xmlns:dc="http://purl.org/dc/elements/1.1/"
   xmlns:cc="http://creativecommons.org/ns#"
   xmlns:rdf="http://www.w3.org/1999/02/22-rdf-syntax-ns#"
   xmlns:svg="http://www.w3.org/2000/svg"
   xmlns="http://www.w3.org/2000/svg"
   viewBox="0 0 20 18.666668"
   height="18.666668"
   width="20"
   xml:space="preserve"
   id="svg2"
   version="1.1"><metadata
     id="metadata8"><rdf:RDF><cc:Work
         rdf:about=""><dc:format>image/svg+xml</dc:format><dc:type
           rdf:resource="http://purl.org/dc/dcmitype/StillImage" /></cc:Work></rdf:RDF></metadata><defs
     id="defs6" /><g
     transform="matrix(1.3333333,0,0,-1.3333333,0,18.666667)"
     id="g10"><g
       transform="scale(0.1)"
       id="g12"><path
         id="path14"
         style="fill:#83ca06;fill-opacity:1;fill-rule:evenodd;stroke:none"
         d="m 7.65234,1.25 h 132.883 V 134.133 H 7.65234 Z" /><path
         id="path16"
         style="fill:#ffffff;fill-opacity:1;fill-rule:evenodd;stroke:none"
         d="m 63.2773,63.4531 c 4.043,-2.707 4.4844,-6.7851 11.4532,-6.7851 5.414,0 7.0586,4.2695 10.1758,6.3554 3.9296,-2.6289 9.8046,-10.0039 12.3945,-12.6171 1.9726,-1.9961 6.3752,-6 7.5352,-7.7344 H 43.3555 c 1.3164,1.9726 12.0195,12.2383 15.1523,15.375 1.6953,1.6875 3.4844,3.4765 4.7695,5.4062 z m 46.1177,24.2735 0.101,-40.8125 c -1.433,0.9609 -3.93,3.5625 -5.183,4.9843 -0.989,1.1133 -1.2,1.6289 -2.333,2.7618 -3.0386,3.0234 -10.6206,11.1289 -12.8355,12.6093 z M 39.1094,47.3359 V 88.043 L 59.043,67.6914 49.3945,57.4102 C 46.918,54.9297 41.5352,48.9609 39.1094,47.3359 Z m 4.2461,45.375 H 105.262 C 103.98,90.7969 83.0195,69.8477 79.2891,66.1016 c -4,-4.0196 -5.6485,-4.3477 -9.7539,-0.2149 z M 32.75,97.7969 V 36.3125 h 82.688 V 99.0664 H 34.0234 c -0.9804,0 -1.2734,-0.293 -1.2734,-1.2695" /></g></g></svg>