<?xml version="1.0" encoding="iso-8859-1"?>
<!-- Generator: Adobe Illustrator 18.0.0, SVG Export Plug-In . SVG Version: 6.00 Build 0)  -->
<!DOCTYPE svg PUBLIC "-//W3C//DTD SVG 1.1//EN" "http://www.w3.org/Graphics/SVG/1.1/DTD/svg11.dtd">
<svg version="1.1" id="Capa_1" xmlns="http://www.w3.org/2000/svg" xmlns:xlink="http://www.w3.org/1999/xlink" x="0px" y="0px"
	 viewBox="0 0 455.731 455.731" style="enable-background:new 0 0 455.731 455.731;" xml:space="preserve">
<g>
	<rect x="0" y="0" width="455.731" height="455.731"/>
	<path style="fill:#FFFFFF;" d="M379.742,257.242c1.77-9.097,2.708-18.492,2.708-28.107c0-80.82-65.518-146.338-146.338-146.338
		c-9.615,0-19.01,0.938-28.107,2.708c-12.507-7.319-27.052-11.532-42.589-11.532c-46.65,0-84.467,37.817-84.467,84.467
		c0,15.537,4.214,30.082,11.532,42.588c-1.77,9.097-2.708,18.492-2.708,28.107c0,80.82,65.518,146.338,146.338,146.338
		c9.615,0,19.01-0.938,28.107-2.708c12.507,7.319,27.052,11.532,42.588,11.532c46.65,0,84.467-37.817,84.467-84.467
		C391.275,284.293,387.061,269.749,379.742,257.242z M238.892,329.634c-52,0-78-19.5-86-44s9.5-31.5,15-32s17.167,0.833,20.5,11
		c3.465,10.567,15,31.5,40,34s41.5-9,46.5-21s-4-28.5-42.5-34s-78.5-22.5-78.5-61s44-54,86-54s63.293,23.721,68,33
		c5.833,11.5,3.833,30.661-10,34c-14.5,3.5-22-4.5-32.5-24c-10.858-20.165-49.5-15-62.5-3.5s-9.5,28,44.5,38.5s74,30,74,60.5
		S290.892,329.634,238.892,329.634z"/>
</g>
<g>
</g>
<g>
</g>
<g>
</g>
<g>
</g>
<g>
</g>
<g>
</g>
<g>
</g>
<g>
</g>
<g>
</g>
<g>
</g>
<g>
</g>
<g>
</g>
<g>
</g>
<g>
</g>
<g>
</g>
</svg>
