<?xml version="1.0" encoding="UTF-8" standalone="no"?>
<svg
   xmlns:dc="http://purl.org/dc/elements/1.1/"
   xmlns:cc="http://creativecommons.org/ns#"
   xmlns:rdf="http://www.w3.org/1999/02/22-rdf-syntax-ns#"
   xmlns:svg="http://www.w3.org/2000/svg"
   xmlns="http://www.w3.org/2000/svg"
   viewBox="0 0 17.333332 17.333332"
   height="17.333332"
   width="17.333332"
   xml:space="preserve"
   id="svg2"
   version="1.1"><metadata
     id="metadata8"><rdf:RDF><cc:Work
         rdf:about=""><dc:format>image/svg+xml</dc:format><dc:type
           rdf:resource="http://purl.org/dc/dcmitype/StillImage" /></cc:Work></rdf:RDF></metadata><defs
     id="defs6" /><g
     transform="matrix(1.3333333,0,0,-1.3333333,0,17.333333)"
     id="g10"><g
       transform="scale(0.1)"
       id="g12"><path
         id="path14"
         style="fill:#6699cc;fill-opacity:1;fill-rule:evenodd;stroke:none"
         d="m 94.9609,83.5742 6.8091,0.5469 C 99.9492,81.2305 98.7695,80.3242 95.5898,78.2891 93.793,62.7695 93.5,50.7656 75.8008,39.0898 70.0703,35.3125 62.2148,31.2969 54.0742,30.6016 c -11.8125,-1.0157 -16.4765,3.0117 -24.375,6.0976 2.9649,2.4531 5.3633,0.9922 10.6406,2.9258 3.5196,1.3008 5.8633,3.2344 9.0586,4.4688 -0.9609,1.0195 -0.1914,0.4218 -1.5937,1.289 -3.7891,2.3438 -6.918,1.5586 -11.1289,8.8242 1.4961,1.4727 2.0273,1.2696 5.1094,1.5586 -5.1563,4.8125 -10.6446,4.7891 -11.2813,15.1524 l 6.1133,-1.4922 c -0.207,1.2109 -3.8789,3.7578 -5.2266,8.6328 -1.1367,4.0859 -0.1289,8.4062 1.1211,11.7695 5.2774,-2.6406 10.6758,-14.6054 32.1719,-15.5625 0.6289,9.6016 3.5703,16.7071 12.0898,18.6055 10.8985,2.4375 12.0157,-4.6055 16.5704,-4.082 1.7265,0.1992 4.9648,1.625 6.8942,2.1914 -1.3864,-5.2188 -2.613,-4.4297 -5.2771,-7.4063 z M 3.20313,3.62891 v 0 L 123.156,3.62109 123.242,123.734 3.50391,123.707 3.20313,3.62891" /><path
         id="path16"
         style="fill:#fdfcfc;fill-opacity:1;fill-rule:evenodd;stroke:none"
         d="m 94.9609,83.5742 c 2.6641,2.9766 3.8907,2.1875 5.2771,7.4063 -1.9294,-0.5664 -5.1677,-1.9922 -6.8942,-2.1914 -4.5547,-0.5235 -5.6719,6.5195 -16.5704,4.082 C 68.2539,90.9727 65.3125,83.8672 64.6836,74.2656 43.1875,75.2227 37.7891,87.1875 32.5117,89.8281 c -1.25,-3.3633 -2.2578,-7.6836 -1.1211,-11.7695 1.3477,-4.875 5.0196,-7.4219 5.2266,-8.6328 l -6.1133,1.4922 c 0.6367,-10.3633 6.125,-10.3399 11.2813,-15.1524 -3.0821,-0.289 -3.6133,-0.0859 -5.1094,-1.5586 4.2109,-7.2656 7.3398,-6.4804 11.1289,-8.8242 1.4023,-0.8672 0.6328,-0.2695 1.5937,-1.289 -3.1953,-1.2344 -5.539,-3.168 -9.0586,-4.4688 -5.2773,-1.9336 -7.6757,-0.4727 -10.6406,-2.9258 7.8985,-3.0859 12.5625,-7.1133 24.375,-6.0976 8.1406,0.6953 15.9961,4.7109 21.7266,8.4882 17.6992,11.6758 17.9922,23.6797 19.789,39.1993 3.1797,2.0351 4.3594,2.9414 6.1802,5.832 l -6.8091,-0.5469" /></g></g></svg>