<?xml version="1.0" encoding="UTF-8" standalone="no"?>
<!-- Creator: CorelDRAW -->

<svg
   xmlns:dc="http://purl.org/dc/elements/1.1/"
   xmlns:cc="http://creativecommons.org/ns#"
   xmlns:rdf="http://www.w3.org/1999/02/22-rdf-syntax-ns#"
   xmlns:svg="http://www.w3.org/2000/svg"
   xmlns="http://www.w3.org/2000/svg"
   xmlns:sodipodi="http://sodipodi.sourceforge.net/DTD/sodipodi-0.dtd"
   xmlns:inkscape="http://www.inkscape.org/namespaces/inkscape"
   xml:space="preserve"
   width="12.043mm"
   height="12.0429mm"
   style="clip-rule:evenodd;fill-rule:evenodd;image-rendering:optimizeQuality;shape-rendering:geometricPrecision;text-rendering:geometricPrecision"
   viewBox="0 0 12.043 12.0429"
   version="1.1"
   id="svg12"
   sodipodi:docname="pravovaya_materinstvo.svg"
   inkscape:version="0.92.2 (5c3e80d, 2017-08-06)"><metadata
     id="metadata16"><rdf:RDF><cc:Work
         rdf:about=""><dc:format>image/svg+xml</dc:format><dc:type
           rdf:resource="http://purl.org/dc/dcmitype/StillImage" /></cc:Work></rdf:RDF></metadata><sodipodi:namedview
     pagecolor="#ffffff"
     bordercolor="#666666"
     borderopacity="1"
     objecttolerance="10"
     gridtolerance="10"
     guidetolerance="10"
     inkscape:pageopacity="0"
     inkscape:pageshadow="2"
     inkscape:window-width="751"
     inkscape:window-height="480"
     id="namedview14"
     showgrid="false"
     inkscape:zoom="1.2488333"
     inkscape:cx="18.529133"
     inkscape:cy="22.544883"
     inkscape:window-x="0"
     inkscape:window-y="0"
     inkscape:window-maximized="0"
     inkscape:current-layer="svg12" /><defs
     id="defs4"><style
       type="text/css"
       id="style2"><![CDATA[
    .fil0 {fill:#1F1A17}
    .fil1 {fill:#4D4948}
   ]]></style></defs><g
     id="Слой_x0020_1"
     transform="translate(-20.0975,-18.9221)"><metadata
       id="CorelCorpID_0Corel-Layer" /><g
       id="_130925712"><path
         id="_130918728"
         class="fil0"
         d="m 26.8891,24.6778 0.0123,-0.074 0.0123,-0.0371 0.0124,-0.037 0.0123,-0.037 0.0123,-0.0246 0.0124,-0.0247 0.0123,-0.0246 0.0123,-0.0247 0.0123,-0.0247 0.0124,-0.0123 0.0123,-0.0124 0.0124,-0.0247 0.0123,-0.0123 0.0124,-0.0123 0.0123,-0.0124 0.0124,-0.0246 0.0123,-0.0124 0.0246,-0.0123 0.0124,-0.0123 0.0123,-0.0123 0.0123,-0.0124 0.0124,-0.0123 0.0246,-0.0123 0.0124,-0.0124 0.0246,-0.0123 0.0247,-0.0123 0.0124,-0.0124 0.0247,-0.0123 0.0246,-0.0124 0.037,-0.0123 0.037,-0.0124 0.037,-0.0123 0.0617,-0.0123 h 0.2467 l 0.0493,0.0123 0.0494,0.0123 0.037,0.0124 0.0246,0.0123 0.037,0.0124 0.0247,0.0123 0.0123,0.0124 0.0247,0.0123 0.0247,0.0123 0.0123,0.0124 0.0124,0.0123 0.0246,0.0123 0.0124,0.0124 0.0123,0.0123 0.0123,0.0123 0.0123,0.0123 h 0.0247 v 0.0247 l 0.0123,0.0123 0.0124,0.0124 0.0123,0.0123 0.0123,0.0123 0.0124,0.0247 0.0123,0.0124 0.0124,0.0247 0.0123,0.0123 0.0124,0.0247 0.0123,0.0246 0.0123,0.0247 0.0124,0.0246 0.0123,0.037 0.0123,0.037 0.0124,0.0494 0.0123,0.074 v 0.1727 l -0.0123,0.0617 -0.0124,0.0493 -0.0123,0.037 -0.0123,0.037 -0.0124,0.0247 -0.0123,0.0247 -0.0123,0.0246 -0.0124,0.0247 -0.0123,0.0247 -0.0124,0.0123 -0.0123,0.0247 -0.0124,0.0123 -0.0123,0.0123 -0.0123,0.0123 -0.0124,0.0247 -0.0123,0.0124 -0.0123,0.0123 -0.0124,0.0124 -0.0246,0.0123 -0.0123,0.0124 -0.0124,0.0123 -0.0123,0.0123 -0.0247,0.0123 -0.0123,0.0124 -0.0247,0.0123 -0.0123,0.0123 -0.0247,0.0124 -0.0247,0.0123 -0.0247,0.0123 -0.0369,0.0123 -0.0247,0.0124 -0.0493,0.0123 -0.0494,0.0123 -0.111,0.0124 -0.0123,0.0123 v 0.0247 l 0.0123,0.0247 0.0123,0.0123 0.0124,0.037 0.0123,0.0247 0.0123,0.037 0.0123,0.0616 v 0.2221 l -0.0123,0.0617 -0.0123,0.0493 -0.0123,0.0494 -0.0124,0.0369 -0.0123,0.0247 -0.0123,0.037 -0.0124,0.0247 -0.0123,0.037 -0.0123,0.0124 -0.0124,0.0246 -0.0123,0.0247 -0.0123,0.0246 -0.0123,0.0247 -0.0124,0.0247 -0.0123,0.0123 -0.0124,0.0247 -0.0123,0.0247 -0.0124,0.0123 -0.0123,0.0247 -0.0124,0.0123 -0.0123,0.0124 -0.0123,0.0246 -0.0123,0.0124 -0.0124,0.0123 -0.0123,0.0246 -0.0123,0.0124 -0.0124,0.0123 -0.0123,0.0123 -0.0123,0.0247 -0.0124,0.0123 -0.0123,0.0124 -0.0123,0.0123 -0.0123,0.0124 -0.0124,0.0123 -0.0123,0.0124 -0.0124,0.0123 -0.0123,0.0247 -0.0124,0.0123 -0.0123,0.0123 -0.0123,0.0123 -0.0124,0.0124 -0.0246,0.0123 -0.0124,0.0123 -0.0123,0.0124 -0.0123,0.0123 -0.0124,0.0123 -0.0123,0.0124 -0.0123,0.0123 -0.0123,0.0123 -0.0124,0.0124 -0.0247,0.0123 -0.0123,0.0124 -0.0124,0.0123 -0.0123,0.0124 -0.0247,0.0123 -0.0123,0.0123 -0.0123,0.0123 -0.0247,0.0124 -0.0123,0.0123 -0.0124,0.0123 -0.0246,0.0124 -0.0123,0.0123 -0.0247,0.0123 -0.0123,0.0124 -0.0247,0.0123 -0.0124,0.0123 -0.0247,0.0123 -0.0123,0.0124 -0.0247,0.0123 -0.0246,0.0124 -0.0124,0.0123 -0.0246,0.0124 -0.0247,0.0123 -0.0246,0.0124 -0.0247,0.0123 -0.0247,0.0123 -0.0123,0.0123 -0.0247,0.0124 -0.0247,0.0123 -0.037,0.0123 -0.0247,0.0124 -0.0246,0.0123 -0.037,0.0123 -0.0247,0.0124 -0.037,0.0123 -0.037,0.0123 -0.037,0.0123 -0.037,0.0124 -0.037,0.0124 -0.0493,0.0123 -0.0494,0.0124 -0.0617,0.0123 -0.0863,0.0123 h -0.3084 l -0.074,-0.0123 -0.0493,-0.0123 -0.037,-0.0124 -0.0247,-0.0123 -0.037,-0.0124 -0.0247,-0.0124 -0.0247,-0.0123 -0.0123,-0.0123 -0.0247,-0.0123 -0.0123,-0.0124 -0.0247,-0.0123 -0.0123,-0.0123 -0.0123,-0.0124 -0.0124,-0.0123 -0.0123,-0.0123 -0.0123,-0.0124 -0.0124,-0.0123 -0.0123,-0.0123 -0.0123,-0.0247 -0.0123,-0.0247 -0.0124,-0.0123 -0.0123,-0.0247 -0.0124,-0.0247 -0.0123,-0.037 -0.0124,-0.037 -0.0123,-0.0616 v -0.2097 l 0.0123,-0.0617 0.0124,-0.0494 0.0123,-0.0493 0.0124,-0.037 0.0123,-0.037 0.0124,-0.0246 0.0123,-0.037 0.0123,-0.0247 0.0123,-0.0247 0.0124,-0.0247 0.0123,-0.0247 0.0123,-0.0246 0.0124,-0.0124 0.0123,-0.0246 0.0123,-0.0247 0.0124,-0.0123 0.0123,-0.0247 0.0123,-0.0246 0.0123,-0.0124 0.0124,-0.0124 0.0123,-0.0246 0.0124,-0.0124 0.0123,-0.0246 0.0124,-0.0124 0.0123,-0.0123 0.0123,-0.0123 0.0124,-0.0247 0.0123,-0.0123 0.0123,-0.0123 0.0124,-0.0124 0.0123,-0.0123 0.0123,-0.0247 0.0124,-0.0123 0.0123,-0.0124 0.0123,-0.0123 0.0123,-0.0124 0.0124,-0.0123 0.0123,-0.0123 0.0123,-0.0124 0.0124,-0.0123 0.0123,-0.0123 0.0124,-0.0124 0.0123,-0.0123 0.0124,-0.0123 0.0123,-0.0123 0.0123,-0.0124 0.0124,-0.0123 0.0246,-0.0123 0.0124,-0.0124 0.0123,-0.0123 0.0123,-0.0123 0.0123,-0.0124 0.0124,-0.0123 0.0246,-0.0124 0.0124,-0.0123 0.0123,-0.0124 0.0247,-0.0123 0.0123,-0.0123 0.0124,-0.0124 0.0123,-0.0123 0.0247,-0.0123 0.0123,-0.0123 0.0247,-0.0124 0.0123,-0.0123 0.0247,-0.0123 0.0123,-0.0124 0.0247,-0.0123 0.0123,-0.0123 0.0247,-0.0124 0.0246,-0.0123 0.0124,-0.0123 0.0247,-0.0124 0.0247,-0.0123 0.0246,-0.0124 0.0124,-0.0123 0.0246,-0.0124 0.0247,-0.0123 0.0246,-0.0123 0.037,-0.0124 0.0247,-0.0123 0.0247,-0.0123 0.0247,-0.0123 0.037,-0.0124 0.0247,-0.0123 0.0369,-0.0123 0.0247,-0.0124 0.037,-0.0123 0.0494,-0.0123 0.037,-0.0123 0.037,-0.0124 0.0616,-0.0123 0.0494,-0.0124 0.0864,-0.0123 0.1109,-0.0124 0.1111,-0.0123 V 25.2451 L 27.0494,25.2328 27.0371,25.2082 27.0247,25.1958 27.0124,25.1835 27,25.1588 l -0.0123,-0.0123 -0.0123,-0.0247 -0.0123,-0.0246 -0.0124,-0.0247 -0.0123,-0.0247 -0.0123,-0.037 -0.0124,-0.037 -0.0123,-0.0493 -0.0123,-0.0617 z m -0.7401,-3.2195 -0.037,0.0124 -0.0494,0.0123 -0.0493,0.0123 -0.0247,0.0124 -0.037,0.0123 -0.037,0.0124 -0.0246,0.0123 -0.0247,0.0124 -0.0247,0.0123 -0.0247,0.0123 -0.0247,0.0124 -0.0123,0.0123 -0.0247,0.0123 -0.0123,0.0123 -0.0246,0.0124 -0.0124,0.0123 -0.0246,0.0123 -0.0124,0.0124 -0.0123,0.0123 -0.0247,0.0123 -0.0123,0.0124 -0.0124,0.0123 -0.0123,0.0124 -0.0124,0.0123 -0.0123,0.0124 -0.0123,0.0123 -0.0247,0.0123 -0.0123,0.0247 -0.0123,0.0123 -0.0124,0.0124 -0.0123,0.0123 -0.0123,0.0123 -0.0124,0.0123 -0.0123,0.0124 -0.0123,0.0246 -0.0124,0.0124 -0.0123,0.0123 -0.0123,0.0247 -0.0124,0.0123 -0.0123,0.0247 -0.0124,0.0124 -0.0123,0.0246 -0.0124,0.0247 -0.0123,0.0123 -0.0123,0.0247 -0.0123,0.0246 -0.0124,0.0247 -0.0123,0.037 -0.0123,0.0247 -0.0124,0.037 -0.0123,0.037 -0.0123,0.037 -0.0124,0.0493 -0.0123,0.0617 -0.0123,0.0741 v 0.296 l 0.0123,0.0863 0.0123,0.0617 0.0124,0.037 0.0123,0.0493 0.0123,0.037 0.0124,0.0247 0.0123,0.037 0.0123,0.0247 0.0124,0.0247 0.0123,0.0246 0.0123,0.0247 0.0123,0.0247 0.0124,0.0246 0.0123,0.0124 0.0124,0.0246 0.0123,0.0123 0.0124,0.0247 0.0123,0.0123 0.0123,0.0247 0.0124,0.0124 0.0123,0.0123 0.0123,0.0124 0.0124,0.0246 0.0123,0.0124 0.0123,0.0123 0.0124,0.0123 0.0123,0.0124 0.0123,0.0123 0.0123,0.0123 0.0124,0.0123 0.0123,0.0124 0.0123,0.0123 0.0124,0.0123 0.0123,0.0124 0.0247,0.0123 0.0124,0.0123 0.0123,0.0124 0.0123,0.0123 0.0247,0.0124 0.0123,0.0123 0.0247,0.0124 0.0123,0.0123 0.0247,0.0123 0.0123,0.0124 0.0247,0.0123 0.0246,0.0123 0.0247,0.0124 0.0247,0.0123 0.0247,0.0123 0.0388,6e-4 -0.0141,0.0241 -0.0124,0.0246 -0.0123,0.0124 -0.0123,0.0123 -0.0124,0.0123 -0.0247,0.0124 -0.0123,0.0123 -0.0124,0.0124 -0.0123,0.0123 -0.0247,0.0124 -0.0246,0.0123 -0.0124,0.0123 -0.0246,0.0124 -0.0247,0.0123 -0.0246,0.0123 -0.0247,0.0123 -0.0247,0.0124 -0.0247,0.0123 -0.0247,0.0123 -0.0246,0.0124 -0.0247,0.0123 -0.037,0.0123 -0.0246,0.0124 -0.0247,0.0123 -0.037,0.0124 -0.0247,0.0123 -0.0247,0.0124 -0.0247,0.0123 -0.0369,0.0123 -0.0247,0.0124 -0.0247,0.0123 -0.0246,0.0123 -0.037,0.0124 -0.0247,0.0123 -0.0247,0.0123 -0.0247,0.0123 -0.037,0.0124 -0.0246,0.0123 -0.0247,0.0123 -0.0247,0.0124 -0.0246,0.0123 -0.0247,0.0123 -0.0246,0.0124 -0.0248,0.0123 -0.0123,0.0124 -0.0247,0.0123 -0.0246,0.0124 -0.0124,0.0123 -0.0246,0.0123 -0.0247,0.0124 -0.0123,0.0123 -0.0124,0.0123 -0.0246,0.0123 -0.0123,0.0124 -0.0247,0.0123 -0.0124,0.0123 -0.0123,0.0124 -0.0124,0.0123 -0.0247,0.0123 -0.0123,0.0124 -0.0123,0.0123 -0.0123,0.0123 -0.0124,0.0124 -0.0123,0.0123 -0.0123,0.0124 -0.0124,0.0123 -0.0123,0.0124 -0.0123,0.0123 -0.0123,0.0246 -0.0124,0.0124 -0.0123,0.0123 -0.0123,0.0123 -0.0124,0.0124 -0.0123,0.0246 -0.0124,0.0247 -0.0123,0.0123 -0.0124,0.0247 -0.0123,0.0247 -0.0123,0.037 -0.0124,0.0247 -0.0123,0.037 -0.0123,0.0493 -0.0124,0.074 v 0.2591 l 0.0124,0.1233 0.0123,0.0987 0.0123,0.074 0.0124,0.0493 0.0123,0.0617 0.0123,0.0493 0.0124,0.0494 0.0123,0.0493 0.0124,0.037 0.0123,0.0493 0.0124,0.037 0.0123,0.0247 0.0123,0.0371 0.0124,0.037 0.0123,0.037 0.0123,0.0369 0.0123,0.0247 0.0124,0.0247 0.0123,0.0246 0.0123,0.0371 0.0124,0.0247 0.0123,0.0246 0.0123,0.037 0.0123,0.0247 0.0124,0.0123 0.0123,0.0247 0.0124,0.0246 0.0123,0.0247 0.0124,0.0247 0.0123,0.0247 0.0124,0.0247 0.0123,0.0246 0.0123,0.0124 0.0123,0.0246 0.0124,0.0247 0.0123,0.0123 0.0123,0.0247 0.0124,0.0246 0.0123,0.0124 v 0.0864 0.2466 l 0.0123,0.074 0.0124,0.0493 0.0123,0.0371 0.0123,0.037 0.0123,0.037 0.0124,0.0247 0.0123,0.0246 0.0124,0.0247 0.0124,0.0123 0.0123,0.0247 0.0123,0.0123 0.0123,0.0247 0.0124,0.0124 0.0123,0.0123 0.0123,0.0124 0.0124,0.0246 0.0123,0.0123 0.0123,0.0124 0.0124,0.0123 0.0123,0.0123 0.0123,0.0124 0.0247,0.0123 0.0123,0.0123 0.0124,0.0124 0.0123,0.0123 0.0247,0.0123 0.0124,0.0123 0.0246,0.0124 0.0123,0.0123 0.0247,0.0124 0.0247,0.0123 0.0246,0.0124 0.037,0.0123 0.0247,0.0124 0.037,0.0123 0.037,0.0123 0.0494,0.0123 0.0493,0.0124 0.0863,0.0123 h 0.3578 l 0.0739,-0.0123 0.0618,-0.0124 h 0.1479 0.3208 l 0.0863,-0.0123 0.0617,-0.0123 0.0493,-0.0123 0.037,-0.0124 0.0371,-0.0123 0.037,-0.0124 0.0369,-0.0123 0.037,-0.0124 0.0247,-0.0123 0.0246,-0.0124 0.0247,-0.0123 0.0247,-0.0123 0.0247,-0.0123 0.0247,-0.0124 0.0246,-0.0123 0.0247,-0.0123 0.0247,-0.0124 0.0123,-0.0123 0.0247,-0.0123 0.0123,-0.0124 0.0247,-0.0123 0.0123,-0.0123 0.0247,-0.0123 0.0124,-0.0124 0.0246,-0.0123 0.0123,-0.0124 0.0247,-0.0124 0.0123,-0.0123 0.0124,-0.0123 0.0123,-0.0123 0.0247,-0.0124 0.0123,-0.0123 0.0123,-0.0123 0.0123,-0.0124 0.0247,-0.0123 0.0124,-0.0123 0.0123,-0.0124 0.0124,-0.0123 0.0123,-0.0123 0.0124,-0.0123 0.0123,-0.0124 0.0123,-0.0123 0.0123,-0.0124 0.0124,-0.0123 0.0123,-0.0124 0.0123,-0.0123 0.0124,-0.0124 0.0123,-0.0123 0.0123,-0.0123 0.0124,-0.0123 0.0123,-0.0124 0.0123,-0.0123 0.0123,-0.0123 0.0124,-0.0124 0.0123,-0.0246 0.0124,-0.0124 0.0123,-0.0123 0.0124,-0.0123 0.0123,-0.0123 0.0123,-0.0124 0.0124,-0.0247 0.0123,-0.0123 0.0123,-0.0124 0.0124,-0.0123 0.0123,-0.0247 0.0123,-0.0123 0.0124,-0.0123 0.0123,-0.0247 0.0123,-0.0123 0.0123,-0.0247 0.0124,-0.0123 0.0123,-0.0123 0.0123,-0.0247 0.0124,-0.0123 0.0123,-0.0247 0.0124,-0.0247 0.0123,-0.0124 0.0124,-0.0246 0.0123,-0.0124 0.0123,-0.0246 0.0124,-0.0247 0.0123,-0.0123 0.0123,-0.0247 0.0124,-0.0246 0.0123,-0.0247 0.0123,-0.0247 0.0123,-0.0247 0.0124,-0.0123 0.0123,-0.0247 0.0123,-0.0247 0.0124,-0.0246 0.0123,-0.0247 0.0123,-0.037 0.0124,-0.0246 0.0123,-0.0247 0.0124,-0.0247 0.0123,-0.037 0.0124,-0.0247 0.0123,-0.0247 0.0123,-0.0369 0.0124,-0.037 0.0123,-0.037 0.0123,-0.0247 0.0124,-0.0371 0.0123,-0.037 0.0123,-0.0493 0.0123,-0.037 0.0124,-0.0493 0.0123,-0.037 0.0123,-0.0617 0.0124,-0.0617 0.0123,-0.0616 0.0124,-0.0617 0.0123,-0.0987 0.0124,-0.111 0.0123,-0.0123 0.0123,-0.0247 0.0124,-0.0247 0.0123,-0.0247 0.0123,-0.0123 0.0124,-0.0247 0.0123,-0.037 0.0123,-0.037 0.0123,-0.0246 0.0124,-0.0371 0.0123,-0.0493 0.0123,-0.0493 0.0124,-0.0987 v -0.2097 l -0.0124,-0.074 -0.0123,-0.0617 -0.0123,-0.037 -0.0124,-0.037 -0.0123,-0.037 -0.0123,-0.037 L 28.542,24.3447 28.5296,24.32 28.5173,24.2954 28.505,24.2707 28.4926,24.2584 28.4803,24.2337 28.468,24.2091 28.4556,24.1967 28.4433,24.1721 28.4309,24.1597 28.4186,24.1474 28.4062,24.1227 28.3939,24.1104 28.3816,24.098 28.3692,24.0857 28.3569,24.0733 28.3446,24.061 28.3323,24.0487 28.3199,24.0363 28.3076,24.024 28.2953,24.0117 28.2829,23.9993 28.2706,23.987 28.2459,23.9747 28.2336,23.9624 28.2212,23.95 28.1965,23.9377 28.1842,23.9254 28.1595,23.913 28.1472,23.9007 28.1225,23.8883 28.0979,23.876 28.0732,23.8636 28.0486,23.8513 28.0239,23.839 l -0.0247,-0.0124 -0.037,-0.0123 -0.037,-0.0123 -0.037,-0.0124 -0.0493,-0.0123 -0.074,-0.0123 h -0.2961 l -0.074,0.0123 -0.0493,0.0123 -0.037,0.0124 -0.037,0.0123 -0.0247,0.0123 -0.037,0.0124 -0.0247,0.0123 -0.0247,0.0123 -0.0246,0.0124 -0.0247,0.0123 -0.0123,0.0124 -0.0247,0.0123 -0.0123,0.0124 -0.0247,0.0123 L 27.0247,23.95 27,23.9624 H 26.9754 L 26.9631,23.95 26.9507,23.9377 26.9384,23.9254 26.9261,23.913 26.9137,23.9007 26.9014,23.8883 26.8891,23.8636 26.8768,23.8513 26.8644,23.8266 v -0.037 l 0.037,-0.0123 0.0247,-0.0123 0.0246,-0.0123 0.0247,-0.0124 L 27,23.728 l 0.0247,-0.0123 0.0124,-0.0124 0.0247,-0.0123 0.0123,-0.0123 0.0247,-0.0124 0.0123,-0.0123 0.0247,-0.0124 0.0123,-0.0123 0.0123,-0.0124 0.0124,-0.0123 0.0246,-0.0123 0.0124,-0.0124 0.0123,-0.0123 0.0123,-0.0123 0.0124,-0.0124 0.0123,-0.0123 0.0124,-0.0123 0.0123,-0.0123 0.0124,-0.0124 0.0123,-0.0123 0.0123,-0.0123 0.0123,-0.0124 0.0124,-0.0123 0.0123,-0.0247 0.0123,-0.0123 0.0124,-0.0124 0.0123,-0.0123 0.0123,-0.0247 0.0124,-0.0123 0.0123,-0.0247 0.0123,-0.0123 0.0123,-0.0247 0.0124,-0.0246 0.0123,-0.0247 0.0124,-0.0123 0.0123,-0.0247 0.0124,-0.0247 0.0123,-0.037 0.0124,-0.0247 0.0123,-0.037 0.0123,-0.037 0.0123,-0.037 0.0124,-0.0369 0.0123,-0.0618 0.0123,-0.074 v -0.333 l -0.0123,-0.0864 -0.0123,-0.0493 -0.0124,-0.037 -0.0123,-0.0493 -0.0123,-0.0247 -0.0123,-0.037 -0.0124,-0.037 L 27.5182,22.1491 27.5058,22.1244 27.4935,22.0998 27.4811,22.0751 27.4688,22.0505 27.4564,22.0381 27.4441,22.0135 27.4318,21.9888 27.4195,21.9764 27.4071,21.9517 27.3948,21.9394 27.3825,21.9271 27.3701,21.9024 27.3578,21.8901 27.3455,21.8777 27.3331,21.8654 27.3208,21.8531 27.3085,21.8408 27.2962,21.8161 27.2838,21.8038 27.2715,21.7914 27.2591,21.7791 27.2468,21.7668 27.2221,21.7544 27.2098,21.7421 27.1974,21.7297 27.1851,21.7174 27.1728,21.705 27.1604,21.6927 27.1358,21.6804 27.1234,21.668 27.1111,21.6557 27.0865,21.6434 27.0741,21.631 27.0494,21.6187 27.0247,21.6064 27.0124,21.5941 26.9877,21.5817 26.9631,21.5694 26.9384,21.5571 26.9137,21.5447 26.8891,21.5324 26.8521,21.52 26.8274,21.5077 26.7904,21.4953 26.7534,21.483 26.704,21.4707 26.6547,21.4583 26.5684,21.446 h -0.3331 z"
         inkscape:connector-curvature="0"
         style="fill:#1f1a17" /><polygon
         id="_130925928"
         class="fil0"
         points="26.2476,25.7015 26.2353,25.7139 26.223,25.7262 26.2106,25.7385 26.1983,25.7509 26.186,25.7756 26.1737,25.8003 26.1613,25.8373 26.1613,26.0223 26.1737,26.084 26.186,26.121 26.1983,26.1579 26.2106,26.1826 26.223,26.2196 26.2353,26.2443 26.2476,26.269 26.26,26.2937 26.2723,26.3183 26.2846,26.343 26.297,26.3553 26.3093,26.38 26.3217,26.4046 26.334,26.417 26.3464,26.4293 26.3587,26.454 26.371,26.4663 26.3834,26.4787 26.3957,26.5034 26.408,26.5157 26.4204,26.528 26.4327,26.5404 26.445,26.565 26.4573,26.5774 26.4697,26.5897 26.482,26.602 26.4943,26.6143 26.5067,26.6267 26.519,26.639 26.5313,26.6513 26.556,26.6513 26.5807,26.639 26.6054,26.6267 26.6301,26.6143 26.6547,26.602 26.6794,26.5897 26.6917,26.5774 26.7164,26.565 26.741,26.5527 26.7657,26.5404 26.778,26.528 26.8027,26.5157 26.8151,26.5034 26.8398,26.491 26.8644,26.4787 26.8768,26.4663 26.9014,26.454 26.9137,26.4416 26.9261,26.4293 26.9507,26.417 26.9631,26.4046 26.9754,26.3923 26.9877,26.38 27,26.3676 27.0247,26.3553 27.0371,26.343 27.0494,26.3307 27.0618,26.3183 27.0741,26.306 27.0865,26.2937 27.0988,26.2813 27.1111,26.269 27.1234,26.2567 27.1358,26.2443 27.1481,26.2196 27.1604,26.2073 27.1728,26.1949 27.1851,26.1703 27.1974,26.1579 27.2098,26.121 27.2221,26.0963 27.2344,26.0593 27.2344,25.9359 27.2221,25.8989 27.2098,25.8866 27.1974,25.8619 27.1851,25.8496 27.1728,25.8373 27.1604,25.8249 27.1481,25.8126 27.1234,25.8003 27.0988,25.7879 27.0741,25.7756 26.9384,25.7756 26.9014,25.7879 26.8644,25.8003 26.8398,25.8126 26.8151,25.8249 26.7904,25.8373 26.778,25.8496 26.7657,25.8619 26.741,25.8743 26.7287,25.8866 26.704,25.8989 26.6917,25.9112 26.6794,25.9236 26.667,25.9359 26.6547,25.9482 26.6424,25.9606 26.6301,25.9729 26.6054,25.9852 26.6054,25.9359 26.5931,25.8989 26.5807,25.8619 26.5684,25.8373 26.556,25.8126 26.5437,25.7879 26.5313,25.7756 26.519,25.7509 26.5067,25.7385 26.4943,25.7262 26.482,25.7139 26.4697,25.7015 26.4573,25.6892 26.4327,25.6769 26.3957,25.6646 26.3464,25.6646 26.297,25.6769 26.2723,25.6892 "
         style="fill:#1f1a17" /></g><path
       id="path14"
       class="fil1"
       d="m 26.1189,18.9221 c 3.3256,0 6.0216,2.696 6.0216,6.0215 10e-5,3.3254 -2.6959,6.0214 -6.0216,6.0214 -3.3254,0 -6.0214,-2.696 -6.0214,-6.0214 0,-3.3255 2.696,-6.0215 6.0215,-6.0215 z m 0.0062,0.1601 c 3.2093,0 5.8112,2.6148 5.8112,5.8403 0,3.2251 -2.6018,5.8399 -5.8112,5.8399 -3.2095,0 -5.8114,-2.6148 -5.8114,-5.8399 0,-3.2254 2.6019,-5.8403 5.8115,-5.8403 m -10e-5,0 z"
       inkscape:connector-curvature="0"
       style="fill:#4d4948" /></g></svg>