<?xml version="1.0" encoding="UTF-8" standalone="no"?>
<!-- Creator: CorelDRAW -->

<svg
   xmlns:dc="http://purl.org/dc/elements/1.1/"
   xmlns:cc="http://creativecommons.org/ns#"
   xmlns:rdf="http://www.w3.org/1999/02/22-rdf-syntax-ns#"
   xmlns:svg="http://www.w3.org/2000/svg"
   xmlns="http://www.w3.org/2000/svg"
   xmlns:sodipodi="http://sodipodi.sourceforge.net/DTD/sodipodi-0.dtd"
   xmlns:inkscape="http://www.inkscape.org/namespaces/inkscape"
   xml:space="preserve"
   width="12.043mm"
   height="12.0429mm"
   style="clip-rule:evenodd;fill-rule:evenodd;image-rendering:optimizeQuality;shape-rendering:geometricPrecision;text-rendering:geometricPrecision"
   viewBox="0 0 12.043 12.0429"
   version="1.1"
   id="svg13"
   sodipodi:docname="pravovaya_strahovanie.svg"
   inkscape:version="0.92.2 (5c3e80d, 2017-08-06)"><metadata
     id="metadata17"><rdf:RDF><cc:Work
         rdf:about=""><dc:format>image/svg+xml</dc:format><dc:type
           rdf:resource="http://purl.org/dc/dcmitype/StillImage" /></cc:Work></rdf:RDF></metadata><sodipodi:namedview
     pagecolor="#ffffff"
     bordercolor="#666666"
     borderopacity="1"
     objecttolerance="10"
     gridtolerance="10"
     guidetolerance="10"
     inkscape:pageopacity="0"
     inkscape:pageshadow="2"
     inkscape:window-width="751"
     inkscape:window-height="480"
     id="namedview15"
     showgrid="false"
     inkscape:zoom="1.2488333"
     inkscape:cx="30.452787"
     inkscape:cy="22.028977"
     inkscape:window-x="0"
     inkscape:window-y="0"
     inkscape:window-maximized="0"
     inkscape:current-layer="svg13" /><defs
     id="defs4"><style
       type="text/css"
       id="style2"><![CDATA[
    .fil0 {fill:#1F1A17}
    .fil1 {fill:#4D4948}
    .fil2 {fill:#1F1A17;fill-rule:nonzero}
   ]]></style></defs><g
     id="Слой_x0020_1"
     transform="translate(-16.9427,-18.7856)"><metadata
       id="CorelCorpID_0Corel-Layer" /><path
       class="fil0"
       d="m 25.6795,25.4957 v -0.288 C 25.6761,25.2023 25.63,24.8208 25.6287,24.7926 25.6258,24.7302 25.5559,24.4925 25.5357,24.4282 25.472,24.2252 25.3542,23.9514 25.2474,23.7931 25.1838,23.6988 25.1263,23.606 25.0613,23.5134 24.9988,23.4244 24.9107,23.35 24.8478,23.2695 24.768,23.1674 24.4647,22.9053 24.3496,22.8444 c 0.022,-0.0948 0.2795,-0.4925 0.2795,-0.5422 0,-0.0086 -0.0733,-0.0532 -0.0847,-0.0593 l -0.3772,0.4793 c -0.0323,-0.005 -0.2429,-0.1207 -0.3019,-0.1475 -0.0966,-0.0439 -0.2251,-0.093 -0.3325,-0.1249 -0.2045,-0.0608 -0.5297,-0.1306 -0.7842,-0.1306 h -0.2287 c -0.0698,0 -0.3001,0.0258 -0.3575,0.0407 -0.1049,0.0272 -0.2219,0.0426 -0.3219,0.0677 -0.1653,0.0414 -0.4255,0.1426 -0.5631,0.2162 -0.1815,0.097 -0.3235,0.186 -0.4822,0.3056 -0.113,0.0852 -0.3275,0.2673 -0.4015,0.3778 0.0773,-0.0064 0.1489,-0.0593 0.2711,-0.0593 h 0.0084 l 0.2033,0.0099 c 0.0348,0.0218 0.1928,0.0664 0.2542,0.1001 0.0583,0.0321 0.1396,0.1107 0.1885,0.1589 0.0895,0.0885 0.2096,0.3201 0.2096,0.4935 v 0.1186 c 0,0.0478 -0.0169,0.0463 -0.0169,0.1016 0.0382,-0.0102 0.1507,-0.0925 0.2213,-0.1175 0.0854,-0.0302 0.1637,-0.0519 0.2784,-0.0519 h 0.0424 c 0.2135,0 0.422,0.1212 0.5315,0.2308 0.0703,0.0703 0.1137,0.1258 0.1601,0.2212 0.026,0.0536 0.0877,0.2161 0.0877,0.2849 v 0.0424 c 0,0.0272 -0.6511,1.0366 -0.723,1.166 -0.11,0.1976 -0.2482,0.3872 -0.361,0.5792 -0.0543,0.0923 -0.1189,0.2065 -0.1815,0.2929 -0.0508,0.0699 -0.1753,0.1812 -0.2847,0.1812 h -0.1186 c -0.0908,0 -0.2316,-0.0915 -0.2816,-0.1418 -0.0588,-0.0591 -0.1334,-0.1763 -0.1334,-0.2902 v -0.0254 c 0,-0.1474 0.0538,-0.1534 0.0762,-0.2372 l -0.1762,-0.1043 c -0.0546,0.0818 -0.1033,0.1754 -0.1033,0.3076 v 0.0085 c 0,0.3762 0.3125,0.6777 0.6861,0.6777 h 0.0763 c 0.1223,0 0.2806,-0.0973 0.3495,-0.1587 0.0535,-0.0477 0.168,-0.2298 0.2067,-0.3016 0.1126,-0.2088 0.2772,-0.4116 0.3867,-0.6213 0.0452,-0.0867 0.1382,-0.2271 0.1956,-0.3127 0.0681,-0.1016 0.1327,-0.207 0.1965,-0.3117 0.0542,-0.0891 0.3721,-0.5771 0.3845,-0.6235 0.0572,-0.0013 0.0677,-0.0312 0.127,-0.034 0.0567,-0.0027 0.0776,-0.0168 0.1356,-0.0168 h 0.0424 c 0.2326,0 0.4391,0.1115 0.557,0.2307 0.1051,0.1063 0.2477,0.3274 0.2477,0.5317 v 0.1101 c 0,0.048 -0.0169,0.0482 -0.0169,0.1101 0.021,-0.0023 0.1785,-0.1022 0.2257,-0.1215 0.0599,-0.0245 0.2078,-0.0479 0.291,-0.0479 0.4299,0 0.8047,0.374 0.8047,0.8047 0.0415,-0.0477 0.1332,-0.3736 0.1576,-0.4693 0.0221,-0.087 0.0349,-0.1701 0.0509,-0.2625 0.0071,-0.0415 0.0214,-0.2732 0.0287,-0.2847 z"
       id="path7"
       inkscape:connector-curvature="0"
       style="fill:#1f1a17" /><path
       id="path14"
       class="fil1"
       d="m 22.9641,18.7856 c 3.3256,0 6.0216,2.696 6.0216,6.0215 10e-5,3.3254 -2.6959,6.0214 -6.0216,6.0214 -3.3254,0 -6.0214,-2.696 -6.0214,-6.0214 0,-3.3255 2.696,-6.0215 6.0215,-6.0215 z m 0.0062,0.1601 c 3.2093,0 5.8112,2.6148 5.8112,5.8403 0,3.2251 -2.6018,5.8399 -5.8112,5.8399 -3.2095,0 -5.8114,-2.6148 -5.8114,-5.8399 0,-3.2254 2.6019,-5.8403 5.8115,-5.8403 m -10e-5,0 z"
       inkscape:connector-curvature="0"
       style="fill:#4d4948" /><polygon
       class="fil2"
       points="23.036,27.0769 23.036,26.8381 23.6033,26.8381 23.6033,26.2709 23.8449,26.2709 23.8449,26.8381 24.4122,26.8381 24.4122,27.0769 23.8449,27.0769 23.8449,27.6485 23.6033,27.6485 23.6033,27.0769 "
       id="polygon10"
       style="fill:#1f1a17;fill-rule:nonzero" /></g></svg>