<?xml version="1.0" encoding="UTF-8"?>
<!DOCTYPE svg PUBLIC "-//W3C//DTD SVG 1.1//EN" "http://www.w3.org/Graphics/SVG/1.1/DTD/svg11.dtd">
<!-- Creator: CorelDRAW -->
<svg xmlns="http://www.w3.org/2000/svg" xml:space="preserve" width="13mm" height="13mm" style="shape-rendering:geometricPrecision; text-rendering:geometricPrecision; image-rendering:optimizeQuality; fill-rule:evenodd; clip-rule:evenodd"
viewBox="0 0 13 13"
 xmlns:xlink="http://www.w3.org/1999/xlink">
 <defs>
  <style type="text/css">
   <![CDATA[
    .fil0 {fill:#821743}
    .fil1 {fill:#821743;fill-rule:nonzero}
   ]]>
  </style>
 </defs>
 <g id="Слой_x0020_1">
  <metadata id="CorelCorpID_0Corel-Layer"/>
  <path id="path14" class="fil0" d="M6.4349 0.5375c3.3256,0 6.0216,2.696 6.0216,6.0215 0.0001,3.3254 -2.6959,6.0214 -6.0216,6.0214 -3.3254,0 -6.0214,-2.696 -6.0214,-6.0214 0,-3.3255 2.696,-6.0215 6.0215,-6.0215l-0.0001 0zm0.0062 0.1601c3.2093,0 5.8112,2.6148 5.8112,5.8403 0,3.2251 -2.6018,5.8399 -5.8112,5.8399 -3.2095,0 -5.8114,-2.6148 -5.8114,-5.8399 0,-3.2254 2.6019,-5.8403 5.8115,-5.8403m-0.0001 0l0 0 0 0z"/>
  <path class="fil0" d="M4.5879 7.0188c0,-0.6032 -0.1414,-2.2147 0.2425,-2.1439l5.006 -0.0076 0.0381 4.0075c0.0248,0.3972 -1.2498,0.5545 -2.4206,0.6723 -0.8958,-0.0047 -2.0183,0.0871 -2.7839,0.0871 0,0.033 -0.0349,0.0357 0.0756,0.0581 0.9004,0.1827 5.2597,0.0175 5.2597,-0.7032l0 -3.969c0,-0.2962 -0.0876,-0.322 -0.3839,-0.322l-4.683 0c-0.3385,0 -0.5057,0.1323 -0.5062,0.3797 0,0.886 -0.0001,1.5017 0,2.6579 0,1.0726 0.1159,2.3503 -0.5123,1.807 -0.2527,-0.1812 -0.6097,-5.2816 -0.6097,-5.2816 0.832,-0.1246 2.3717,-0.285 3.2466,-0.3297 0.8065,-0.0739 1.6384,-0.1513 1.8894,-0.1637 0.0336,-0.0017 0.2883,0.5879 0.3503,0.7224 0.1215,0.2636 0.1205,0.1331 0.224,0.175l-0.4375 -1.0269c-1.0305,0.0474 -4.814,0.3588 -5.462,0.5135l0.5121 5.2265c0.036,0.2768 0.1885,0.5091 0.5459,0.5091 0.6904,0.0427 0.4089,-2.3601 0.4089,-2.8685z"/>
  <polygon class="fil0" points="9.4923,8.8494 9.4949,7.4826 7.7229,7.4826 7.7255,9.0268 "/>
  <path class="fil1" d="M5.2981 6.7976l0 -1.2559 0.203 0 0.4228 0.8386 0 -0.8386 0.1939 0 0 1.2559 -0.2096 0 -0.4162 -0.8191 0 0.8191 -0.1939 0zm1.0403 0l0 -1.2559 0.7659 0 0 0.2126 -0.5574 0 0 0.2784 0.5186 0 0 0.2113 -0.5186 0 0 0.3419 0.5771 0 0 0.2117 -0.7856 0zm1.1091 0l-0.2466 -1.2559 0.2134 0 0.1558 0.8626 0.1889 -0.8626 0.248 0 0.1811 0.8772 0.1585 -0.8772 0.2099 0 -0.2508 1.2559 -0.2214 0 -0.2055 -0.9389 -0.2052 0.9389 -0.2261 0zm1.1627 -0.4085l0.203 -0.0243c0.012,0.083 0.0368,0.1438 0.0744,0.1827 0.0372,0.0387 0.0875,0.0583 0.151,0.0583 0.0671,0 0.1178,-0.0173 0.1517,-0.0522 0.0342,-0.0344 0.0513,-0.0748 0.0513,-0.121 0,-0.0298 -0.0072,-0.0549 -0.0216,-0.0757 -0.0142,-0.0211 -0.0392,-0.0392 -0.075,-0.0544 -0.0244,-0.0105 -0.0802,-0.0287 -0.167,-0.055 -0.1119,-0.0335 -0.1903,-0.0751 -0.2354,-0.1242 -0.0633,-0.069 -0.0951,-0.1532 -0.0951,-0.2526 0,-0.0641 0.0149,-0.1237 0.0447,-0.1796 0.0298,-0.0555 0.0729,-0.0979 0.129,-0.1272 0.0562,-0.0289 0.1238,-0.0435 0.2032,-0.0435 0.1299,0 0.2272,0.0344 0.2929,0.1035 0.0655,0.0693 0.1,0.1614 0.1032,0.2769l-0.2085 0.0111c-0.009,-0.0647 -0.0282,-0.1112 -0.0575,-0.1392 -0.0294,-0.0283 -0.0733,-0.0424 -0.132,-0.0424 -0.0607,0 -0.1083,0.0149 -0.1424,0.0453 -0.0222,0.0193 -0.0333,0.0454 -0.0333,0.0778 0,0.0299 0.0104,0.0553 0.031,0.0763 0.0263,0.0269 0.0903,0.055 0.1918,0.0839 0.1015,0.0292 0.1765,0.0594 0.2252,0.0904 0.0485,0.0312 0.0865,0.0737 0.1142,0.1278 0.0274,0.0541 0.0412,0.1207 0.0412,0.2 0,0.0719 -0.0164,0.1394 -0.0494,0.2021 -0.0329,0.0628 -0.0793,0.1095 -0.1395,0.1399 -0.0602,0.0307 -0.1352,0.046 -0.2248,0.046 -0.1307,0 -0.2309,-0.0365 -0.301,-0.11 -0.07,-0.0734 -0.1118,-0.1804 -0.1253,-0.3207z"/>
  <rect class="fil0" x="5.49259" y="7.46263" width="1.7207" height="0.245815"/>
  <rect class="fil0" x="5.49259" y="8.07717" width="1.7207" height="0.245815"/>
  <rect class="fil0" x="5.49259" y="8.66713" width="1.7207" height="0.245815"/>
 </g>
</svg>
