<?xml version="1.0" encoding="UTF-8" standalone="no"?>
<svg
   xmlns:dc="http://purl.org/dc/elements/1.1/"
   xmlns:cc="http://creativecommons.org/ns#"
   xmlns:rdf="http://www.w3.org/1999/02/22-rdf-syntax-ns#"
   xmlns:svg="http://www.w3.org/2000/svg"
   xmlns="http://www.w3.org/2000/svg"
   viewBox="0 0 17.333332 17.333332"
   height="17.333332"
   width="17.333332"
   xml:space="preserve"
   id="svg2"
   version="1.1"><metadata
     id="metadata8"><rdf:RDF><cc:Work
         rdf:about=""><dc:format>image/svg+xml</dc:format><dc:type
           rdf:resource="http://purl.org/dc/dcmitype/StillImage" /></cc:Work></rdf:RDF></metadata><defs
     id="defs6" /><g
     transform="matrix(1.3333333,0,0,-1.3333333,0,17.333333)"
     id="g10"><g
       transform="scale(0.1)"
       id="g12"><path
         id="path14"
         style="fill:#6699cc;fill-opacity:1;fill-rule:evenodd;stroke:none"
         d="M 9.53516,4.86719 H 129.367 L 129.859,125.16 H 9.07813 L 9.53516,4.86719" /><path
         id="path16"
         style="fill:#6699cc;fill-opacity:1;fill-rule:evenodd;stroke:none"
         d="m 64.3164,48.9297 c 6.0625,0.3242 16.1328,1.5351 16.3633,5.5781 0.2305,4 -8.8906,6.1172 -16.4414,6.125 0.0234,-3.8984 0.0469,-7.8047 0.0781,-11.7031" /><path
         id="path18"
         style="fill:#6699cc;fill-opacity:1;fill-rule:evenodd;stroke:none"
         d="m 64.1992,71.1289 c 20.7031,0.0625 21.0078,10.7227 0,10.7891 V 71.1289" /><path
         id="path20"
         style="fill:#ffffff;fill-opacity:1;fill-rule:evenodd;stroke:none"
         d="m 40.2773,31.3477 c 9.1954,-0.1993 18.5938,-0.0118 27.8008,-0.0118 7.3282,0 19.2422,-0.0742 25.0547,2.9805 8.4452,4.4414 11.6992,15.9102 7.5972,24.1406 -0.703,1.4141 -2.0034,3.2735 -2.8902,4.0547 -4.082,3.6094 -7.5429,3.6367 -9.3632,4.7227 6.5507,2.5429 10.707,6.9414 10.7773,14.4336 0.0742,7.707 -4.6797,13.0703 -10.1328,15.289 -6.0586,2.461 -16.332,1.7227 -23.4414,1.7227 -8.4141,0 -17,0.168 -25.3867,-0.0117 z m 20.9493,41.0664 c 1.5742,-0.3086 9.9961,-0.1953 11.75,0.0507 3.625,0.5 5.7656,2.2422 5.8672,6.0899 0.1054,3.9297 -2.1602,5.7812 -5.7227,6.2851 C 71.2422,85.1055 63,85.2305 61.2344,84.9141 Z M 73.8828,45.9648 c 3.0938,-0.2695 5.8633,1.4454 6.8945,3.3477 1.5157,2.7891 1.0235,6.0156 -0.9492,7.9023 -3.2851,3.1524 -13.1211,2.2891 -18.4375,2.1915 V 45.8945 l 12.4922,0.0703" /></g></g></svg>