<?xml version="1.0" encoding="UTF-8" standalone="no"?>
<!-- Creator: CorelDRAW -->

<svg
   xmlns:dc="http://purl.org/dc/elements/1.1/"
   xmlns:cc="http://creativecommons.org/ns#"
   xmlns:rdf="http://www.w3.org/1999/02/22-rdf-syntax-ns#"
   xmlns:svg="http://www.w3.org/2000/svg"
   xmlns="http://www.w3.org/2000/svg"
   xmlns:sodipodi="http://sodipodi.sourceforge.net/DTD/sodipodi-0.dtd"
   xmlns:inkscape="http://www.inkscape.org/namespaces/inkscape"
   xml:space="preserve"
   width="12.043mm"
   height="12.0429mm"
   style="clip-rule:evenodd;fill-rule:evenodd;image-rendering:optimizeQuality;shape-rendering:geometricPrecision;text-rendering:geometricPrecision"
   viewBox="0 0 12.043 12.0429"
   version="1.1"
   id="svg15"
   sodipodi:docname="protez_vidi_protez.svg"
   inkscape:version="0.92.2 (5c3e80d, 2017-08-06)"><metadata
     id="metadata19"><rdf:RDF><cc:Work
         rdf:about=""><dc:format>image/svg+xml</dc:format><dc:type
           rdf:resource="http://purl.org/dc/dcmitype/StillImage" /></cc:Work></rdf:RDF></metadata><sodipodi:namedview
     pagecolor="#ffffff"
     bordercolor="#666666"
     borderopacity="1"
     objecttolerance="10"
     gridtolerance="10"
     guidetolerance="10"
     inkscape:pageopacity="0"
     inkscape:pageshadow="2"
     inkscape:window-width="751"
     inkscape:window-height="480"
     id="namedview17"
     showgrid="false"
     inkscape:zoom="0.62441667"
     inkscape:cx="13.520125"
     inkscape:cy="38.84712"
     inkscape:window-x="0"
     inkscape:window-y="0"
     inkscape:window-maximized="0"
     inkscape:current-layer="svg15" /><defs
     id="defs4"><style
       type="text/css"
       id="style2"><![CDATA[
    .fil0 {fill:#838281}
    .fil1 {fill:#E77817}
   ]]></style></defs><g
     id="Слой_x0020_1"
     transform="translate(-46.4228,-48.2354)"><metadata
       id="CorelCorpID_0Corel-Layer" /><path
       id="path14"
       class="fil0"
       d="m 52.4442,48.2354 c 3.3256,0 6.0216,2.696 6.0216,6.0215 10e-5,3.3254 -2.6959,6.0214 -6.0216,6.0214 -3.3254,0 -6.0214,-2.696 -6.0214,-6.0214 0,-3.3255 2.696,-6.0215 6.0215,-6.0215 z m 0.0062,0.1601 c 3.2093,0 5.8112,2.6148 5.8112,5.8403 0,3.2251 -2.6018,5.8399 -5.8112,5.8399 -3.2095,0 -5.8114,-2.6148 -5.8114,-5.8399 0,-3.2254 2.6019,-5.8403 5.8115,-5.8403 m -10e-5,0 z"
       inkscape:connector-curvature="0"
       style="fill:#838281" /><path
       class="fil1"
       d="m 52.18,53.8129 c -0.2048,0 -0.3142,-0.7419 -0.3637,-0.9401 -0.0656,-0.2625 -0.2374,-0.8171 -0.2539,-1.0156 h 1.8528 c -0.0734,0.3149 -0.1721,0.775 -0.2745,1.0636 -0.0908,0.2561 -0.0752,0.8921 -0.4118,0.8921 z m -0.8921,-2.2302 v 0.3774 c 0,0.2662 0.202,0.9359 0.2809,1.1946 0.0912,0.2984 0.1636,0.9669 0.5084,0.9669 h 0.8576 c 0.2813,0 0.4123,-0.7283 0.473,-0.968 0.0741,-0.2925 0.2819,-0.8902 0.2819,-1.1591 v -0.3431 c 0,-0.5566 -0.0736,-0.4115 -0.3424,-0.2738 -0.1797,0.092 -0.4824,0.1708 -0.7555,0.1708 -0.1977,0 -0.5155,-0.0248 -0.6599,-0.0606 -0.0941,-0.0234 -0.2052,-0.0521 -0.2857,-0.0917 -0.0528,-0.0259 -0.2124,-0.1565 -0.221,-0.1565 -0.13,0 -0.1373,0.2085 -0.1373,0.3431 z"
       id="path8"
       inkscape:connector-curvature="0"
       style="fill:#e77817" /><polygon
       class="fil1"
       points="52.7633,54.3961 52.2143,54.3961 52.2143,56.7635 52.7633,56.7635 "
       id="polygon10"
       style="fill:#e77817" /><path
       class="fil1"
       d="m 52.0084,57.2439 v 0.1715 h 0.9608 v -0.1715 c 0,-0.1851 -0.1697,-0.3089 -0.3432,-0.3089 h -0.2744 c -0.1602,0 -0.3432,0.1327 -0.3432,0.3089 z"
       id="path12"
       inkscape:connector-curvature="0"
       style="fill:#e77817" /></g></svg>