<?xml version="1.0" encoding="UTF-8" standalone="no"?>
<!-- Creator: CorelDRAW -->

<svg
   xmlns:dc="http://purl.org/dc/elements/1.1/"
   xmlns:cc="http://creativecommons.org/ns#"
   xmlns:rdf="http://www.w3.org/1999/02/22-rdf-syntax-ns#"
   xmlns:svg="http://www.w3.org/2000/svg"
   xmlns="http://www.w3.org/2000/svg"
   xmlns:sodipodi="http://sodipodi.sourceforge.net/DTD/sodipodi-0.dtd"
   xmlns:inkscape="http://www.inkscape.org/namespaces/inkscape"
   xml:space="preserve"
   width="12.043mm"
   height="12.0429mm"
   style="clip-rule:evenodd;fill-rule:evenodd;image-rendering:optimizeQuality;shape-rendering:geometricPrecision;text-rendering:geometricPrecision"
   viewBox="0 0 12.043 12.0429"
   version="1.1"
   id="svg24"
   sodipodi:docname="protez_uchregdeniya.svg"
   inkscape:version="0.92.2 (5c3e80d, 2017-08-06)"><metadata
     id="metadata28"><rdf:RDF><cc:Work
         rdf:about=""><dc:format>image/svg+xml</dc:format><dc:type
           rdf:resource="http://purl.org/dc/dcmitype/StillImage" /></cc:Work></rdf:RDF></metadata><sodipodi:namedview
     pagecolor="#ffffff"
     bordercolor="#666666"
     borderopacity="1"
     objecttolerance="10"
     gridtolerance="10"
     guidetolerance="10"
     inkscape:pageopacity="0"
     inkscape:pageshadow="2"
     inkscape:window-width="751"
     inkscape:window-height="480"
     id="namedview26"
     showgrid="false"
     inkscape:zoom="0.62441667"
     inkscape:cx="16.633322"
     inkscape:cy="5.6893243"
     inkscape:window-x="0"
     inkscape:window-y="0"
     inkscape:window-maximized="0"
     inkscape:current-layer="svg24" /><defs
     id="defs4"><style
       type="text/css"
       id="style2"><![CDATA[
    .fil1 {fill:#838281}
    .fil0 {fill:#E77817}
   ]]></style></defs><g
     id="Слой_x0020_1"
     transform="translate(-45.5991,-39.4624)"><metadata
       id="CorelCorpID_0Corel-Layer" /><polygon
       class="fil0"
       points="51.1079,43.5819 51.5857,43.5819 51.5857,44.0597 51.8246,44.0597 51.8246,43.5819 52.3024,43.5819 52.3024,43.3429 51.8246,43.3429 51.8246,42.8651 51.5857,42.8651 51.5857,43.3429 51.1079,43.3429 "
       id="polygon7"
       style="fill:#e77817" /><path
       class="fil0"
       d="m 54.4526,44.7764 v 0.4778 h -0.9557 v -0.4778 z m -1.0751,0.5972 h 1.1945 v -0.7167 h -1.1945 z"
       id="path9"
       inkscape:connector-curvature="0"
       style="fill:#e77817" /><path
       class="fil0"
       d="m 52.8995,44.1952 2.1255,-0.0086 v 3.3286 l -2.1255,0.0086 z m -1.5626,2.0418 c 0,0 0.3479,-0.0186 0.7307,-0.0272 v 1.314 h -0.7208 c 0,-0.3186 -0.0099,-1.6053 -0.0099,-1.2868 z m -2.9765,-2.6551 h 2.1502 v 3.9419 h -2.1502 z m 2.2879,-1.1855 2.1045,0.0092 V 47.533 L 52.183,47.5238 v -1.4334 h -0.9557 v 1.4334 h -0.579 z m -3.0046,5.3663 h 8.2423 c -0.1372,-0.1872 0.1944,-0.1251 -0.2244,-0.1251 h -0.4923 v -3.5779 h -2.2696 v -1.7919 h -2.3891 v 1.1946 H 48.241 v 4.1809 h -0.5973 z"
       id="path11"
       inkscape:connector-curvature="0"
       style="fill:#e77817" /><path
       id="path14"
       class="fil1"
       d="m 51.6205,39.4624 c 3.3256,0 6.0216,2.696 6.0216,6.0215 1e-4,3.3254 -2.6959,6.0214 -6.0216,6.0214 -3.3254,0 -6.0214,-2.696 -6.0214,-6.0214 0,-3.3255 2.696,-6.0215 6.0215,-6.0215 z m 0.0062,0.1601 c 3.2093,0 5.8112,2.6148 5.8112,5.8403 0,3.2251 -2.6018,5.8399 -5.8112,5.8399 -3.2095,0 -5.8114,-2.6148 -5.8114,-5.8399 0,-3.2254 2.6019,-5.8403 5.8115,-5.8403 m -1e-4,0 z"
       inkscape:connector-curvature="0"
       style="fill:#838281" /><path
       class="fil0"
       d="M 49.9198,46.4722 V 46.95 h -0.9557 v -0.4778 z m -1.0751,0.5972 h 1.1945 v -0.7167 h -1.1945 z"
       id="path15"
       inkscape:connector-curvature="0"
       style="fill:#e77817" /><path
       class="fil0"
       d="m 49.9007,45.3758 v 0.4778 H 48.945 v -0.4778 z m -1.0751,0.5972 h 1.1945 v -0.7167 h -1.1945 z"
       id="path17"
       inkscape:connector-curvature="0"
       style="fill:#e77817" /><path
       class="fil0"
       d="m 49.9213,44.2383 v 0.4778 h -0.9557 v -0.4778 z m -1.0751,0.5972 h 1.1945 v -0.7167 h -1.1945 z"
       id="path19"
       inkscape:connector-curvature="0"
       style="fill:#e77817" /><path
       class="fil0"
       d="m 53.5778,45.986 h 0.8749 v 0.9515 h -0.8749 z m 0.9777,1.0601 v -1.1893 h -1.1022 v 1.1893 z"
       id="path21"
       inkscape:connector-curvature="0"
       style="fill:#e77817" /></g></svg>