<?xml version="1.0" encoding="UTF-8" standalone="no"?>
<svg
   xmlns:dc="http://purl.org/dc/elements/1.1/"
   xmlns:cc="http://creativecommons.org/ns#"
   xmlns:rdf="http://www.w3.org/1999/02/22-rdf-syntax-ns#"
   xmlns:svg="http://www.w3.org/2000/svg"
   xmlns="http://www.w3.org/2000/svg"
   viewBox="0 0 25.333332 26.666668"
   height="26.666668"
   width="25.333332"
   xml:space="preserve"
   id="svg2"
   version="1.1"><metadata
     id="metadata8"><rdf:RDF><cc:Work
         rdf:about=""><dc:format>image/svg+xml</dc:format><dc:type
           rdf:resource="http://purl.org/dc/dcmitype/StillImage" /></cc:Work></rdf:RDF></metadata><defs
     id="defs6" /><g
     transform="matrix(1.3333333,0,0,-1.3333333,0,26.666667)"
     id="g10"><g
       transform="scale(0.1)"
       id="g12"><path
         id="path14"
         style="fill:#f97cd2;fill-opacity:1;fill-rule:evenodd;stroke:none"
         d="m 102.445,125.008 c -5.4177,0.453 -10.5309,4.14 -16.7497,4.121 -2.0195,0 -15.3242,-3.191 -16.789,-3.875 -3.0899,-1.441 -4.0782,-14.191 -2.6797,-16.727 1.4218,-2.55 5.1718,-2.699 6.5117,-0.101 3.418,6.652 -3.1133,8.98 7.7851,10.609 L 72.2422,89.3086 c -3.9961,0.7617 -12.7109,3.9961 -15.4688,1.1133 -1.9179,-2.0196 -1.0937,-5.336 0.6602,-6.5313 1.5,-1.0508 5.3945,-1.8554 7.3945,-2.3672 4.6328,-1.1953 11.8867,-5.1328 14.375,0.4102 1.5078,3.3359 3.836,11.5156 5.5625,13.9648 l 11.086,-4.2812 c 0.125,-4.2422 -2.9453,-15.3906 -0.6407,-18.3164 1.6094,-2.0156 5.7691,-2.1172 7.0041,0.043 0.125,0.2265 5.933,22.2656 1.34,25.0703 -1.918,1.1757 -12.3792,4.9649 -14.7308,5.6249 0.5156,2.965 4.4531,12.606 5.7696,14.563 7.9102,-0.637 8.5272,-9.082 15.9842,1.73 2.043,2.969 5.957,7.438 5.113,11.125 -0.457,1.938 -2.558,3.789 -5.214,2.945 -2.965,-0.949 -4.676,-7.273 -8.032,-9.394" /><path
         id="path16"
         style="fill:#f97cd2;fill-opacity:1;fill-rule:evenodd;stroke:none"
         d="m 122.301,100.867 c -0.863,-3.4217 -7.395,-19.1404 -9.535,-24.6014 -0.516,-1.3164 -2.453,-7.5781 -3.813,-7.9492 -15.3475,0.0234 -30.6952,0 -46.0428,0 -3.7891,0 -7.293,0.7227 -9.1055,-1.9375 -2.1211,-3.1094 0,-6.5508 3.5039,-6.8164 4.4492,-0.3516 55.4574,-0.4141 57.3714,0.4102 2.203,0.9882 3.027,4.9257 4.058,7.5429 4.285,11.0196 8.504,22.4727 13.184,33.3284 2.285,0.062 5.5,-0.285 7.23,0.679 1.586,0.864 2.743,3.813 1.399,5.977 -2.035,3.273 -9.824,2.141 -13.926,2.141 -4.219,0 -11.887,1.113 -13.594,-2.45 -1.051,-2.164 0,-4.804 1.543,-5.668 1.774,-0.964 5.379,-0.617 7.727,-0.656" /><path
         id="path18"
         style="fill:#f97cd2;fill-opacity:1;fill-rule:evenodd;stroke:none"
         d="m 88.5586,148.121 c -12.0078,-3.191 -7.0234,-20.332 4.2656,-17.488 4.1797,1.07 7.9918,5.562 6.5899,11.043 -1.0703,4.16 -5.5625,7.867 -10.8555,6.445" /><path
         id="path20"
         style="fill:#f97cd2;fill-opacity:1;fill-rule:evenodd;stroke:none"
         d="m 94.9063,193.48 c 51.7777,0 93.7497,-41.972 93.7497,-93.7495 0,-51.7774 -41.972,-93.75003 -93.7497,-93.75003 -51.7774,0 -93.75005,41.97263 -93.75005,93.75003 0,51.7775 41.97265,93.7495 93.75005,93.7495 z m 0.0429,-1.367 c 50.9378,0 92.2268,-41.289 92.2268,-92.2263 0,-50.9375 -41.289,-92.22654 -92.2268,-92.22654 -50.9375,0 -92.23045,41.28904 -92.23045,92.22654 0,50.9373 41.29295,92.2263 92.23045,92.2263" /></g></g></svg>