<?xml version="1.0" encoding="UTF-8" standalone="no"?>
<!-- Creator: CorelDRAW -->

<svg
   xmlns:dc="http://purl.org/dc/elements/1.1/"
   xmlns:cc="http://creativecommons.org/ns#"
   xmlns:rdf="http://www.w3.org/1999/02/22-rdf-syntax-ns#"
   xmlns:svg="http://www.w3.org/2000/svg"
   xmlns="http://www.w3.org/2000/svg"
   xmlns:sodipodi="http://sodipodi.sourceforge.net/DTD/sodipodi-0.dtd"
   xmlns:inkscape="http://www.inkscape.org/namespaces/inkscape"
   xml:space="preserve"
   width="8.6105003mm"
   height="11.5996mm"
   style="clip-rule:evenodd;fill-rule:evenodd;image-rendering:optimizeQuality;shape-rendering:geometricPrecision;text-rendering:geometricPrecision"
   viewBox="0 0 8.6105003 11.5996"
   version="1.1"
   id="svg12"
   sodipodi:docname="lechenie_za_rubegom_phone.svg"
   inkscape:version="0.92.2 (5c3e80d, 2017-08-06)"><metadata
     id="metadata16"><rdf:RDF><cc:Work
         rdf:about=""><dc:format>image/svg+xml</dc:format><dc:type
           rdf:resource="http://purl.org/dc/dcmitype/StillImage" /></cc:Work></rdf:RDF></metadata><sodipodi:namedview
     pagecolor="#ffffff"
     bordercolor="#666666"
     borderopacity="1"
     objecttolerance="10"
     gridtolerance="10"
     guidetolerance="10"
     inkscape:pageopacity="0"
     inkscape:pageshadow="2"
     inkscape:window-width="751"
     inkscape:window-height="480"
     id="namedview14"
     showgrid="false"
     inkscape:zoom="0.62441667"
     inkscape:cx="32.282078"
     inkscape:cy="20.079876"
     inkscape:window-x="0"
     inkscape:window-y="0"
     inkscape:window-maximized="0"
     inkscape:current-layer="svg12" /><defs
     id="defs4"><style
       type="text/css"
       id="style2"><![CDATA[
    .fil0 {fill:#010101}
   ]]></style></defs><g
     id="Слой_x0020_1"
     transform="translate(-41.4587,-43.7132)"><metadata
       id="CorelCorpID_0Corel-Layer" /><g
       id="_681617800"><polygon
         id="_681616072"
         class="fil0"
         points="44.2756,45.4516 44.2856,45.8812 44.2955,46.161 44.3056,46.4407 44.3156,46.6705 44.3255,46.8303 44.3355,46.9403 44.3455,46.9902 44.3555,47.0002 44.3655,47.0102 44.3755,47.0202 44.3855,47.0302 44.4254,47.0402 44.4954,47.0402 44.5453,47.0302 44.5852,47.0202 44.6152,47.0102 44.6452,47.0002 44.6751,46.9902 44.6951,46.9802 44.7151,46.9702 44.7351,46.9602 44.7551,46.9503 44.7751,46.9403 44.795,46.9303 44.815,46.9203 44.835,46.9103 44.8549,46.9003 44.8649,46.8903 44.8849,46.8803 44.8949,46.8703 44.9149,46.8603 44.9249,46.8504 44.9448,46.8403 44.9548,46.8303 44.9649,46.8204 44.9748,46.8104 44.9848,46.8004 44.9948,46.7904 45.0048,46.7804 45.0148,46.7704 45.0248,46.7604 45.0348,46.7504 45.0447,46.7404 45.0547,46.7304 45.0647,46.7205 45.0747,46.7105 45.0847,46.7005 45.0947,46.6905 45.1047,46.6705 45.1147,46.6605 45.1247,46.6505 45.1346,46.6405 45.1446,46.6305 45.1546,46.6205 45.1646,46.6006 45.1746,46.5906 45.1846,46.5806 45.1946,46.5606 45.2046,46.5506 45.2146,46.5406 45.2245,46.5306 45.2245,46.3708 45.2146,45.6914 45.2046,45.1019 45.1946,44.3825 45.1846,44.1827 45.1746,44.1528 45.1646,44.1328 45.1546,44.1228 45.1446,44.1028 45.1346,44.0928 45.1247,44.0828 45.1147,44.0629 45.1047,44.0529 45.0947,44.0428 45.0847,44.0329 45.0747,44.0229 45.0647,44.0129 45.0447,44.0129 45.0447,43.9929 45.0248,43.9829 45.0148,43.9729 45.0048,43.9629 44.9948,43.9529 44.9748,43.9429 44.9649,43.933 44.9448,43.923 44.9349,43.913 44.9149,43.903 44.9049,43.893 44.8849,43.883 44.8749,43.873 44.8549,43.863 44.835,43.853 44.815,43.843 44.805,43.833 44.785,43.8231 44.765,43.8131 44.7351,43.8031 44.7151,43.7931 44.6951,43.7831 44.6751,43.7731 44.6452,43.7631 44.6152,43.7531 44.5852,43.7431 44.5553,43.7331 44.5153,43.7232 44.4654,43.7132 44.2556,43.7132 44.2556,44.2926 44.2656,44.9321 "
         style="fill:#010101" /><polygon
         id="_681612568"
         class="fil0"
         points="43.5664,43.7531 43.5064,43.7631 43.4565,43.7731 43.4165,43.7831 43.3666,43.7931 43.3166,43.8031 43.2767,43.8131 43.2367,43.8231 43.1968,43.833 43.1568,43.843 43.1368,43.853 43.0969,43.863 43.0669,43.873 43.037,43.883 43.007,43.893 42.977,43.903 42.9471,43.913 42.9171,43.923 42.8971,43.933 42.8671,43.9429 42.8371,43.9529 42.8172,43.9629 42.7872,43.9729 42.7672,43.9829 42.7472,43.9929 42.7273,44.0029 42.7073,44.0129 42.6773,44.0229 42.6574,44.0329 42.6374,44.0428 42.6174,44.0529 42.5974,44.0629 42.5775,44.0728 42.5675,44.0828 42.5475,44.0928 42.5275,44.1028 42.5075,44.1128 42.4876,44.1228 42.4776,44.1328 42.4576,44.1428 42.4376,44.1528 42.4276,44.1628 42.4076,44.1727 42.3976,44.1827 42.3777,44.1927 42.3577,44.2027 42.3477,44.2127 42.3377,44.2227 42.3177,44.2327 42.3077,44.2427 42.2878,44.2527 42.2778,44.2627 42.2678,44.2727 42.2478,44.2826 42.2378,44.2926 42.2278,44.3026 42.2178,44.3126 42.1979,44.3226 42.1879,44.3326 42.1779,44.3426 42.1579,44.3526 42.1479,44.3626 42.1379,44.3726 42.1279,44.3825 42.118,44.3925 42.108,44.4026 42.098,44.4125 42.088,44.4225 42.078,44.4325 42.068,44.4425 42.058,44.4525 42.048,44.4625 42.028,44.4725 42.0181,44.4824 42.0081,44.4925 41.9981,44.5124 41.9881,44.5224 41.9781,44.5324 41.9681,44.5424 41.9581,44.5524 41.9481,44.5624 41.9381,44.5724 41.9282,44.5824 41.9182,44.5924 41.9082,44.6124 41.8982,44.6223 41.8882,44.6323 41.8782,44.6423 41.8682,44.6623 41.8582,44.6723 41.8482,44.6823 41.8383,44.7023 41.8283,44.7123 41.8183,44.7222 41.8083,44.7423 41.7983,44.7522 41.7883,44.7722 41.7783,44.7822 41.7683,44.8022 41.7583,44.8221 41.7483,44.8321 41.7384,44.8521 41.7284,44.8621 41.7184,44.8821 41.7084,44.9021 41.6984,44.9221 41.6884,44.9421 41.6785,44.962 41.6684,44.982 41.6584,45.002 41.6485,45.022 41.6385,45.042 41.6285,45.0619 41.6185,45.0919 41.6085,45.1119 41.5985,45.1419 41.5885,45.1618 41.5785,45.1918 41.5685,45.2218 41.5586,45.2518 41.5486,45.2818 41.5386,45.3217 41.5286,45.3617 41.5186,45.3917 41.5086,45.4316 41.4986,45.4816 41.4887,45.5315 41.4786,45.5915 41.4687,45.6714 41.4587,45.7713 41.4587,46.4407 41.4687,46.6905 41.4786,46.8803 41.4887,47.0302 41.4986,47.17 41.5086,47.2999 41.5186,47.4098 41.5286,47.4998 41.5386,47.5997 41.5486,47.6996 41.5586,47.7895 41.5685,47.8694 41.5785,47.9593 41.5885,48.0293 41.5985,48.0892 41.6085,48.1692 41.6185,48.2391 41.6285,48.309 41.6385,48.369 41.6485,48.4389 41.6584,48.4988 41.6684,48.5588 41.6785,48.6088 41.6884,48.6687 41.6984,48.7187 41.7084,48.7786 41.7184,48.8286 41.7284,48.8785 41.7384,48.9285 41.7483,48.9684 41.7583,49.0184 41.7683,49.0684 41.7783,49.1183 41.7883,49.1683 41.7983,49.2082 41.8083,49.2582 41.8183,49.2982 41.8283,49.3281 41.8383,49.3781 41.8482,49.418 41.8582,49.458 41.8682,49.498 41.8782,49.538 41.8882,49.5779 41.8982,49.6079 41.9082,49.6478 41.9182,49.6878 41.9282,49.7278 41.9381,49.7577 41.9481,49.7977 41.9581,49.8277 41.9681,49.8676 41.9781,49.8876 41.9881,49.9276 41.9981,49.9575 42.0081,49.9975 42.0181,50.0275 42.028,50.0575 42.038,50.0874 42.048,50.1174 42.058,50.1474 42.068,50.1774 42.078,50.2073 42.088,50.2373 42.098,50.2673 42.108,50.2972 42.118,50.3172 42.1279,50.3472 42.1379,50.3772 42.1479,50.4071 42.1579,50.4271 42.1679,50.4571 42.1779,50.4871 42.1879,50.507 42.1979,50.5271 42.2079,50.557 42.2178,50.587 42.2278,50.607 42.2378,50.6369 42.2478,50.6569 42.2578,50.6869 42.2678,50.7069 42.2778,50.7269 42.2878,50.7468 42.2978,50.7768 42.3077,50.7968 42.3177,50.8168 42.3277,50.8467 42.3377,50.8668 42.3477,50.8867 42.3577,50.9067 42.3677,50.9267 42.3777,50.9466 42.3877,50.9667 42.3976,50.9866 42.4076,51.0066 42.4176,51.0266 42.4276,51.0466 42.4376,51.0666 42.4476,51.0865 42.4576,51.1065 42.4675,51.1265 42.4776,51.1465 42.4876,51.1665 42.4975,51.1864 42.5075,51.1964 42.5175,51.2164 42.5275,51.2364 42.5375,51.2564 42.5475,51.2764 42.5575,51.2964 42.5675,51.3064 42.5775,51.3263 42.5874,51.3363 42.5974,51.3563 42.6074,51.3763 42.6174,51.3963 42.6274,51.4063 42.6374,51.4262 42.6474,51.4362 42.6574,51.4562 42.6674,51.4662 42.6773,51.4862 42.6873,51.5062 42.6973,51.5162 42.7073,51.5361 42.7173,51.5462 42.7273,51.5561 42.7373,51.5761 42.7472,51.5961 42.7573,51.6061 42.7672,51.626 42.7772,51.6361 42.7872,51.656 42.7972,51.666 42.8072,51.676 42.8172,51.696 42.8272,51.706 42.8371,51.726 42.8472,51.746 42.8572,51.7559 42.8671,51.7659 42.8771,51.7859 42.8871,51.7959 42.8971,51.8159 42.9071,51.8259 42.9171,51.8459 42.9271,51.8559 42.937,51.8758 42.9471,51.8858 42.957,51.9058 42.967,51.9158 42.977,51.9358 42.987,51.9458 42.997,51.9657 43.007,51.9757 43.017,51.9858 43.0269,52.0057 43.037,52.0157 43.0469,52.0357 43.0569,52.0457 43.0669,52.0657 43.0769,52.0757 43.0869,52.0956 43.0969,52.1056 43.1069,52.1156 43.1168,52.1356 43.1268,52.1456 43.1368,52.1656 43.1468,52.1756 43.1568,52.1956 43.1668,52.2055 43.1768,52.2155 43.1868,52.2355 43.1968,52.2455 43.2067,52.2655 43.2167,52.2755 43.2268,52.2955 43.2367,52.3054 43.2467,52.3154 43.2567,52.3354 43.2667,52.3454 43.2767,52.3654 43.2867,52.3754 43.2967,52.3854 43.3066,52.4054 43.3166,52.4153 43.3266,52.4254 43.3366,52.4453 43.3466,52.4553 43.3566,52.4753 43.3666,52.4853 43.3766,52.4953 43.3866,52.5153 43.3965,52.5253 43.4065,52.5353 43.4165,52.5552 43.4265,52.5652 43.4365,52.5852 43.4465,52.5952 43.4565,52.6052 43.4665,52.6252 43.4765,52.6352 43.4864,52.6451 43.4964,52.6651 43.5064,52.6751 43.5164,52.6851 43.5264,52.7051 43.5364,52.7151 43.5464,52.7251 43.5564,52.7351 43.5664,52.755 43.5764,52.7651 43.5863,52.775 43.5963,52.795 43.6063,52.805 43.6163,52.815 43.6263,52.825 43.6363,52.845 43.6463,52.8549 43.6563,52.875 43.6663,52.8849 43.6762,52.8949 43.6862,52.9049 43.6962,52.9249 43.7062,52.9349 43.7162,52.9449 43.7262,52.9549 43.7362,52.9749 43.7462,52.9848 43.7562,52.9948 43.7661,53.0048 43.7761,53.0248 43.7861,53.0348 43.7961,53.0448 43.8061,53.0548 43.8161,53.0748 43.8261,53.0847 43.8361,53.0947 43.8461,53.1047 43.856,53.1247 43.866,53.1347 43.876,53.1447 43.886,53.1547 43.896,53.1747 43.906,53.1847 43.916,53.1946 43.926,53.2047 43.936,53.2146 43.946,53.2246 43.9559,53.2446 43.9659,53.2546 43.9759,53.2646 43.9859,53.2746 43.9959,53.2846 44.0059,53.3046 44.0159,53.3146 44.0259,53.3245 44.0359,53.3345 44.0458,53.3445 44.0558,53.3545 44.0658,53.3745 44.0758,53.3845 44.0858,53.3945 44.0958,53.4045 44.1058,53.4145 44.1158,53.4244 44.1258,53.4444 44.1357,53.4544 44.1457,53.4644 44.1557,53.4744 44.1657,53.4844 44.1757,53.4944 44.1857,53.5044 44.1957,53.5144 44.2056,53.5343 44.2157,53.5443 44.2256,53.5543 44.2356,53.5643 44.2456,53.5743 44.2556,53.5843 44.2656,53.5943 44.2756,53.6043 44.2856,53.6143 44.2955,53.6243 44.3056,53.6443 44.3156,53.6543 44.3255,53.6642 44.3355,53.6742 44.3455,53.6842 44.3555,53.6942 44.3655,53.7042 44.3755,53.7142 44.3855,53.7242 44.3954,53.7342 44.4055,53.7442 44.4154,53.7542 44.4254,53.7641 44.4354,53.7741 44.4454,53.7841 44.4554,53.7941 44.4654,53.8041 44.4754,53.8241 44.4853,53.8341 44.4954,53.8441 44.5053,53.8541 44.5153,53.8641 44.5253,53.874 44.5353,53.884 44.5453,53.894 44.5553,53.904 44.5653,53.914 44.5752,53.924 44.5852,53.934 44.5952,53.944 44.6052,53.954 44.6152,53.964 44.6252,53.9739 44.6352,53.9839 44.6452,53.994 44.6552,54.0039 44.6751,54.0139 44.6852,54.0239 44.6951,54.0339 44.7051,54.0439 44.7151,54.0539 44.7251,54.0639 44.7351,54.0739 44.7451,54.0839 44.7551,54.0939 44.765,54.1038 44.7751,54.1138 44.785,54.1238 44.795,54.1338 44.805,54.1438 44.815,54.1538 44.825,54.1638 44.845,54.1738 44.8549,54.1838 44.8649,54.1938 44.8749,54.2038 44.8849,54.2137 44.8949,54.2237 44.9049,54.2337 44.9149,54.2437 44.9249,54.2537 44.9448,54.2637 44.9548,54.2737 44.9649,54.2837 44.9748,54.2937 44.9848,54.3037 44.9948,54.3136 45.0048,54.3236 45.0248,54.3337 45.0348,54.3436 45.0447,54.3536 45.0547,54.3636 45.0647,54.3736 45.0747,54.3836 45.0947,54.3936 45.1047,54.4036 45.1147,54.4135 45.1247,54.4235 45.1446,54.4336 45.1546,54.4435 45.1646,54.4535 45.1746,54.4635 45.1946,54.4735 45.2046,54.4835 45.2146,54.4935 45.2245,54.5035 45.2445,54.5135 45.2545,54.5235 45.2645,54.5335 45.2845,54.5435 45.2945,54.5534 45.3045,54.5634 45.3244,54.5734 45.3344,54.5834 45.3444,54.5934 45.3644,54.6034 45.3744,54.6134 45.3844,54.6234 45.4044,54.6334 45.4143,54.6434 45.4243,54.6533 45.4443,54.6633 45.4543,54.6733 45.4743,54.6833 45.4843,54.6933 45.5042,54.7033 45.5142,54.7133 45.5342,54.7233 45.5442,54.7333 45.5542,54.7433 45.5742,54.7532 45.5842,54.7632 45.6041,54.7733 45.6241,54.7832 45.6341,54.7932 45.6541,54.8032 45.6641,54.8132 45.684,54.8232 45.694,54.8332 45.714,54.8432 45.734,54.8532 45.744,54.8631 45.764,54.8732 45.7839,54.8831 45.7939,54.8931 45.8139,54.9031 45.8339,54.9131 45.8539,54.9231 45.8738,54.9331 45.8838,54.9431 45.9038,54.9531 45.9238,54.9631 45.9437,54.9731 45.9637,54.9831 45.9837,54.993 45.9937,55.003 46.0237,55.013 46.0437,55.023 46.0536,55.033 46.0736,55.043 46.1036,55.053 46.1235,55.063 46.1436,55.073 46.1635,55.083 46.1935,55.0929 46.2135,55.1029 46.2335,55.1129 46.2534,55.1229 46.2834,55.1329 46.3034,55.1429 46.3333,55.1529 46.3633,55.1629 46.3833,55.1729 46.4132,55.1829 46.4432,55.1929 46.4732,55.2028 46.5031,55.2129 46.5331,55.2228 46.5631,55.2328 46.603,55.2428 46.633,55.2528 46.673,55.2628 46.7129,55.2728 46.7529,55.2828 46.8028,55.2928 46.8528,55.3027 46.9127,55.3128 47.6719,55.3128 47.7118,55.3027 47.7518,55.2928 47.7917,55.2828 47.8317,55.2728 47.8716,55.2628 47.9016,55.2528 47.9316,55.2428 47.9716,55.2328 48.0115,55.2228 48.0415,55.2129 48.0714,55.2028 48.1114,55.1929 48.1413,55.1829 48.1713,55.1729 48.2013,55.1629 48.2312,55.1529 48.2612,55.1429 48.2912,55.1329 48.3212,55.1229 48.3511,55.1129 48.3811,55.1029 48.4011,55.0929 48.431,55.083 48.461,55.073 48.491,55.063 48.5209,55.053 48.5509,55.043 48.5709,55.033 48.5909,55.023 48.6208,55.013 48.6408,55.003 48.6708,54.993 48.7007,54.9831 48.7207,54.9731 48.7507,54.9631 48.7707,54.9531 48.7906,54.9431 48.8106,54.9331 48.8406,54.9231 48.8606,54.9131 48.8905,54.9031 48.9105,54.8931 48.9305,54.8831 48.9505,54.8732 48.9704,54.8631 48.9904,54.8532 49.0204,54.8432 49.0403,54.8332 49.0604,54.8232 49.0803,54.8132 49.1003,54.8032 49.1203,54.7932 49.1403,54.7832 49.1602,54.7733 49.1802,54.7632 49.2002,54.7532 49.2202,54.7433 49.2402,54.7333 49.2501,54.7233 49.2701,54.7133 49.2901,54.7033 49.3101,54.6933 49.3301,54.6833 49.3401,54.6733 49.36,54.6633 49.38,54.6533 49.39,54.6434 49.4099,54.6334 49.43,54.6234 49.4499,54.6134 49.4599,54.6034 49.4799,54.5934 49.4899,54.5834 49.5098,54.5734 49.5199,54.5634 49.5398,54.5534 49.5398,54.5435 49.5298,54.5335 49.5199,54.5235 49.5098,54.5135 49.4899,54.5035 49.4799,54.4935 49.4699,54.4835 49.4599,54.4735 49.4399,54.4635 49.43,54.4535 49.4199,54.4435 49.4099,54.4336 49.39,54.4235 49.38,54.4135 49.37,54.4036 49.35,54.3936 49.3401,54.3836 49.3301,54.3736 49.32,54.3636 49.3001,54.3536 49.2901,54.3436 49.2801,54.3337 49.2701,54.3236 49.2501,54.3136 49.2402,54.3037 49.2301,54.2937 49.2102,54.2837 49.2002,54.2737 49.1902,54.2637 49.1702,54.2537 49.1602,54.2437 49.1503,54.2337 49.1403,54.2237 49.1303,54.2137 49.1103,54.2038 49.1003,54.1938 49.0903,54.1838 49.0703,54.1738 49.0604,54.1638 49.0504,54.1538 49.0403,54.1438 49.0204,54.1338 49.0104,54.1238 49.0004,54.1138 48.9804,54.1038 48.9704,54.0939 48.9605,54.0839 48.9505,54.0739 48.9305,54.0639 48.9205,54.0539 48.9105,54.0439 48.9005,54.0339 48.8805,54.0239 48.8706,54.0139 48.8606,54.0039 48.8506,53.994 48.8306,53.9839 48.8206,53.9739 48.8106,53.964 48.7906,53.954 48.7807,53.944 48.7707,53.934 48.7607,53.924 48.7407,53.914 48.7307,53.904 48.7207,53.894 48.7007,53.884 48.6908,53.874 48.6808,53.8641 48.6708,53.8541 48.6508,53.8441 48.6408,53.8341 48.6308,53.8241 48.6208,53.8141 48.6008,53.8041 48.5909,53.7941 48.5809,53.7841 48.5709,53.7741 48.5509,53.7641 48.5409,53.7542 48.5309,53.7442 48.5109,53.7342 48.501,53.7242 48.491,53.7142 48.481,53.7042 48.461,53.6942 48.451,53.6842 48.441,53.6742 48.421,53.6642 48.4111,53.6543 48.4011,53.6443 48.3911,53.6342 48.3811,53.6243 48.3611,53.6143 48.3511,53.6043 48.3411,53.5943 48.3212,53.5843 48.3112,53.5743 48.3012,53.5643 48.2912,53.5543 48.2712,53.5443 48.2612,53.5343 48.2512,53.5244 48.2312,53.5144 48.2213,53.5044 48.2113,53.4944 48.2013,53.4844 48.1813,53.4744 48.1713,53.4644 48.1613,53.4544 48.1513,53.4444 48.1314,53.4344 48.1214,53.4244 48.1114,53.4145 48.1014,53.4045 48.0814,53.3945 48.0714,53.3845 48.0614,53.3745 48.0415,53.3645 48.0315,53.3545 48.0215,53.3445 48.0115,53.3345 47.9915,53.3245 47.9815,53.3146 47.9716,53.3046 47.9515,53.2945 47.9416,53.2846 47.9316,53.2746 47.9216,53.2646 47.9016,53.2546 47.8916,53.2446 47.8817,53.2346 47.8716,53.2246 47.8517,53.2146 47.8417,53.2047 47.8317,53.1946 47.8217,53.1847 47.8017,53.1747 47.7917,53.1647 47.7818,53.1547 47.7618,53.1447 47.7518,53.1347 47.7418,53.1247 47.7318,53.1147 47.7118,53.1047 47.7018,53.0947 47.6919,53.0847 47.6719,53.0748 47.6619,53.0648 47.6519,53.0548 47.6419,53.0448 47.6219,53.0348 47.6119,53.0248 47.602,53.0148 47.592,53.0048 47.572,52.9948 47.562,52.9848 47.552,52.9749 47.532,52.9649 47.522,52.9549 47.512,52.9449 47.5021,52.9349 47.4821,52.9249 47.4721,52.9149 47.4621,52.9049 47.4421,52.8949 47.4321,52.8849 47.4221,52.875 47.4122,52.865 47.4022,52.8549 47.3822,52.845 47.3722,52.835 47.3622,52.825 47.3422,52.815 47.3322,52.805 47.3223,52.795 47.3123,52.785 47.2923,52.775 47.2823,52.7651 47.2723,52.755 47.2523,52.7451 47.2423,52.7351 47.2324,52.7251 47.2224,52.7151 47.2024,52.7051 47.1924,52.6951 47.1824,52.6851 47.1724,52.6751 47.1524,52.6651 47.1424,52.6551 47.1325,52.6451 47.1225,52.6352 47.1025,52.6252 47.0925,52.6152 47.0825,52.6052 47.0625,52.5952 47.0525,52.5852 47.0426,52.5752 47.0326,52.5652 47.0126,52.5552 47.0026,52.5452 46.9926,52.5353 46.9726,52.5253 46.9626,52.5153 46.9527,52.5053 46.9427,52.4953 46.9227,52.4853 46.9127,52.4753 46.9027,52.4653 46.8927,52.4553 46.8727,52.4453 46.8428,52.4453 46.8228,52.4553 46.8128,52.4653 46.7928,52.4753 46.7728,52.4853 46.7429,52.4953 46.7229,52.5053 46.7029,52.5153 46.6829,52.5253 46.653,52.5353 46.623,52.5452 46.593,52.5552 46.5631,52.5652 46.5331,52.5752 46.4931,52.5852 46.4532,52.5952 46.3933,52.6052 46.3034,52.6152 46.1835,52.6152 46.0936,52.6052 46.0437,52.5952 46.0137,52.5852 45.9837,52.5752 45.9538,52.5652 45.9338,52.5552 45.9038,52.5452 45.8838,52.5353 45.8639,52.5253 45.8539,52.5153 45.8339,52.5053 45.8139,52.4953 45.8039,52.4853 45.7839,52.4753 45.774,52.4653 45.764,52.4553 45.744,52.4453 45.734,52.4353 45.724,52.4254 45.714,52.4153 45.704,52.4054 45.694,52.3954 45.684,52.3854 45.6741,52.3754 45.6641,52.3654 45.6541,52.3554 45.6441,52.3454 45.6341,52.3354 45.6241,52.3255 45.6141,52.3154 45.6041,52.2955 45.5941,52.2855 45.5842,52.2755 45.5742,52.2555 45.5642,52.2455 45.5542,52.2255 45.5442,52.2155 45.5342,52.1956 45.5242,52.1856 45.5142,52.1756 45.5042,52.1556 45.4943,52.1456 45.4843,52.1256 45.4743,52.1056 45.4643,52.0956 45.4543,52.0757 45.4443,52.0657 45.4343,52.0457 45.4243,52.0357 45.4143,52.0157 45.4044,51.9957 45.3944,51.9858 45.3844,51.9657 45.3744,51.9458 45.3644,51.9358 45.3544,51.9158 45.3444,51.9058 45.3344,51.8858 45.3244,51.8658 45.3144,51.8459 45.3045,51.8359 45.2945,51.8159 45.2845,51.8059 45.2745,51.7859 45.2645,51.7659 45.2545,51.746 45.2445,51.726 45.2345,51.716 45.2245,51.696 45.2146,51.676 45.2046,51.666 45.1946,51.6461 45.1846,51.626 45.1746,51.6061 45.1646,51.5961 45.1546,51.5761 45.1446,51.5561 45.1346,51.5462 45.1247,51.5261 45.1147,51.5062 45.1047,51.4862 45.0947,51.4662 45.0847,51.4462 45.0747,51.4362 45.0647,51.4162 45.0547,51.3963 45.0447,51.3763 45.0348,51.3663 45.0248,51.3463 45.0148,51.3263 45.0048,51.3064 44.9948,51.2863 44.9848,51.2764 44.9748,51.2564 44.9649,51.2364 44.9548,51.2164 44.9448,51.1964 44.9349,51.1765 44.9249,51.1665 44.9149,51.1465 44.9049,51.1265 44.8949,51.1065 44.8849,51.0865 44.8749,51.0666 44.8649,51.0566 44.8549,51.0366 44.845,51.0166 44.835,50.9966 44.825,50.9766 44.815,50.9567 44.805,50.9466 44.795,50.9267 44.785,50.9067 44.7751,50.8867 44.765,50.8668 44.7551,50.8467 44.7451,50.8368 44.7351,50.8168 44.7251,50.7968 44.7151,50.7768 44.7051,50.7568 44.6951,50.7369 44.6852,50.7269 44.6751,50.7069 44.6651,50.6869 44.6552,50.6669 44.6452,50.6469 44.6352,50.627 44.6252,50.607 44.6152,50.587 44.6052,50.567 44.5952,50.557 44.5852,50.537 44.5752,50.5171 44.5653,50.4971 44.5553,50.4771 44.5453,50.4571 44.5353,50.4371 44.5253,50.4172 44.5153,50.3972 44.5053,50.3772 44.4954,50.3572 44.4853,50.3472 44.4754,50.3272 44.4654,50.3072 44.4554,50.2873 44.4454,50.2673 44.4354,50.2473 44.4254,50.2273 44.4154,50.2073 44.4055,50.1874 44.3954,50.1774 44.3855,50.1574 44.3755,50.1374 44.3655,50.1174 44.3555,50.0974 44.3455,50.0775 44.3355,50.0575 44.3255,50.0375 44.3156,50.0175 44.3056,49.9975 44.2955,49.9776 44.2856,49.9675 44.2756,49.9476 44.2656,49.9276 44.2556,49.9076 44.2456,49.8876 44.2356,49.8676 44.2256,49.8477 44.2157,49.8277 44.2056,49.8077 44.1957,49.7877 44.1857,49.7677 44.1757,49.7477 44.1657,49.7378 44.1557,49.7078 44.1457,49.6978 44.1357,49.6778 44.1258,49.6578 44.1158,49.6379 44.1058,49.6178 44.0958,49.5979 44.0858,49.5779 44.0758,49.5579 44.0658,49.538 44.0558,49.5179 44.0458,49.498 44.0359,49.478 44.0259,49.458 44.0159,49.438 44.0059,49.418 43.9959,49.3981 43.9859,49.3781 43.9759,49.3581 43.9659,49.3381 43.9559,49.3181 43.946,49.3081 43.936,49.2882 43.926,49.2682 43.916,49.2482 43.906,49.2282 43.896,49.2082 43.886,49.1882 43.876,49.1683 43.866,49.1483 43.856,49.1283 43.8461,49.1083 43.8361,49.0883 43.8261,49.0684 43.8161,49.0484 43.8061,49.0284 43.7961,49.0084 43.7861,48.9884 43.7761,48.9684 43.7661,48.9485 43.7562,48.9285 43.7462,48.9085 43.7362,48.8885 43.7262,48.8685 43.7162,48.8586 43.7062,48.8385 43.6962,48.8186 43.6862,48.7886 43.6762,48.7686 43.6663,48.7486 43.6563,48.7287 43.6463,48.7187 43.6363,48.6987 43.6263,48.6787 43.6163,48.6587 43.6063,48.6387 43.5963,48.6188 43.5863,48.5988 43.5764,48.5788 43.5664,48.5588 43.5564,48.5388 43.5464,48.5189 43.5364,48.4889 43.5264,48.4589 43.5164,48.4289 43.5064,48.3989 43.4964,48.359 43.4864,48.319 43.4765,48.2791 43.4665,48.2191 43.4565,48.1392 43.4565,47.8994 43.4665,47.8195 43.4765,47.7695 43.4864,47.7296 43.4964,47.6996 43.5064,47.6696 43.5164,47.6396 43.5264,47.6196 43.5364,47.5997 43.5464,47.5697 43.5564,47.5497 43.5664,47.5298 43.5764,47.5197 43.5863,47.4998 43.5963,47.4798 43.6063,47.4698 43.6163,47.4498 43.6263,47.4398 43.6363,47.4298 43.6463,47.4098 43.6563,47.3999 43.6663,47.3899 43.6762,47.3799 43.6862,47.3699 43.6962,47.3499 43.7062,47.3399 43.7162,47.3299 43.7262,47.3199 43.7362,47.3099 43.7562,47.2999 43.7661,47.29 43.7761,47.28 43.7861,47.27 43.7961,47.26 43.8161,47.25 43.8261,47.24 43.8361,47.23 43.856,47.22 43.866,47.21 43.886,47.2 43.896,47.1901 43.906,47.18 43.926,47.17 43.946,47.1601 43.9659,47.1501 43.9859,47.1401 44.0059,47.1301 44.0159,47.1201 44.0359,47.1101 44.0558,47.1001 44.0658,47.0901 44.0658,46.8603 44.0558,46.5107 44.0458,46.161 44.0359,45.8113 44.0259,45.4616 44.0159,45.1319 44.0059,44.8422 43.9959,44.4824 43.9859,44.1328 43.9759,43.7831 43.9659,43.7232 43.8061,43.7232 43.7062,43.7331 43.6363,43.7431 "
         style="fill:#010101" /><polygon
         id="_131465304"
         class="fil0"
         points="47.7518,51.8359 47.7318,51.8459 47.7118,51.8559 47.7018,51.8658 47.6818,51.8758 47.6619,51.8858 47.6419,51.8958 47.6219,51.9058 47.602,51.9158 47.5819,51.9258 47.562,51.9358 47.542,51.9458 47.522,51.9558 47.512,51.9657 47.492,51.9757 47.4721,51.9858 47.4521,51.9957 47.4321,52.0057 47.4122,52.0157 47.3922,52.0257 47.3722,52.0357 47.3522,52.0457 47.3322,52.0557 47.3223,52.0657 47.3023,52.0757 47.2823,52.0857 47.2623,52.0956 47.2423,52.1056 47.2224,52.1156 47.2024,52.1256 47.1824,52.1356 47.1724,52.1456 47.1524,52.1556 47.1325,52.1656 47.1125,52.1756 47.0925,52.1856 47.0825,52.1956 47.0825,52.2155 47.0925,52.2255 47.1025,52.2355 47.1225,52.2455 47.1325,52.2555 47.1424,52.2655 47.1524,52.2755 47.1724,52.2855 47.1824,52.2955 47.1924,52.3054 47.2024,52.3154 47.2224,52.3255 47.2324,52.3354 47.2423,52.3454 47.2523,52.3554 47.2723,52.3654 47.2823,52.3754 47.2923,52.3854 47.3123,52.3954 47.3223,52.4054 47.3322,52.4153 47.3422,52.4254 47.3622,52.4353 47.3722,52.4453 47.3822,52.4553 47.3922,52.4653 47.4122,52.4753 47.4221,52.4853 47.4321,52.4953 47.4421,52.5053 47.4621,52.5153 47.4721,52.5253 47.4821,52.5353 47.492,52.5452 47.512,52.5552 47.522,52.5652 47.532,52.5752 47.542,52.5852 47.562,52.5952 47.572,52.6052 47.5819,52.6152 47.592,52.6252 47.6119,52.6352 47.6219,52.6451 47.6319,52.6551 47.6519,52.6651 47.6619,52.6751 47.6719,52.6851 47.6818,52.6951 47.7018,52.7051 47.7118,52.7151 47.7218,52.7251 47.7318,52.7351 47.7518,52.7451 47.7618,52.755 47.7717,52.7651 47.7818,52.775 47.8017,52.785 47.8117,52.795 47.8217,52.805 47.8317,52.815 47.8517,52.825 47.8616,52.835 47.8716,52.845 47.8817,52.8549 47.9016,52.865 47.9116,52.875 47.9216,52.8849 47.9416,52.8949 47.9515,52.9049 47.9615,52.9149 47.9716,52.9249 47.9915,52.9349 48.0015,52.9449 48.0115,52.9549 48.0215,52.9649 48.0415,52.9749 48.0514,52.9848 48.0614,52.9948 48.0714,53.0048 48.0914,53.0148 48.1014,53.0248 48.1114,53.0348 48.1314,53.0448 48.1413,53.0548 48.1513,53.0648 48.1613,53.0748 48.1713,53.0847 48.1913,53.0947 48.2013,53.1047 48.2113,53.1147 48.2312,53.1247 48.2412,53.1347 48.2512,53.1447 48.2612,53.1547 48.2812,53.1647 48.2912,53.1747 48.3012,53.1847 48.3112,53.1946 48.3311,53.2047 48.3411,53.2146 48.3511,53.2246 48.3611,53.2346 48.3811,53.2446 48.3911,53.2546 48.4011,53.2646 48.421,53.2746 48.431,53.2846 48.441,53.2945 48.451,53.3046 48.461,53.3146 48.481,53.3245 48.491,53.3345 48.501,53.3445 48.5209,53.3545 48.5309,53.3645 48.5409,53.3745 48.5509,53.3845 48.5709,53.3945 48.5809,53.4045 48.5909,53.4145 48.6008,53.4244 48.6208,53.4344 48.6308,53.4444 48.6408,53.4544 48.6508,53.4644 48.6708,53.4744 48.6808,53.4844 48.6908,53.4944 48.7007,53.5044 48.7207,53.5144 48.7307,53.5244 48.7407,53.5343 48.7507,53.5443 48.7707,53.5543 48.7807,53.5643 48.7906,53.5743 48.8106,53.5843 48.8206,53.5943 48.8306,53.6043 48.8406,53.6143 48.8506,53.6243 48.8706,53.6342 48.8805,53.6443 48.8905,53.6543 48.9105,53.6642 48.9205,53.6742 48.9305,53.6842 48.9405,53.6942 48.9605,53.7042 48.9704,53.7142 48.9804,53.7242 48.9904,53.7342 49.0104,53.7442 49.0204,53.7542 49.0304,53.7641 49.0403,53.7741 49.0604,53.7841 49.0703,53.7941 49.0803,53.8041 49.1003,53.8141 49.1103,53.8241 49.1203,53.8341 49.1303,53.8441 49.1403,53.8541 49.1602,53.8641 49.1702,53.874 49.1802,53.884 49.2002,53.894 49.2102,53.904 49.2202,53.914 49.2301,53.924 49.2501,53.934 49.2601,53.944 49.2701,53.954 49.2801,53.964 49.3001,53.9739 49.3101,53.9839 49.32,53.994 49.3301,54.0039 49.35,54.0139 49.36,54.0239 49.37,54.0339 49.39,54.0439 49.4,54.0539 49.4099,54.0639 49.4199,54.0739 49.43,54.0839 49.4499,54.0939 49.4599,54.1038 49.4699,54.1138 49.4899,54.1238 49.4999,54.1338 49.5098,54.1438 49.5199,54.1538 49.5398,54.1638 49.5498,54.1738 49.5598,54.1838 49.5698,54.1938 49.5898,54.2038 49.5997,54.2137 49.6097,54.2237 49.6197,54.2337 49.6397,54.2437 49.6497,54.2537 49.6597,54.2637 49.6697,54.2737 49.6896,54.2837 49.6996,54.2937 49.7097,54.3037 49.7196,54.3136 49.7396,54.3236 49.7496,54.3337 49.7596,54.3436 49.7696,54.3536 49.7895,54.3636 49.7995,54.3736 49.8095,54.3836 49.8395,54.3836 49.8495,54.3436 49.8595,54.3236 49.8695,54.2937 49.8794,54.2537 49.8894,54.2237 49.8994,54.1938 49.9094,54.1638 49.9194,54.1338 49.9294,54.1038 49.9394,54.0739 49.9494,54.0439 49.9594,54.0139 49.9693,53.9739 49.9793,53.944 49.9893,53.914 49.9993,53.874 50.0093,53.8541 50.0193,53.8141 50.0293,53.7841 50.0393,53.7542 50.0493,53.7142 50.0592,53.6842 50.0692,53.6443 50.0692,53.4744 50.0592,53.4444 50.0493,53.4145 50.0393,53.3945 50.0293,53.3745 50.0193,53.3545 50.0093,53.3345 49.9993,53.3245 49.9893,53.3046 49.9793,53.2945 49.9693,53.2846 49.9594,53.2646 49.9494,53.2546 49.9394,53.2446 49.9294,53.2346 49.9194,53.2246 49.9094,53.2146 49.8994,53.2047 49.8894,53.1946 49.8695,53.1847 49.8595,53.1747 49.8495,53.1647 49.8395,53.1547 49.8195,53.1447 49.8095,53.1347 49.7995,53.1247 49.7895,53.1147 49.7696,53.1047 49.7596,53.0947 49.7496,53.0847 49.7396,53.0748 49.7196,53.0648 49.7097,53.0548 49.6996,53.0448 49.6797,53.0348 49.6697,53.0248 49.6597,53.0148 49.6497,53.0048 49.6297,52.9948 49.6197,52.9848 49.6097,52.9749 49.5898,52.9649 49.5798,52.9549 49.5698,52.9449 49.5598,52.9349 49.5398,52.9249 49.5298,52.9149 49.5199,52.9049 49.5098,52.8949 49.4899,52.8849 49.4799,52.875 49.4699,52.865 49.4599,52.8549 49.4399,52.845 49.43,52.835 49.4199,52.825 49.4,52.815 49.39,52.805 49.38,52.795 49.37,52.785 49.35,52.775 49.3401,52.7651 49.3301,52.755 49.3101,52.7451 49.3001,52.7351 49.2901,52.7251 49.2801,52.7151 49.2601,52.7051 49.2501,52.6951 49.2402,52.6851 49.2202,52.6751 49.2102,52.6651 49.2002,52.6551 49.1902,52.6451 49.1702,52.6352 49.1602,52.6252 49.1503,52.6152 49.1403,52.6052 49.1203,52.5952 49.1103,52.5852 49.1003,52.5752 49.0803,52.5652 49.0703,52.5552 49.0604,52.5452 49.0504,52.5353 49.0304,52.5253 49.0204,52.5153 49.0104,52.5053 48.9904,52.4953 48.9804,52.4853 48.9704,52.4753 48.9605,52.4653 48.9405,52.4553 48.9305,52.4453 48.9205,52.4353 48.9005,52.4254 48.8905,52.4153 48.8805,52.4054 48.8606,52.3954 48.8506,52.3854 48.8406,52.3754 48.8306,52.3654 48.8106,52.3554 48.8006,52.3454 48.7906,52.3354 48.7707,52.3255 48.7607,52.3154 48.7507,52.3054 48.7307,52.2955 48.7207,52.2855 48.7107,52.2755 48.7007,52.2655 48.6808,52.2555 48.6708,52.2455 48.6608,52.2355 48.6408,52.2255 48.6308,52.2155 48.6208,52.2055 48.6008,52.1956 48.5909,52.1856 48.5809,52.1756 48.5609,52.1656 48.5509,52.1556 48.5409,52.1456 48.5209,52.1356 48.5109,52.1256 48.501,52.1156 48.481,52.1056 48.471,52.0956 48.461,52.0857 48.441,52.0757 48.431,52.0657 48.421,52.0557 48.4011,52.0457 48.3911,52.0357 48.3811,52.0257 48.3611,52.0157 48.3511,52.0057 48.3311,51.9957 48.3212,51.9858 48.3112,51.9757 48.2912,51.9657 48.2812,51.9558 48.2612,51.9458 48.2412,51.9358 48.2312,51.9258 48.2113,51.9158 48.1913,51.9058 48.1813,51.8958 48.1613,51.8858 48.1413,51.8758 48.1114,51.8658 48.0914,51.8559 48.0614,51.8459 48.0415,51.8359 48.0115,51.8259 47.9716,51.8159 47.9116,51.8059 47.8117,51.8059 47.7917,51.8159 47.7717,51.8259 "
         style="fill:#010101" /></g></g></svg>