<?xml version="1.0" encoding="UTF-8" standalone="no"?>
<!-- Creator: CorelDRAW -->

<svg
   xmlns:dc="http://purl.org/dc/elements/1.1/"
   xmlns:cc="http://creativecommons.org/ns#"
   xmlns:rdf="http://www.w3.org/1999/02/22-rdf-syntax-ns#"
   xmlns:svg="http://www.w3.org/2000/svg"
   xmlns="http://www.w3.org/2000/svg"
   xmlns:sodipodi="http://sodipodi.sourceforge.net/DTD/sodipodi-0.dtd"
   xmlns:inkscape="http://www.inkscape.org/namespaces/inkscape"
   xml:space="preserve"
   width="9.1501999mm"
   height="12.2004mm"
   style="clip-rule:evenodd;fill-rule:evenodd;image-rendering:optimizeQuality;shape-rendering:geometricPrecision;text-rendering:geometricPrecision"
   viewBox="0 0 9.1501999 12.2004"
   version="1.1"
   id="svg17"
   sodipodi:docname="lechenie_za_rubegom_uslugi.svg"
   inkscape:version="0.92.2 (5c3e80d, 2017-08-06)"><metadata
     id="metadata21"><rdf:RDF><cc:Work
         rdf:about=""><dc:format>image/svg+xml</dc:format><dc:type
           rdf:resource="http://purl.org/dc/dcmitype/StillImage" /></cc:Work></rdf:RDF></metadata><sodipodi:namedview
     pagecolor="#ffffff"
     bordercolor="#666666"
     borderopacity="1"
     objecttolerance="10"
     gridtolerance="10"
     guidetolerance="10"
     inkscape:pageopacity="0"
     inkscape:pageshadow="2"
     inkscape:window-width="751"
     inkscape:window-height="480"
     id="namedview19"
     showgrid="false"
     inkscape:zoom="0.62441667"
     inkscape:cx="25.739337"
     inkscape:cy="12.446742"
     inkscape:window-x="0"
     inkscape:window-y="0"
     inkscape:window-maximized="0"
     inkscape:current-layer="svg17" /><defs
     id="defs4"><style
       type="text/css"
       id="style2"><![CDATA[
    .fil0 {fill:black}
   ]]></style></defs><g
     id="Слой_x0020_1"
     transform="translate(-43.1898,-41.0928)"><metadata
       id="CorelCorpID_0Corel-Layer" /><g
       id="_130919232"><polygon
         id="_681614080"
         class="fil0"
         points="47.3836,42.4272 47.3836,42.8085 47.4313,42.9038 47.479,42.9515 47.5743,42.9991 47.9555,42.9991 48.0508,42.9515 48.0985,42.9038 48.1462,42.8085 48.1462,42.4272 48.0985,42.3319 48.0508,42.2842 47.9555,42.2366 47.5743,42.2366 47.479,42.2842 47.4313,42.3319 "
         style="fill:#000000" /><polygon
         id="_681612832"
         class="fil0"
         points="45.668,46.0492 44.9054,46.0492 44.9054,46.8117 45.668,46.8117 "
         style="fill:#000000" /><polygon
         id="_681613432"
         class="fil0"
         points="50.6244,46.0492 46.4305,46.0492 46.4305,46.8117 50.6244,46.8117 "
         style="fill:#000000" /><polygon
         id="_681613288"
         class="fil0"
         points="45.668,47.5743 44.9054,47.5743 44.9054,48.3368 45.668,48.3368 "
         style="fill:#000000" /><polygon
         id="_130920144"
         class="fil0"
         points="50.6244,47.5743 46.4305,47.5743 46.4305,48.3368 50.6244,48.3368 "
         style="fill:#000000" /><polygon
         id="_681616984"
         class="fil0"
         points="50.6244,49.0993 46.4305,49.0993 46.4305,49.8618 50.6244,49.8618 "
         style="fill:#000000" /><polygon
         id="_681613168"
         class="fil0"
         points="45.668,49.0993 44.9054,49.0993 44.9054,49.8618 45.668,49.8618 "
         style="fill:#000000" /><path
         id="_130926144"
         class="fil0"
         d="m 44.9054,44.9054 h 5.719 v -0.9531 h 0.9531 v 8.5784 h -7.6252 v -8.5784 h 0.9531 z m 2.097,-1.9063 0.0476,-0.3812 0.0477,-0.2383 0.0477,-0.0954 0.0476,-0.0953 0.0477,-0.0476 0.0476,-0.0477 0.0477,-0.0476 0.0953,-0.0477 0.0953,-0.0477 h 0.4766 l 0.0953,0.0477 0.0953,0.0477 0.0477,0.0476 0.0476,0.0477 0.0477,0.0476 0.0476,0.0953 0.0477,0.0954 0.0477,0.2383 0.0476,0.3812 h 1.3344 v 1.1438 H 45.668 v -1.1438 z m 0.2383,-1.8586 -0.143,0.0476 -0.0953,0.0477 -0.0953,0.0476 -0.0477,0.0477 -0.0477,0.0476 -0.0953,0.0477 -0.0476,0.0477 -0.0477,0.0476 -0.0476,0.0477 -0.0477,0.0953 -0.0477,0.0476 -0.0476,0.0477 -0.0477,0.0953 -0.0476,0.0953 -0.0477,0.143 v 0.143 h -1.3821 v 0.9531 h -1.2391 l -0.0953,0.0477 -0.0953,0.0477 -0.0477,0.0476 -0.0476,0.0477 -0.0477,0.0476 -0.0476,0.0477 -0.0477,0.0953 -0.0476,0.0953 v 9.1503 l 0.0476,0.0953 0.0477,0.0954 0.0476,0.0476 0.0477,0.0477 0.0476,0.0476 0.0477,0.0477 0.0953,0.0476 0.0953,0.0477 h 8.1972 l 0.0953,-0.0477 0.0953,-0.0476 0.0477,-0.0477 0.0476,-0.0476 0.0477,-0.0477 0.0476,-0.0476 0.0477,-0.0954 0.0476,-0.0953 V 43.6663 L 52.2924,43.571 52.2447,43.4757 52.1971,43.428 52.1494,43.3804 52.1018,43.3327 52.0541,43.2851 51.9588,43.2374 51.8635,43.1897 h -1.2391 v -0.9531 h -1.3821 v -0.143 L 49.1946,41.9506 49.147,41.8553 49.0993,41.76 49.0517,41.7123 49.004,41.6647 48.9563,41.5694 48.9087,41.5217 48.861,41.4741 48.8134,41.4264 48.7181,41.3787 48.6704,41.3311 48.6227,41.2834 48.5274,41.2358 48.4321,41.1881 48.2891,41.1405 48.1462,41.0928 h -0.7626 z"
         inkscape:connector-curvature="0"
         style="fill:#000000" /></g></g></svg>