<?xml version="1.0" encoding="UTF-8" standalone="no"?>
<!-- Creator: CorelDRAW -->

<svg
   xmlns:dc="http://purl.org/dc/elements/1.1/"
   xmlns:cc="http://creativecommons.org/ns#"
   xmlns:rdf="http://www.w3.org/1999/02/22-rdf-syntax-ns#"
   xmlns:svg="http://www.w3.org/2000/svg"
   xmlns="http://www.w3.org/2000/svg"
   xmlns:sodipodi="http://sodipodi.sourceforge.net/DTD/sodipodi-0.dtd"
   xmlns:inkscape="http://www.inkscape.org/namespaces/inkscape"
   xml:space="preserve"
   width="12.043mm"
   height="12.0429mm"
   style="clip-rule:evenodd;fill-rule:evenodd;image-rendering:optimizeQuality;shape-rendering:geometricPrecision;text-rendering:geometricPrecision"
   viewBox="0 0 12.043 12.0429"
   version="1.1"
   id="svg13"
   sodipodi:docname="stomat_spravochnik.svg"
   inkscape:version="0.92.2 (5c3e80d, 2017-08-06)"><metadata
     id="metadata17"><rdf:RDF><cc:Work
         rdf:about=""><dc:format>image/svg+xml</dc:format><dc:type
           rdf:resource="http://purl.org/dc/dcmitype/StillImage" /></cc:Work></rdf:RDF></metadata><sodipodi:namedview
     pagecolor="#ffffff"
     bordercolor="#666666"
     borderopacity="1"
     objecttolerance="10"
     gridtolerance="10"
     guidetolerance="10"
     inkscape:pageopacity="0"
     inkscape:pageshadow="2"
     inkscape:window-width="751"
     inkscape:window-height="480"
     id="namedview15"
     showgrid="false"
     inkscape:zoom="0.62441667"
     inkscape:cx="29.605038"
     inkscape:cy="18.801261"
     inkscape:window-x="0"
     inkscape:window-y="0"
     inkscape:window-maximized="0"
     inkscape:current-layer="svg13" /><defs
     id="defs4"><style
       type="text/css"
       id="style2"><![CDATA[
    .fil0 {fill:#09458D}
    .fil1 {fill:#69BED9}
   ]]></style></defs><g
     id="Слой_x0020_1"
     transform="translate(-42.167,-42.9316)"><metadata
       id="CorelCorpID_0Corel-Layer" /><path
       class="fil0"
       d="m 48.1866,49.0127 h 0.0019 v -0.8163 h 0.7148 v 0.8361 h 0.8362 v 0.697 h -0.8343 v 0.0198 h -0.0019 v 0.8163 h -0.7148 v -0.8361 h -0.8362 v -0.697 h 0.8343 z m 1.7883,0.7022 c -0.0178,0.2075 -0.1104,0.2733 -0.3549,0.2733 h -0.4759 v 0.516 l -0.0028,0.0025 c -0.0084,0.2426 -0.0964,0.3176 -0.3574,0.3176 H 48.306 c -0.2752,0 -0.3583,-0.0831 -0.3583,-0.3584 v -0.4777 h -0.4779 c -0.2752,0 -0.3583,-0.0832 -0.3583,-0.3584 V 49.152 c 0,-0.0378 0.0017,-0.072 0.0051,-0.1029 l 1e-4,-6e-4 2e-4,-0.0016 c 0.0177,-0.2076 0.1103,-0.2731 0.3548,-0.2731 h 0.476 v -0.3385 c 0,-0.0246 5e-4,-0.0475 0.0019,-0.0691 V 48.296 c 0,-0.2752 0.0831,-0.3583 0.3583,-0.3583 h 0.4779 c 0.2752,0 0.3583,0.0831 0.3583,0.3583 v 0.4778 h 0.4778 c 0.2753,0 0.3584,0.0832 0.3584,0.3584 V 49.61 c 0,0.0379 -0.0018,0.0721 -0.0052,0.103 v 2e-4 z"
       id="path7"
       inkscape:connector-curvature="0"
       style="fill:#09458d" /><path
       class="fil0"
       d="m 46.4977,46.0261 c 0,0 0.159,0.0285 0.4962,5e-4 v 0.9554 l 0.8313,-0.1499 0.0049,-0.8057 h 2.7474 v 5.8532 h -4.0614 z m -0.5788,3e-4 h 0.3583 v 5.8532 h -0.3583 z m 1.3139,0 h 0.3584 l 10e-5,0.5973 -0.367,0.0645 z m -1.5529,6.0921 h 5.1337 l -0.0135,-6.331 h -5.1202 z"
       id="path9"
       inkscape:connector-curvature="0"
       style="fill:#09458d" /><path
       id="path14"
       class="fil1"
       d="m 48.1884,42.9316 c 3.3256,0 6.0216,2.696 6.0216,6.0215 10e-5,3.3254 -2.6959,6.0214 -6.0216,6.0214 -3.3254,0 -6.0214,-2.696 -6.0214,-6.0214 0,-3.3255 2.696,-6.0215 6.0215,-6.0215 z m 0.0062,0.1601 c 3.2093,0 5.8112,2.6148 5.8112,5.8403 0,3.2251 -2.6018,5.8399 -5.8112,5.8399 -3.2095,0 -5.8114,-2.6148 -5.8114,-5.8399 0,-3.2254 2.6019,-5.8403 5.8115,-5.8403 m -10e-5,0 z"
       inkscape:connector-curvature="0"
       style="fill:#69bed9" /></g></svg>