<?xml version="1.0" encoding="UTF-8" standalone="no"?>
<!-- Creator: CorelDRAW -->

<svg
   xmlns:dc="http://purl.org/dc/elements/1.1/"
   xmlns:cc="http://creativecommons.org/ns#"
   xmlns:rdf="http://www.w3.org/1999/02/22-rdf-syntax-ns#"
   xmlns:svg="http://www.w3.org/2000/svg"
   xmlns="http://www.w3.org/2000/svg"
   xmlns:sodipodi="http://sodipodi.sourceforge.net/DTD/sodipodi-0.dtd"
   xmlns:inkscape="http://www.inkscape.org/namespaces/inkscape"
   xml:space="preserve"
   width="12.043mm"
   height="12.0429mm"
   style="clip-rule:evenodd;fill-rule:evenodd;image-rendering:optimizeQuality;shape-rendering:geometricPrecision;text-rendering:geometricPrecision"
   viewBox="0 0 12.043 12.0429"
   version="1.1"
   id="svg11"
   sodipodi:docname="sport_sport_centri.svg"
   inkscape:version="0.92.2 (5c3e80d, 2017-08-06)"><metadata
     id="metadata15"><rdf:RDF><cc:Work
         rdf:about=""><dc:format>image/svg+xml</dc:format><dc:type
           rdf:resource="http://purl.org/dc/dcmitype/StillImage" /></cc:Work></rdf:RDF></metadata><sodipodi:namedview
     pagecolor="#ffffff"
     bordercolor="#666666"
     borderopacity="1"
     objecttolerance="10"
     gridtolerance="10"
     guidetolerance="10"
     inkscape:pageopacity="0"
     inkscape:pageshadow="2"
     inkscape:window-width="751"
     inkscape:window-height="480"
     id="namedview13"
     showgrid="false"
     inkscape:zoom="1.2488333"
     inkscape:cx="34.177133"
     inkscape:cy="21.275339"
     inkscape:window-x="0"
     inkscape:window-y="0"
     inkscape:window-maximized="0"
     inkscape:current-layer="svg11" /><defs
     id="defs4"><style
       type="text/css"
       id="style2"><![CDATA[
    .fil0 {fill:#4D4948}
    .fil1 {fill:#E77817}
   ]]></style></defs><g
     id="Слой_x0020_1"
     transform="translate(-15.9573,-18.5862)"><metadata
       id="CorelCorpID_0Corel-Layer" /><path
       class="fil0"
       d="m 25.7669,23.9179 0.0016,2.0411 h -1.375 l 0.0011,-1.9267 z m -7.3589,0.0191 1.375,0.0808 v 1.9412 h -1.375 z m 3.1545,0.647 h 1.0514 v 1.2942 h -0.1617 v -0.4854 h -0.2427 v 0.4854 H 21.9669 V 25.312 c -0.1803,0.0481 -0.2426,0.0188 -0.2426,0.2426 v 0.3236 h -0.1618 z m -1.5368,-1.7794 h 4.1251 v 3.1544 h -0.728 V 23.6943 H 22.9375 V 23.209 h -1.6986 v 0.4853 h -0.4852 v 2.2647 h -0.728 z m -1.8604,3.1544 c 0,0.1864 0.0563,0.2426 0.2427,0.2426 h 7.3605 c 0.1864,0 0.2426,-0.0562 0.2426,-0.2426 v -2.2647 h -0.5662 l -1.0501,0.0936 -0.0013,-0.9833 c 0,-0.1864 -0.0564,-0.2426 -0.2427,-0.2426 h -4.1251 c -0.1864,0 -0.2427,0.0562 -0.2427,0.2426 v 0.9706 l -1.0495,-0.0995 -0.5682,0.0186 z"
       id="path7"
       inkscape:connector-curvature="0"
       style="fill:#4d4948" /><path
       id="path14"
       class="fil1"
       d="m 21.9787,18.5862 c 3.3256,0 6.0216,2.696 6.0216,6.0215 10e-5,3.3254 -2.6959,6.0214 -6.0216,6.0214 -3.3254,0 -6.0214,-2.696 -6.0214,-6.0214 0,-3.3255 2.696,-6.0215 6.0215,-6.0215 z m 0.0062,0.1601 c 3.2093,0 5.8112,2.6148 5.8112,5.8403 0,3.2251 -2.6018,5.8399 -5.8112,5.8399 -3.2095,0 -5.8114,-2.6148 -5.8114,-5.8399 0,-3.2254 2.6019,-5.8403 5.8115,-5.8403 m -10e-5,0 z"
       inkscape:connector-curvature="0"
       style="fill:#e77817" /></g></svg>