<?xml version="1.0" encoding="UTF-8"?>
<!DOCTYPE svg PUBLIC "-//W3C//DTD SVG 1.1//EN" "http://www.w3.org/Graphics/SVG/1.1/DTD/svg11.dtd">
<svg xmlns="http://www.w3.org/2000/svg" xml:space="preserve" width="13mm" height="13mm" style="shape-rendering:geometricPrecision; text-rendering:geometricPrecision; image-rendering:optimizeQuality; fill-rule:evenodd; clip-rule:evenodd"
viewBox="0 0 13 13"
 xmlns:xlink="http://www.w3.org/1999/xlink">
 <defs>
  <style type="text/css">
   <![CDATA[
    .fil0 {fill:#0093DD}
    .fil1 {fill:#838281}
   ]]>
  </style>
 </defs>
 <g>
  <metadata id="CorelCorpID_0Corel-Layer"/>
  <path class="fil0" d="M5.6323 6.8657c0.0113,0.5052 0.4561,1.5284 0.8673,1.5284 0.5428,0 0.9351,-1.005 0.9787,-1.5284 1.1312,0.0252 1.7232,0.8965 1.7487,2.0401l-5.3434 0c0.0958,-1.1516 0.5358,-2.0131 1.7487,-2.0401zm0.1943 0.1943l0 -0.1943c0,-0.4474 0.279,-0.1943 0.5829,-0.1943l0.2915 0c0.304,0 0.583,-0.2531 0.583,0.1943l0 0.1943c0,0.5782 -0.5129,1.1873 -0.7773,1.1658 -0.2073,-0.0215 -0.6801,-0.653 -0.6801,-1.1658zm1.6499 -1.469c-0.0122,0.6341 -0.3574,0.9832 -0.9698,0.9832 -0.5279,0 -0.8617,-0.4031 -0.8744,-0.9716l0.8712 0.1188 0.973 -0.1304zm-0.8669 -0.6565c0,0.2761 0.0091,0.4738 0.2857,0.4738l0.6154 -0.0269c-0.1724,0.0803 -0.6131,0.1972 -0.9583,0.2169 -0.3733,-0.0165 -0.7175,-0.1339 -0.9272,-0.2001l0.59 0.0101c0.2766,0 0.2972,-0.1977 0.2972,-0.4738l0.0972 0zm1.063 -0.1091c0.2914,-0.0138 0.1831,-0.0135 0.1943,0.4858l-0.1943 0 0 -0.4858zm-1.3602 0.0973l0 0.3885 -0.6564 -0.0057 0 -0.3885 0.6564 0.0057zm-1.0686 -0.0973l0.1943 0 0 0.4858 -0.1943 0 0 -0.4858zm1.5544 0.0973l0.7074 0.0057c-0.0228,0.2742 -0.0263,0.3828 -0.0263,0.3828l-0.6811 0 0 -0.3885zm-1.1785 -0.1498c0.7056,-0.1821 1.1785,-0.239 1.831,-0.0281l-0.8647 0.0822 -0.9663 -0.0541zm0.0126 -0.1417c0.0736,-0.3161 0.4316,-0.8744 0.7772,-0.8744l0.2915 0c0.3456,0 0.7036,0.5583 0.7773,0.8744 -0.304,-0.0253 -0.3452,-0.0972 -0.6801,-0.0972l-0.4858 0c-0.3349,0 -0.3761,0.0719 -0.6801,0.0972zm-0.014 2.1256c-1.5058,0.0117 -1.6519,0.9599 -1.929,2.149 -0.0242,0.2101 0.1708,0.1944 0.3886,0.1944l4.9548 0c0.2598,0 0.4868,0.0307 0.3886,-0.2915 -0.2095,-1.1437 -0.5018,-2.0402 -1.943,-2.0402 -0.0019,-0.136 -0.1953,-0.312 -0.2085,-0.2798 0.2417,-0.2368 0.3421,-0.5362 0.4028,-0.9832 0.2164,-0.0578 0.2914,-0.0227 0.2914,-0.2914l0 -0.4858 -0.2914 0c-0.1306,-0.5604 -0.511,-1.1658 -1.1659,-1.1658 -0.5078,0 -1.0252,0.6435 -1.0686,1.1658l-0.2915 0 0 0.4858c0,0.2687 0.0749,0.2336 0.2915,0.2914 -0.0043,0.4439 0.2549,0.809 0.3381,0.9942 -0.0989,0.0572 -0.1373,0.1465 -0.1579,0.2571z"/>
  <path id="path14" class="fil1" d="M6.5066 0.5528c3.3256,0 6.0216,2.696 6.0216,6.0215 0.0001,3.3254 -2.6959,6.0214 -6.0216,6.0214 -3.3254,0 -6.0214,-2.696 -6.0214,-6.0214 0,-3.3255 2.696,-6.0215 6.0215,-6.0215l-0.0001 0zm0.0062 0.1601c3.2093,0 5.8112,2.6148 5.8112,5.8403 0,3.2251 -2.6018,5.8399 -5.8112,5.8399 -3.2095,0 -5.8114,-2.6148 -5.8114,-5.8399 0,-3.2254 2.6019,-5.8403 5.8115,-5.8403m-0.0001 0l0 0 0 0z"/>
 </g>
</svg>
