<?xml version="1.0" encoding="UTF-8"?>
<!DOCTYPE svg PUBLIC "-//W3C//DTD SVG 1.1//EN" "http://www.w3.org/Graphics/SVG/1.1/DTD/svg11.dtd">
<!-- Creator: CorelDRAW X6 -->
<svg xmlns="http://www.w3.org/2000/svg" xml:space="preserve" width="20mm" height="20mm" version="1.1" style="shape-rendering:geometricPrecision; text-rendering:geometricPrecision; image-rendering:optimizeQuality; fill-rule:evenodd; clip-rule:evenodd"
viewBox="0 0 2000 2000"
 xmlns:xlink="http://www.w3.org/1999/xlink">
 <defs>
  <style type="text/css">
   <![CDATA[
    .fil0 {fill:black}
   ]]>
  </style>
 </defs>
 <g id="Слой_x0020_1">
  <metadata id="CorelCorpID_0Corel-Layer"/>
  <path class="fil0" d="M704 212c-524,-12 -511,664 -71,700l-32 493 816 0 -42 -493c449,-41 421,-723 -68,-700 -20,-23 -27,-39 -49,-62 -16,-17 -43,-42 -65,-56 -200,-127 -448,-7 -489,118zm-356 1526c29,99 149,215 283,222 231,11 276,-141 371,-141 93,1 142,153 371,140 136,-7 269,-138 282,-222 -118,113 -239,42 -332,-32 -42,-33 -80,-83 -157,-84 -90,-1 -126,44 -164,81 -2,-1 -4,-6 -5,-5 -1,2 -5,-6 -9,-10 -38,-40 -79,-64 -141,-66 -80,-2 -120,47 -161,80 -119,94 -192,138 -338,37z"/>
 </g>
</svg>
