<?xml version="1.0" encoding="UTF-8"?>
<!DOCTYPE svg PUBLIC "-//W3C//DTD SVG 1.1//EN" "http://www.w3.org/Graphics/SVG/1.1/DTD/svg11.dtd">
<!-- Creator: CorelDRAW X6 -->
<svg xmlns="http://www.w3.org/2000/svg" xml:space="preserve" width="14mm" height="14mm" version="1.1" style="shape-rendering:geometricPrecision; text-rendering:geometricPrecision; image-rendering:optimizeQuality; fill-rule:evenodd; clip-rule:evenodd"
viewBox="0 0 1400 1400"
 xmlns:xlink="http://www.w3.org/1999/xlink">
 <defs>
  <style type="text/css">
   <![CDATA[
    .fil0 {fill:#779BB1}
   ]]>
  </style>
 </defs>
 <g id="Слой_x0020_1">
  <metadata id="CorelCorpID_0Corel-Layer"/>
  <path id="path14" class="fil0" d="M700 98c333,0 602,269 602,602 0,333 -269,602 -602,602 -333,0 -602,-269 -602,-602 0,-333 269,-602 602,-602l0 0zm1 16c321,0 581,261 581,584 0,322 -260,584 -581,584 -321,0 -582,-262 -582,-584 0,-323 261,-584 582,-584m0 0l0 0 0 0z"/>
  <path class="fil0" d="M374 506l0 43c3,10 5,44 7,58 3,21 7,39 11,59 6,31 -14,-3 3,47 6,17 13,33 21,48 29,54 80,112 163,115 0,58 2,101 45,132 13,10 29,13 43,20l36 0c18,-8 57,-9 81,-39 52,-66 27,-142 56,-186 14,-23 67,-18 62,32 -1,1 -63,41 -32,105 41,86 176,44 153,-54 -5,-21 -18,-36 -30,-46 -21,-19 -36,-10 -57,-19 -13,-26 -12,-40 -33,-57 -18,-15 -50,-20 -75,-8 -45,21 -48,71 -54,130 -5,58 -25,97 -82,100 -67,4 -73,-48 -72,-109 60,-11 96,-22 139,-79 15,-21 58,-92 49,-122 -4,-13 0,-15 4,-35 18,-91 32,-197 -64,-238 -19,-8 -26,-6 -45,-10 -19,-5 5,0 -33,-21l-19 0c-11,7 -22,11 -28,25 -18,46 41,82 72,37 33,0 65,24 78,44 16,25 11,73 7,104 -15,108 -17,74 -28,95 -15,29 -35,116 -108,134 -29,8 -83,6 -108,-7 -24,-12 -47,-38 -60,-61 -16,-28 -28,-67 -33,-72l-9 -6c-20,-107 -54,-212 71,-231 23,46 94,9 70,-41 -7,-13 -15,-14 -28,-21l-20 0 -23 16c-14,12 -36,-1 -77,28 -50,36 -41,59 -53,90zm558 362c-53,20 -16,97 32,74 46,-22 22,-95 -32,-74z"/>
 </g>
</svg>
