<?xml version="1.0" encoding="UTF-8"?>
<!DOCTYPE svg PUBLIC "-//W3C//DTD SVG 1.1//EN" "http://www.w3.org/Graphics/SVG/1.1/DTD/svg11.dtd">
<!-- Creator: CorelDRAW -->
<svg xmlns="http://www.w3.org/2000/svg" xml:space="preserve" width="13mm" height="13mm" style="shape-rendering:geometricPrecision; text-rendering:geometricPrecision; image-rendering:optimizeQuality; fill-rule:evenodd; clip-rule:evenodd"
viewBox="0 0 13 13"
 xmlns:xlink="http://www.w3.org/1999/xlink">
 <defs>
  <style type="text/css">
   <![CDATA[
    .fil1 {fill:#DD137B}
    .fil0 {fill:#A82954;fill-rule:nonzero}
   ]]>
  </style>
 </defs>
 <g id="Слой_x0020_1">
  <metadata id="CorelCorpID_0Corel-Layer"/>
  <path class="fil0" d="M3.7885 5.5951l-0.2777 0c0.0506,-0.2779 0.1474,-0.4916 0.2903,-0.6419 0.1436,-0.1495 0.3131,-0.2246 0.5079,-0.2246 0.1423,0 0.2744,0.0399 0.3978,0.1205 0.1226,0.0798 0.2175,0.1887 0.2852,0.3241 0.067,0.1361 0.1005,0.2786 0.1005,0.4266 0,0.2904 -0.1163,0.5205 -0.3497,0.6904 0.1309,0.0657 0.2384,0.162 0.3225,0.2888 0.1183,0.1792 0.1777,0.3796 0.1777,0.6011 0,0.191 -0.0411,0.3734 -0.1227,0.5472 -0.0815,0.173 -0.1922,0.3076 -0.3332,0.4023 -0.1411,0.0947 -0.2986,0.1417 -0.4725,0.1417 -0.2345,0 -0.4306,-0.0838 -0.5875,-0.2505 -0.1568,-0.1675 -0.2592,-0.4133 -0.3073,-0.7373l0.2668 0c0.0469,0.2184 0.1139,0.3765 0.2018,0.4743 0.1126,0.1237 0.2555,0.1855 0.43,0.1855 0.1973,0 0.3561,-0.0728 0.4763,-0.2199 0.1194,-0.1464 0.1796,-0.3186 0.1796,-0.5159 0,-0.1315 -0.0298,-0.2544 -0.0898,-0.3695 -0.0602,-0.1142 -0.1405,-0.2011 -0.241,-0.259 -0.1006,-0.058 -0.2568,-0.094 -0.468,-0.1073l0 -0.3099c0.1252,0 0.2384,-0.0274 0.3409,-0.0814 0.1024,-0.0541 0.1771,-0.1237 0.2232,-0.2075 0.0468,-0.0837 0.0696,-0.1761 0.0696,-0.2755 0,-0.1464 -0.0474,-0.2732 -0.1416,-0.3804 -0.0943,-0.1072 -0.2138,-0.1605 -0.3586,-0.1605 -0.1171,0 -0.2189,0.0407 -0.3036,0.1229 -0.0854,0.0814 -0.1575,0.22 -0.2169,0.4157zm3.4662 -0.782l0 0.3217 -0.9707 0 -0.1353 0.9189c0.1188,-0.0422 0.2257,-0.0641 0.3206,-0.0641 0.2486,0 0.4528,0.1033 0.6141,0.3084 0.1612,0.2058 0.2422,0.4696 0.2422,0.7906 0,0.2214 -0.0417,0.425 -0.1246,0.6097 -0.0829,0.1848 -0.1948,0.3264 -0.3358,0.4251 -0.1416,0.0986 -0.3049,0.1479 -0.4901,0.1479 -0.2214,0 -0.4079,-0.0838 -0.5597,-0.2505 -0.1518,-0.1675 -0.2429,-0.3843 -0.2726,-0.6505l0.2801 0c0.0209,0.13 0.0563,0.2357 0.1063,0.3163 0.05,0.0814 0.117,0.1464 0.1999,0.1965 0.0835,0.0493 0.1707,0.0743 0.2624,0.0743 0.179,0 0.3327,-0.0837 0.461,-0.252 0.1291,-0.1683 0.1929,-0.3789 0.1929,-0.6309 0,-0.2278 -0.0581,-0.4126 -0.1738,-0.555 -0.1165,-0.1425 -0.2714,-0.2129 -0.4655,-0.2129 -0.16,0 -0.3548,0.0603 -0.5832,0.1808l0.2518 -1.6743 1.18 0zm1.2598 1.5303l0 -0.9957 0.2543 0 0 0.9957 0.8113 0 0 0.3139 -0.8113 0 0 0.9948 -0.2543 0 0 -0.9948 -0.8095 0 0 -0.3139 0.8095 0z"/>
  <path id="path14" class="fil1" d="M6.4999 0.4785c3.3256,0 6.0216,2.696 6.0216,6.0215 0.0001,3.3254 -2.6959,6.0214 -6.0216,6.0214 -3.3254,0 -6.0214,-2.696 -6.0214,-6.0214 0,-3.3255 2.696,-6.0215 6.0215,-6.0215l-0.0001 0zm0.0062 0.1601c3.2093,0 5.8112,2.6148 5.8112,5.8403 0,3.2251 -2.6018,5.8399 -5.8112,5.8399 -3.2095,0 -5.8114,-2.6148 -5.8114,-5.8399 0,-3.2254 2.6019,-5.8403 5.8115,-5.8403m-0.0001 0l0 0 0 0z"/>
 </g>
</svg>
