<?xml version="1.0" encoding="UTF-8" standalone="no"?>
<!-- Creator: CorelDRAW -->

<svg
   xmlns:dc="http://purl.org/dc/elements/1.1/"
   xmlns:cc="http://creativecommons.org/ns#"
   xmlns:rdf="http://www.w3.org/1999/02/22-rdf-syntax-ns#"
   xmlns:svg="http://www.w3.org/2000/svg"
   xmlns="http://www.w3.org/2000/svg"
   xmlns:sodipodi="http://sodipodi.sourceforge.net/DTD/sodipodi-0.dtd"
   xmlns:inkscape="http://www.inkscape.org/namespaces/inkscape"
   xml:space="preserve"
   width="24.874096mm"
   height="35.654011mm"
   style="clip-rule:evenodd;fill-rule:evenodd;image-rendering:optimizeQuality;shape-rendering:geometricPrecision;text-rendering:geometricPrecision"
   viewBox="0 0 24.874096 35.654011"
   version="1.1"
   id="svg16"
   sodipodi:docname="woman.svg"
   inkscape:version="0.92.2 (5c3e80d, 2017-08-06)"><metadata
     id="metadata20"><rdf:RDF><cc:Work
         rdf:about=""><dc:format>image/svg+xml</dc:format><dc:type
           rdf:resource="http://purl.org/dc/dcmitype/StillImage" /></cc:Work></rdf:RDF></metadata><sodipodi:namedview
     pagecolor="#ffffff"
     bordercolor="#666666"
     borderopacity="1"
     objecttolerance="10"
     gridtolerance="10"
     guidetolerance="10"
     inkscape:pageopacity="0"
     inkscape:pageshadow="2"
     inkscape:window-width="1100"
     inkscape:window-height="692"
     id="namedview18"
     showgrid="false"
     inkscape:zoom="1.766117"
     inkscape:cx="64.515334"
     inkscape:cy="55.570553"
     inkscape:window-x="0"
     inkscape:window-y="0"
     inkscape:window-maximized="0"
     inkscape:current-layer="Слой_x0020_1" /><defs
     id="defs4"><style
       type="text/css"
       id="style2"><![CDATA[
    .fil0 {fill:#DEDEDD}
    .fil1 {fill:#6EBAD1}
   ]]></style></defs><g
     id="Слой_x0020_1"
     transform="translate(-52.770404,-24.658889)"><metadata
       id="CorelCorpID_0Corel-Layer" /><path
       class="fil0"
       d="m 61.221604,39.887889 -0.0836,0.5021 -0.1674,0.4184 -0.4242,1.6721 -0.2452,0.0014 -0.251,-1.0878 -0.0837,-2.2593 -0.2004,-1.0821 0.033,-0.2567 c 0,-1.5981 0.9205,-2.156 0.9205,-3.5981 v -0.251 h 0.251 c 0,0.8018 0.6176,5.3632 0.251,5.941 z m -7.0287,-4.7695 c 0,-0.5304 0.9481,-1.9111 1.0877,-2.5103 0.4083,0.109 0.8368,1.2972 0.8368,1.8409 v 0.0836 c 0,0.6546 -1.0014,1.4458 -1.1715,2.1756 -0.3517,-0.0939 -0.753,-0.8718 -0.753,-1.3388 z m -0.4184,-5.0206 0.1088,-0.0378 0.979,-1.3847 c -0.126,0.5409 -0.416,0.9881 -0.5863,1.673 -0.1538,0.6182 -0.2702,1.1774 -0.4752,1.784 -0.1611,0.4767 -1.0304,3.2569 -1.0304,3.5718 v 0.251 c 0,0.3819 1.0041,1.4523 1.0041,2.2593 v 0.1673 c 0,0.3274 -0.5021,1.1623 -0.5021,1.5899 l -0.0108,0.6706 0.6802,6.1908 v 0.5021 c 0,2.4103 -0.1024,4.6494 0.2825,6.83 0.1802,1.0205 0.4307,2.1047 0.4738,3.2079 0.0442,1.1324 -0.3703,2.9319 0.7499,2.9319 0.2485,0 0.2238,-0.1674 0.5857,-0.1674 h 0.251 c 0.0438,-0.1877 0.0837,-0.1924 0.0837,-0.4184 v -0.0836 c 0,-0.3591 -0.2185,-0.5448 -0.3657,-0.806 -0.2764,-0.4904 -0.0527,-0.4475 -0.0527,-0.9512 0,-0.2603 -0.3622,-0.5262 -0.4137,-1.0088 -0.0554,-0.519 -0.0883,-0.8642 -0.0883,-1.4178 l -0.0514,-0.257 0.3024,-2.5044 -0.018,-1.0039 0.0059,-2.3532 0.1264,-2.9222 0.3878,-4.7659 c 0.9275,0.2477 1.6957,2.3548 2.1778,3.1774 0.6453,1.1009 1.4651,2.1613 1.9104,3.4449 0.1913,0.5511 0.6327,1.4076 0.7475,1.9302 0.121,0.5509 0.2923,1.8093 0.5011,2.1764 0.2944,0.5174 1.5246,3.3024 1.5246,3.9144 v 0.3347 c 0,0.2041 -0.251,0.3159 -0.251,0.8368 v 0.1673 c 0,0.265 0.4331,0.4252 0.5554,0.8671 0.0958,0.3465 0.0131,0.9593 0.114,1.3922 0.1877,0.0437 0.1924,0.0837 0.4184,0.0837 h 0.502 c 0.2222,0 0.6694,-0.0666 0.6694,-0.2511 0,-0.217 -0.3603,-0.4577 -0.502,-0.6694 0,-0.5743 -0.1803,-1.4256 -0.3347,-1.8409 -0.2589,-0.6965 -0.2247,-1.0662 -0.3685,-1.8908 -0.2379,-1.3652 -0.3376,-2.8111 -0.7193,-4.1338 0,-1.2038 -0.7664,-2.7676 -1.0544,-3.7988 -0.1757,-0.6291 -1.1147,-3.5239 -1.1212,-3.8158 0.3992,-0.0929 1.1715,-0.5768 1.1715,-1.0877 v -1.0041 l -0.0954,-0.0071 0.3464,-4.7625 c 0.0292,-0.3932 -0.1961,-3.0114 -0.2824,-3.483 -0.1629,-0.8905 -0.491,-2.4495 -0.5528,-3.218 l 0.2495,0.0069 c -0.3142,-0.4691 -0.883,-0.4206 -1.225,-0.8669 -0.4169,-0.5441 -0.4218,-0.8134 -0.6996,-1.3923 l 0.2841,-0.0141 -0.3678,-0.99 c 0.7858,0.2098 1.017,1.7325 1.4225,1.8408 0,-1.4341 -2.1349,-3.9327 -3.096,-3.9327 h -1.0878 c -0.6838,0 -1.4376,1.9473 -1.8241,2.527 -0.5322,0.7982 -1.3424,1.7482 -1.4392,2.9119 z"
       id="path9"
       inkscape:connector-curvature="0"
       style="fill:#dededd" /><path
       class="fil1"
       d="m 73.7954,39.8959 -0.0836,0.5021 -0.1674,0.4184 -0.4242,1.6721 -0.2452,0.0014 -0.251,-1.0878 -0.0837,-2.2593 -0.2004,-1.0821 0.033,-0.2567 c 0,-1.5981 0.9205,-2.156 0.9205,-3.5981 v -0.251 h 0.251 c 0,0.8018 0.6176,5.3632 0.251,5.941 z m -7.0287,-4.7695 c 0,-0.5304 0.9481,-1.9111 1.0877,-2.5103 0.4083,0.109 0.8368,1.2972 0.8368,1.8409 v 0.0836 c 0,0.6546 -1.0014,1.4458 -1.1715,2.1756 -0.3517,-0.0939 -0.753,-0.8718 -0.753,-1.3388 z m -0.4184,-5.0206 0.1088,-0.0378 0.979,-1.3847 c -0.126,0.5409 -0.416,0.9881 -0.5863,1.673 -0.1538,0.6182 -0.2702,1.1774 -0.4752,1.784 -0.1611,0.4767 -1.0304,3.2569 -1.0304,3.5718 v 0.251 c 0,0.3819 1.0041,1.4523 1.0041,2.2593 v 0.1673 c 0,0.3274 -0.5021,1.1623 -0.5021,1.5899 l -0.0108,0.6706 0.6802,6.1908 v 0.5021 c 0,2.4103 -0.1024,4.6494 0.2825,6.83 0.1802,1.0205 0.4307,2.1047 0.4738,3.2079 0.0442,1.1324 -0.3703,2.9319 0.7499,2.9319 0.2485,0 0.2238,-0.1674 0.5857,-0.1674 h 0.251 c 0.0438,-0.1877 0.0837,-0.1924 0.0837,-0.4184 v -0.0836 c 0,-0.3591 -0.2185,-0.5448 -0.3657,-0.806 -0.2764,-0.4904 -0.0527,-0.4475 -0.0527,-0.9512 0,-0.2603 -0.3622,-0.5262 -0.4137,-1.0088 -0.0554,-0.519 -0.0883,-0.8642 -0.0883,-1.4178 l -0.0514,-0.257 0.3024,-2.5044 -0.018,-1.0039 0.0059,-2.3532 0.1264,-2.9222 0.3878,-4.7659 c 0.9275,0.2477 1.6957,2.3548 2.1778,3.1774 0.6453,1.1009 1.4651,2.1613 1.9104,3.4449 0.1913,0.5511 0.6327,1.4076 0.7475,1.9302 0.121,0.5509 0.2923,1.8093 0.5011,2.1764 0.2944,0.5174 1.5246,3.3024 1.5246,3.9144 v 0.3347 c 0,0.2041 -0.251,0.3159 -0.251,0.8368 v 0.1673 c 0,0.265 0.4331,0.4252 0.5554,0.8671 0.0958,0.3465 0.0131,0.9593 0.114,1.3922 0.1877,0.0437 0.1924,0.0837 0.4184,0.0837 h 0.502 c 0.2222,0 0.6694,-0.0666 0.6694,-0.2511 0,-0.217 -0.3603,-0.4577 -0.502,-0.6694 0,-0.5743 -0.1803,-1.4256 -0.3347,-1.8409 -0.2589,-0.6965 -0.2247,-1.0662 -0.3685,-1.8908 -0.2379,-1.3652 -0.3376,-2.8111 -0.7193,-4.1338 0,-1.2038 -0.7664,-2.7676 -1.0544,-3.7988 -0.1757,-0.6291 -1.1147,-3.5239 -1.1212,-3.8158 0.3992,-0.0929 1.1715,-0.5768 1.1715,-1.0877 v -1.0041 l -0.0954,-0.0071 0.3464,-4.7625 c 0.0292,-0.3932 -0.1961,-3.0114 -0.2824,-3.483 -0.1629,-0.8905 -0.491,-2.4495 -0.5528,-3.218 l 0.2495,0.0069 c -0.3142,-0.4691 -0.883,-0.4206 -1.225,-0.8669 -0.4169,-0.5441 -0.4218,-0.8134 -0.6996,-1.3923 l 0.2841,-0.0141 -0.3678,-0.99 c 0.7858,0.2098 1.017,1.7325 1.4225,1.8408 0,-1.4341 -2.1349,-3.9327 -3.096,-3.9327 h -1.0878 c -0.6838,0 -1.4376,1.9473 -1.8241,2.527 -0.5322,0.7982 -1.3424,1.7482 -1.4392,2.9119 z"
       id="path13"
       inkscape:connector-curvature="0"
       style="fill:#6ebad1" /></g></svg>