<?xml version="1.0" encoding="UTF-8"?>
<!DOCTYPE svg PUBLIC "-//W3C//DTD SVG 1.1//EN" "http://www.w3.org/Graphics/SVG/1.1/DTD/svg11.dtd">
<!-- Creator: CorelDRAW -->
<svg xmlns="http://www.w3.org/2000/svg" xml:space="preserve" width="8mm" height="8mm" style="shape-rendering:geometricPrecision; text-rendering:geometricPrecision; image-rendering:optimizeQuality; fill-rule:evenodd; clip-rule:evenodd"
viewBox="0 0 8 8"
 xmlns:xlink="http://www.w3.org/1999/xlink">
 <defs>
  <style type="text/css">
   <![CDATA[
    .fil0 {fill:#27A2C3}
   ]]>
  </style>
 </defs>
 <g id="Слой_x0020_1">
  <metadata id="CorelCorpID_0Corel-Layer"/>
  <path class="fil0" d="M2.298 1.9607l0 0.0936c0,0.0654 0.0248,0.2666 0.0418,0.3173 0.0187,0.0561 0.0198,0.0921 0.0322,0.1395 0.0178,0.0679 0.039,0.0629 0.06,0.1273 0.0567,0.1735 0.2535,0.3774 0.2719,0.4462 0.0315,-0.0007 0.0821,0.0032 0.0821,-0.0317l-0.0353 -0.3429 0 -0.203c0,-0.333 0.1976,-0.64 0.5308,-0.64l0.1249 0c0.1216,0 0.3928,0.127 0.5218,0.1651 0.1856,0.0548 0.3718,0.1003 0.6021,0.1003l0.0781 0c0.3084,0 0.3934,-0.1225 0.5776,-0.1717 0.0515,0.2211 0.1561,0.2397 0.1561,0.5932l0.0036 0.2344 -0.0192 0.2651 0.0468 0c0.0966,0 0.2493,-0.3285 0.2914,-0.4267 0.0708,-0.1658 0.1301,-0.358 0.1301,-0.588 0,-0.5363 -0.2097,-0.9513 -0.4801,-1.2215 -0.25,-0.2498 -0.6738,-0.5581 -1.159,-0.5581l-0.0625 0c-0.9577,0 -1.7952,0.7642 -1.7952,1.7016z"/>
  <polygon class="fil0" points="5.3388,6.6804 6.1226,6.6804 6.1226,5.9414 5.3388,5.9414 "/>
  <path class="fil0" d="M5.6074 4.6145c0.2043,0 0.7693,0.3848 0.8841,0.5209 0.2107,0.2499 0.396,0.5563 0.396,1.0089l0 1.124 -2.8099 0c0.1087,-0.2054 0.253,-0.4698 0.3777,-0.6682 0.1361,-0.2166 0.2459,-0.4435 0.381,-0.665 0.0878,-0.1439 0.7077,-1.3206 0.7711,-1.3206zm-2.0293 -0.1405l0 0.0468c0,0.1023 0.2497,0.2999 0.2497,0.359l0.0038 0.5466 -0.0194 0.4525 -0.0312 0c-0.006,-0.0718 -0.4065,-0.7847 -0.4681,-0.89 -0.0828,-0.1417 -0.3809,-0.8271 -0.531,-0.8271l-0.0312 0c-0.216,0 -0.5741,0.1743 -0.7495,0.2339 -0.1501,0.051 -0.482,0.2862 -0.5891,0.3944 -0.3249,0.3278 -0.5815,0.7412 -0.5815,1.3854l0 1.2801c0,0.1257 0.0987,0.1223 0.1249,0.1873l6.1349 0c0.0717,0 0.1718,-0.0986 0.1718,-0.1873l0 -1.2489c0,-0.5991 -0.217,-1.0522 -0.5191,-1.3542 -0.1513,-0.1513 -0.3357,-0.2982 -0.5371,-0.3995 -0.095,-0.0478 -0.5799,-0.26 -0.6766,-0.26l-0.0625 0c-0.0977,0 -0.4258,0.6271 -0.4814,0.7362 -0.1337,0.262 -0.3051,0.5192 -0.4499,0.7833 -0.1456,0.2658 -0.3069,0.5176 -0.4475,0.7857 -0.0455,0.0867 -0.423,0.7701 -0.4632,0.7701l-2.4196 0 0 -1.0928c0,-0.4961 0.1898,-0.8371 0.4409,-1.0888 0.1639,-0.1643 0.7178,-0.5125 1.0125,-0.52l0.9974 1.8742c0.089,-0.0238 0.6432,-1.0904 0.7493,-1.2488l0 -0.3279c0.0347,-0.0517 0.2498,-0.2889 0.2498,-0.3278l0 -0.0312c0,-0.1013 -0.1682,-0.1855 -0.238,-0.246 -0.0469,-0.0407 -0.2315,-0.1911 -0.2928,-0.1911l-0.0156 0c-0.0759,0 -0.5307,0.3502 -0.5307,0.4059z"/>
 </g>
</svg>
