<?xml version="1.0" encoding="UTF-8"?>
<!DOCTYPE svg PUBLIC "-//W3C//DTD SVG 1.1//EN" "http://www.w3.org/Graphics/SVG/1.1/DTD/svg11.dtd">
<!-- Creator: CorelDRAW -->
<svg xmlns="http://www.w3.org/2000/svg" xml:space="preserve" width="8mm" height="8mm" style="shape-rendering:geometricPrecision; text-rendering:geometricPrecision; image-rendering:optimizeQuality; fill-rule:evenodd; clip-rule:evenodd"
viewBox="0 0 8 8"
 xmlns:xlink="http://www.w3.org/1999/xlink">
 <defs>
  <style type="text/css">
   <![CDATA[
    .fil0 {fill:#27A2C3}
   ]]>
  </style>
 </defs>
 <g id="Слой_x0020_1">
  <metadata id="CorelCorpID_0Corel-Layer"/>
  <path class="fil0" d="M3.3282 6.3723c0,-0.2984 0.2535,-0.5866 0.5279,-0.5866 0.3965,0 0.6452,0.2099 0.6452,0.5866 0,0.2899 -0.238,0.5279 -0.5279,0.5279l-0.1173 0c-0.2899,0 -0.5279,-0.238 -0.5279,-0.5279zm-0.3716 -2.3716c0,0.1372 0.0973,0.2346 0.2346,0.2346 0.1373,0 0.2346,-0.0974 0.2346,-0.2346 0,-0.1374 -0.0973,-0.2347 -0.2346,-0.2347 -0.1373,0 -0.2346,0.0973 -0.2346,0.2347zm1.4861 0.0841c0,0.1373 0.0973,0.2346 0.2346,0.2346 0.1373,0 0.2346,-0.0973 0.2346,-0.2346 0,-0.1373 -0.0973,-0.2347 -0.2346,-0.2347 -0.1373,0 -0.2346,0.0974 -0.2346,0.2347zm-1.1145 1.4663c0.0951,-0.142 0.1719,-0.2346 0.4106,-0.2346l0.352 0c0.2387,0 0.3154,0.0926 0.4105,0.2346 -0.2882,-0.024 -0.2149,-0.1173 -0.4692,-0.1173l-0.2346 0c-0.2544,0 -0.1811,0.0933 -0.4693,0.1173zm0.2933 -3.6952c0,0.2948 0.7397,0.0205 0.7625,0.2932 0.0701,0.2339 -0.4411,0.2347 -0.5865,0.2347 -0.1794,0 -0.5866,-0.1678 -0.5866,-0.352l0 -0.1173c0,-0.2426 0.4927,-0.4106 0.7625,-0.4106l0.2933 0c0.9248,0 2.0989,1.0791 2.1702,1.9356l0.4106 0c0.2274,0 0.4693,0.3224 0.4693,0.5866l0 0.0587c0,0.2007 -0.3101,0.5278 -0.5866,0.5278l-0.2933 0c-0.2277,0.9774 -0.8042,1.3473 -1.5836,1.7597 0,-0.3694 -0.1173,-0.3595 -0.1173,-0.5279 0,-0.1122 0.1173,-0.04 0.1173,-0.2346l0 -0.0587c0,-0.4276 -0.5218,-0.6452 -0.9385,-0.6452 -0.4167,0 -0.9385,0.2176 -0.9385,0.6452l0 0.0587c0,0.1946 0.1173,0.1224 0.1173,0.2346 0,0.1684 -0.1173,0.1585 -0.1173,0.5279 -0.6964,-0.186 -1.4104,-1.0157 -1.5837,-1.7597l-0.2933 0c-0.2899,0 -0.5278,-0.2379 -0.5278,-0.5278l0 -0.176c0,-0.2837 0.1855,-0.4693 0.4692,-0.4693l0.3519 0c0.0676,-0.8125 0.8129,-1.3862 1.4077,-1.7009 0,0.6749 0.4471,0.9971 1.1145,0.9971l0.0586 0c0.3329,0 0.7626,-0.2249 0.7626,-0.5279 0,-0.3245 -0.3383,-0.5866 -0.6452,-0.5866 -0.209,0 -0.4693,0.0287 -0.4693,0.2347zm-2.4635 1.1731c-0.5026,0 -0.9971,0.4318 -0.9971,0.8798l0 0.0586c0,0.5684 0.3443,0.8631 0.7765,0.9832 0.2739,0.076 0.5737,0.7831 0.7914,1.0268 0.2227,0.2493 0.7119,0.5651 1.0527,0.707 0.5337,0.222 0.5299,0.6264 1.1919,0.6264 0.4592,0 0.6136,-0.4346 1.0746,-0.6264 0.3409,-0.1419 0.8301,-0.4577 1.0527,-0.707 0.1858,-0.2079 0.5652,-0.959 0.743,-1.0167 0.4432,-0.1438 0.825,-0.3408 0.825,-0.9346l0 -0.1173c0,-0.4601 -0.5012,-0.8688 -0.9971,-0.8798 -0.581,-2.4938 -4.9318,-2.4974 -5.5136,0z"/>
 </g>
</svg>
