<?xml version="1.0" encoding="UTF-8"?>
<!DOCTYPE svg PUBLIC "-//W3C//DTD SVG 1.1//EN" "http://www.w3.org/Graphics/SVG/1.1/DTD/svg11.dtd">
<!-- Creator: CorelDRAW -->
<svg xmlns="http://www.w3.org/2000/svg" xml:space="preserve" width="13mm" height="13mm" style="shape-rendering:geometricPrecision; text-rendering:geometricPrecision; image-rendering:optimizeQuality; fill-rule:evenodd; clip-rule:evenodd"
viewBox="0 0 13 13"
 xmlns:xlink="http://www.w3.org/1999/xlink">
 <defs>
  <style type="text/css">
   <![CDATA[
    .fil0 {fill:#85A2A5}
   ]]>
  </style>
 </defs>
 <g id="Слой_x0020_1">
  <metadata id="CorelCorpID_0Corel-Layer"/>
  <path id="path14" class="fil0" d="M6.5168 0.6361c3.3256,0 6.0216,2.696 6.0216,6.0215 0.0001,3.3254 -2.6959,6.0214 -6.0216,6.0214 -3.3254,0 -6.0214,-2.696 -6.0214,-6.0214 0,-3.3255 2.696,-6.0215 6.0215,-6.0215l-0.0001 0zm0.0062 0.1601c3.2093,0 5.8112,2.6148 5.8112,5.8403 0,3.2251 -2.6018,5.8399 -5.8112,5.8399 -3.2095,0 -5.8114,-2.6148 -5.8114,-5.8399 0,-3.2254 2.6019,-5.8403 5.8115,-5.8403m-0.0001 0l0 0 0 0z"/>
  <path class="fil0" d="M6.6524 5.2385c0.1908,0 0.3702,0.048 0.5269,0.1329l0.7253 -0.6256c-0.0667,-0.1167 -0.1047,-0.2521 -0.1047,-0.3961 0,-0.441 0.3578,-0.7987 0.7987,-0.7987 0.4411,0 0.7988,0.3577 0.7988,0.7987 0,0.441 -0.3577,0.7988 -0.7988,0.7988 -0.1871,0 -0.3594,-0.0643 -0.4955,-0.1721l-0.673 0.5806c0.2045,0.2011 0.3314,0.4811 0.3314,0.7905 0,0.5592 -0.414,1.0214 -0.952,1.0979l-0.0104 0.8758c0.3649,0.0738 0.6398,0.3964 0.6398,0.7828 0,0.4411 -0.3577,0.7988 -0.7987,0.7988 -0.441,0 -0.7987,-0.3577 -0.7987,-0.7988 0,-0.3912 0.2818,-0.7172 0.6534,-0.7856l0.0102 -0.8717c-0.5427,-0.0722 -0.9617,-0.5367 -0.9617,-1.0992 0,-0.2604 0.09,-0.5002 0.2404,-0.6895l-0.7154 -0.6172c-0.13,0.0915 -0.2885,0.145 -0.4594,0.145 -0.441,0 -0.7987,-0.3577 -0.7987,-0.7988 0,-0.4409 0.3577,-0.7987 0.7987,-0.7987 0.441,0 0.7988,0.3578 0.7988,0.7987 0,0.16 -0.047,0.3093 -0.128,0.4343l0.7253 0.6257c0.1822,-0.1313 0.4056,-0.2085 0.6473,-0.2085zm-0.0122 3.3681c0.2746,0 0.4975,0.2229 0.4975,0.4974 0,0.2747 -0.2229,0.4975 -0.4975,0.4975 -0.2746,0 -0.4974,-0.2228 -0.4974,-0.4975 0,-0.2745 0.2228,-0.4974 0.4974,-0.4974zm-2.0312 -4.717c0.2747,0 0.4975,0.2228 0.4975,0.4974 0,0.2747 -0.2228,0.4975 -0.4975,0.4975 -0.2746,0 -0.4974,-0.2228 -0.4974,-0.4975 0,-0.2746 0.2228,-0.4974 0.4974,-0.4974zm3.9896 -0.0373c0.2747,0 0.4975,0.2228 0.4975,0.4974 0,0.2747 -0.2228,0.4975 -0.4975,0.4975 -0.2746,0 -0.4974,-0.2228 -0.4974,-0.4975 0,-0.2746 0.2228,-0.4974 0.4974,-0.4974zm-1.9462 1.8045c0.3814,0 0.6908,0.3095 0.6908,0.6907 0,0.3814 -0.3094,0.6909 -0.6908,0.6909 -0.3813,0 -0.6907,-0.3095 -0.6907,-0.6909 0,-0.3812 0.3094,-0.6907 0.6907,-0.6907z"/>
 </g>
</svg>
