<?xml version="1.0" encoding="UTF-8"?>
<!DOCTYPE svg PUBLIC "-//W3C//DTD SVG 1.1//EN" "http://www.w3.org/Graphics/SVG/1.1/DTD/svg11.dtd">
<!-- Creator: CorelDRAW X6 -->
<svg xmlns="http://www.w3.org/2000/svg" xml:space="preserve" width="13mm" height="13mm" version="1.1" style="shape-rendering:geometricPrecision; text-rendering:geometricPrecision; image-rendering:optimizeQuality; fill-rule:evenodd; clip-rule:evenodd"
viewBox="0 0 1300 1300"
 xmlns:xlink="http://www.w3.org/1999/xlink">
 <defs>
  <style type="text/css">
   <![CDATA[
    .fil1 {fill:#969594}
    .fil0 {fill:#D33B6E}
   ]]>
  </style>
 </defs>
 <g id="Слой_x0020_1">
  <metadata id="CorelCorpID_0Corel-Layer"/>
  <g id="_788541376">
   <path class="fil0" d="M641 650l7 -2 0 -82 87 0 0 85 84 0 1 86 -84 1 -1 -7 0 9 0 83 -87 0 1 -85 -82 -1 -1 -86 82 -1 -7 0zm193 77c-2,21 -11,28 -35,28l-48 0 0 51 0 0c-1,25 -10,32 -36,32l-48 0c-27,0 -35,-8 -35,-36l0 -47 -48 0c-28,0 -36,-9 -36,-36l0 -48c0,-4 0,-7 0,-10l0 0 0 -1c2,-20 12,-27 36,-27l48 0 0 -34c0,-2 0,-5 0,-7l0 -7c0,-27 8,-36 36,-36l47 0c28,0 36,9 36,36l0 48 48 0c28,0 36,8 36,36l0 48c0,3 0,7 -1,10l0 0 0 0z"/>
   <path class="fil0" d="M487 358c0,0 15,3 49,0l0 96 83 -15 1 -81 275 0 0 586 -407 0 -1 -586zm-58 0l45 1 1 584 -46 1 0 -586zm122 0l55 1 0 66 -55 11 0 -78zm-134 601l492 0 -2 -620 -490 0 0 620z"/>
   <path id="path14" class="fil1" d="M656 49c332,0 602,269 602,602 0,333 -270,602 -602,602 -333,0 -603,-269 -603,-602 0,-333 270,-602 603,-602l0 0zm0 16c321,0 581,261 581,584 0,322 -260,584 -581,584 -321,0 -581,-262 -581,-584 0,-323 260,-584 581,-584m0 0l0 0 0 0z"/>
  </g>
 </g>
</svg>
