<?xml version="1.0" encoding="UTF-8"?>
<!DOCTYPE svg PUBLIC "-//W3C//DTD SVG 1.1//EN" "http://www.w3.org/Graphics/SVG/1.1/DTD/svg11.dtd">
<!-- Creator: CorelDRAW X6 -->
<svg xmlns="http://www.w3.org/2000/svg" xml:space="preserve" width="13mm" height="13mm" version="1.1" style="shape-rendering:geometricPrecision; text-rendering:geometricPrecision; image-rendering:optimizeQuality; fill-rule:evenodd; clip-rule:evenodd"
viewBox="0 0 1300 1300"
 xmlns:xlink="http://www.w3.org/1999/xlink">
 <defs>
  <style type="text/css">
   <![CDATA[
    .fil0 {fill:#85A2A5}
   ]]>
  </style>
 </defs>
 <g id="Слой_x0020_1">
  <metadata id="CorelCorpID_0Corel-Layer"/>
  <path id="path14" class="fil0" d="M651 56c333,0 603,269 603,602 0,333 -270,602 -603,602 -332,0 -602,-269 -602,-602 0,-333 270,-602 602,-602l0 0zm1 16c321,0 581,261 581,584 0,322 -260,584 -581,584 -321,0 -581,-262 -581,-584 0,-323 260,-584 581,-584m0 0l0 0 0 0z"/>
  <path class="fil0" d="M819 492l136 0 -1 438 -135 0 0 -438zm-215 260l110 0 0 178 -110 0 0 -178zm-244 -263l137 1 -1 440 -136 0 0 -441zm160 -160l274 0 0 601 -55 0 0 -201 -161 0 0 201 -58 0 0 -601zm-23 137l-161 0 0 485 643 0c2,-7 1,-390 1,-425 0,-10 1,-53 -1,-60l-160 0 0 -161 -322 0 0 161z"/>
  <path class="fil0" d="M639 435l0 33 -60 0 -1 40 61 0c0,18 -1,44 0,61l40 0 0 -61 60 0 0 -40 -60 0 0 -60 -40 0 0 27z"/>
  <polygon class="fil0" points="416,828 457,828 456,788 416,788 "/>
  <polygon class="fil0" points="859,716 859,748 899,748 899,708 859,707 "/>
  <polygon class="fil0" points="416,667 456,667 456,627 416,627 "/>
  <polygon class="fil0" points="416,748 456,748 456,708 416,707 "/>
  <polygon class="fil0" points="859,667 899,667 899,627 859,627 "/>
  <polygon class="fil0" points="416,587 456,587 456,546 416,546 "/>
  <polygon class="fil0" points="859,587 899,587 899,547 859,546 "/>
  <polygon class="fil0" points="859,828 899,828 899,788 859,788 "/>
 </g>
</svg>
