<?xml version="1.0" encoding="UTF-8" standalone="no"?>
<svg
   xmlns:dc="http://purl.org/dc/elements/1.1/"
   xmlns:cc="http://creativecommons.org/ns#"
   xmlns:rdf="http://www.w3.org/1999/02/22-rdf-syntax-ns#"
   xmlns:svg="http://www.w3.org/2000/svg"
   xmlns="http://www.w3.org/2000/svg"
   viewBox="0 0 26.666668 26.666668"
   height="26.666668"
   width="26.666668"
   xml:space="preserve"
   id="svg2"
   version="1.1"><metadata
     id="metadata8"><rdf:RDF><cc:Work
         rdf:about=""><dc:format>image/svg+xml</dc:format><dc:type
           rdf:resource="http://purl.org/dc/dcmitype/StillImage" /></cc:Work></rdf:RDF></metadata><defs
     id="defs6" /><g
     transform="matrix(1.3333333,0,0,-1.3333333,0,26.666667)"
     id="g10"><g
       transform="scale(0.1)"
       id="g12"><path
         id="path14"
         style="fill:#f66429;fill-opacity:1;fill-rule:evenodd;stroke:none"
         d="m 60.7461,49.4453 h 82.1759 c 0.082,11.168 -0.031,22.3789 -0.039,33.5469 -0.004,8.1484 -0.75,13.4883 -6.172,19.0118 -1.469,1.5 -2.789,2.082 -4.887,3.226 -0.527,-1.703 -0.808,-3.402 -1.406,-5.05 -1.656,-4.6058 -4.148,-8.7034 -7.57,-11.7503 -1.16,-1.0352 -2.141,-1.9375 -3.614,-2.8399 -8.156,-5.0039 -12.929,-4.0039 -14.586,-4.75 -0.89,-2.7304 3.247,-5.8125 4.227,-6.8359 3.766,-3.9492 5.188,-7.8437 2.055,-13.3203 -2.825,-4.9297 -9.836,-7.332 -15.9691,-6.332 -2.9218,0.4726 -4.8359,1.4375 -5.8476,1.6172 -2.0508,-1.5665 -4.1641,-2.3868 -6.7305,-0.6875 -1.6523,1.0937 -3.0078,3.7578 -1.7969,6.332 1.7149,3.6445 6.2735,4.1133 8.6758,1.1992 2.2422,-2.7187 -1.0234,-3.5664 6.2539,-4.6836 1.8477,-0.2851 3.8633,-0.2773 5.7184,0.1914 3.27,0.832 6.133,2.8906 7.121,5.5977 1.645,4.4961 -1.546,6.8086 -3.46,8.582 -2.879,2.668 -4.079,4.7383 -4.122,8.6016 -0.9449,0.1992 -1.941,0.2773 -2.8746,0.4297 C 85.4766,83.5625 77.875,93.9141 75.5508,106.484 70.8594,105.563 66.7734,102.367 64.6719,99.3398 62.1484,95.6953 60.7461,90.8438 60.7383,85.3086 60.7227,73.3672 60.6563,61.3828 60.7461,49.4453" /><path
         id="path16"
         style="fill:#f66429;fill-opacity:1;fill-rule:evenodd;stroke:none"
         d="m 103.488,152.898 h -3.156 c -0.4218,-0.222 -2.5586,-0.636 -3.3515,-0.929 -1.1133,-0.406 -2.0078,-0.985 -2.8828,-1.574 -1.0391,-0.688 -1.2344,-1.145 -2.5352,-1.762 -3.0312,-1.43 -5.4219,-3.356 -7.4805,-5.738 -1.0703,-1.239 -2.7422,-3.622 -3.3515,-5.344 l 7.7304,-0.051 c 0.4063,-0.941 0.2618,-1.762 1.3399,-4.07 0.6367,-1.364 1.4765,-2.367 2.2578,-3.289 -1.2461,-0.266 -11.0508,-0.047 -13.332,-0.11 -0.8868,-4.941 0.9492,-10.047 3.1523,-14.113 2.9727,-5.488 8.8008,-8.25 8.9883,-8.723 l -11.4609,-0.082 c -0.0118,-2.14 1.8007,-6.824 2.6679,-8.5271 1.3828,-2.7226 2.8281,-4.6132 4.7969,-6.5976 3.5078,-3.5391 9.4687,-6.0078 16.4569,-6.3008 6.879,-0.2891 13.184,2.3477 16.785,5.8086 2.008,1.9258 3.418,3.5195 4.977,6.4023 1.105,2.0469 2.715,6.1056 2.941,8.6326 -7.5,1.172 -10.402,0.145 -15.558,0.664 0.152,0.375 0.855,0.664 1.16,0.856 2.992,1.824 5.789,4.621 7.703,7.668 2.074,3.297 4.141,9.433 3.281,14.328 l -12.91,0.004 c 0.359,0.773 0.664,0.879 1.152,1.582 0.325,0.472 0.774,1.172 1.059,1.75 0.766,1.566 0.824,2.422 1.34,4.086 l 7.371,0.039 c -0.477,1.519 -2.5,4.398 -3.285,5.293 -2.156,2.457 -4.305,4.183 -7.215,5.683 -1.207,0.618 -2.387,2.321 -5.168,3.414 -0.949,0.372 -2.699,0.567 -3.473,1 z m -3.422,-3.945 c -8.4449,-1.937 -10.691,-11.898 -4.0621,-17.258 4.0161,-3.246 9.9411,-2.617 13.6011,1.868 5.583,6.851 -1.195,17.3 -9.539,15.39" /><path
         id="path18"
         style="fill:#f66429;fill-opacity:1;fill-rule:evenodd;stroke:none"
         d="m 100.668,143.688 c -2,-0.602 -3.9375,-2.743 -3.1055,-5.5 0.5859,-1.95 2.7185,-3.836 5.4295,-3.114 5.817,1.547 3.332,10.324 -2.324,8.614" /><path
         id="path20"
         style="fill:#f66429;fill-opacity:1;fill-rule:evenodd;stroke:none"
         d="m 100.102,192.523 c 51.777,0 93.75,-41.972 93.75,-93.7496 0,-51.7773 -41.973,-93.74996 -93.75,-93.74996 -51.7778,0 -93.75044,41.97266 -93.75044,93.74996 0,51.7776 41.97264,93.7496 93.75044,93.7496 z m 0.043,-1.367 c 50.937,0 92.226,-41.289 92.226,-92.2263 0,-50.9336 -41.289,-92.22657 -92.226,-92.22657 -50.938,0 -92.23094,41.29297 -92.23094,92.22657 0,50.9373 41.29294,92.2263 92.23094,92.2263" /></g></g></svg>