<?xml version="1.0" encoding="UTF-8" standalone="no"?>
<svg
   xmlns:dc="http://purl.org/dc/elements/1.1/"
   xmlns:cc="http://creativecommons.org/ns#"
   xmlns:rdf="http://www.w3.org/1999/02/22-rdf-syntax-ns#"
   xmlns:svg="http://www.w3.org/2000/svg"
   xmlns="http://www.w3.org/2000/svg"
   viewBox="0 0 26.666668 26.666668"
   height="26.666668"
   width="26.666668"
   xml:space="preserve"
   id="svg2"
   version="1.1"><metadata
     id="metadata8"><rdf:RDF><cc:Work
         rdf:about=""><dc:format>image/svg+xml</dc:format><dc:type
           rdf:resource="http://purl.org/dc/dcmitype/StillImage" /></cc:Work></rdf:RDF></metadata><defs
     id="defs6" /><g
     transform="matrix(1.3333333,0,0,-1.3333333,0,26.666667)"
     id="g10"><g
       transform="scale(0.1)"
       id="g12"><path
         id="path14"
         style="fill:#00b2ca;fill-opacity:1;fill-rule:evenodd;stroke:none"
         d="m 78.6523,65.332 c -4.5976,0 -0.7656,6.6563 4.4415,6.6563 3.121,0 2.4023,-3.1328 -0.2813,-5.1641 -0.957,-0.7265 -2.5703,-1.4922 -4.1602,-1.4922 z m 22.1917,9.4805 c -4.7815,0 -0.8674,6.6563 4.437,6.6563 4.629,0 0.594,-6.6563 -4.437,-6.6563 z M 63.3281,73.8047 c -3.2031,0 -0.9687,8.6719 3.6289,8.6719 3,0 0.6133,-8.6719 -3.6289,-8.6719 z M 83.293,85.3008 c 0,2.8672 3.414,6.2539 6.2539,6.2539 2.1054,0 2.1211,-3.8438 -1.4922,-6.5781 -2.4063,-1.8203 -4.7617,-1.3789 -4.7617,0.3242 z m 37.516,1.2109 c -1.5,0 -2.016,0.1446 -2.016,2.6211 0,4.4649 6.453,8.8516 6.453,3.832 0,-2.7304 -2.535,-6.4531 -4.437,-6.4531 z m -51.0277,6.8594 c -1.5977,0 -2.2188,-0.0469 -2.2188,1.8125 0,4.043 7.6641,8.3984 7.6641,4.0352 0,-1.4415 -1.1211,-2.9844 -1.8633,-3.7852 -0.6055,-0.6641 -2.4727,-2.0625 -3.582,-2.0625 z m 34.2887,3.0234 c -1.168,0 -1.851,0.8243 -1.769,1.9727 0.187,2.6208 3.707,5.8668 6.008,5.8598 1.062,-0.008 1.847,-0.809 1.765,-1.942 -0.082,-1.113 -0.66,-2.031 -1.199,-2.8319 -0.887,-1.3047 -3.059,-3.0586 -4.805,-3.0586 z m -15.7341,9.4805 c -3.9804,0 -0.875,6.98 3.75,7.762 3.4844,0.59 2.4454,-4.637 -1.5351,-6.953 -0.4102,-0.235 -1.6289,-0.809 -2.2149,-0.809 z m -15.7304,3.023 c -2.7774,0 -1.6485,4.379 0.6953,6.567 4.7539,4.433 6.8594,-1.02 2.3008,-5.125 -0.8125,-0.738 -1.6875,-1.442 -2.9961,-1.442 z m 31.4645,6.657 c -4.2966,0 -0.363,7.465 4.434,7.465 3.945,0 0.094,-7.465 -4.434,-7.465 z m -15.1286,10.086 c -1.0508,0 -1.8867,-0.176 -2.5469,0.48 -1.125,1.117 0.0899,2.828 0.875,3.613 0.4844,0.485 1.6641,1.274 2.2735,1.555 5.1562,2.399 7.039,-1.328 3.2343,-4.043 -0.8046,-0.566 -2.5,-1.605 -3.8359,-1.605 z M 52.6367,80.2578 c 0,-7.1914 0.2969,-15.5469 6.2227,-20.1992 9.8203,-7.7109 31.7109,-4.2109 42.8126,-0.1953 4.605,1.664 7.91,2.9414 12.215,5.3359 5.074,2.8164 9.355,5.6953 13.426,9.7656 3.792,3.793 8.015,9.4649 8.015,15.379 0,4.6875 -0.637,6.9375 -2.617,10.8942 -2.852,5.7 -5.516,7.871 -8.559,11.813 l -11.672,11.926 c -2.894,2.414 -4.316,4.152 -8.007,6.914 -5.4457,4.074 -9.5707,6.507 -16.3753,7.242 -1.1368,0.121 -4.1563,-0.391 -5.125,-0.664 -4.0664,-1.164 -6.2266,-2.895 -9.3321,-5.395 C 65.0703,126.172 58.7109,110.902 55.8633,100.629 54.1992,94.625 52.6367,86.4375 52.6367,80.2578" /><path
         id="path16"
         style="fill:#00b2ca;fill-opacity:1;fill-rule:evenodd;stroke:none"
         d="m 114.355,151.859 c 0,-7.894 -4.406,-12.007 -0.234,-19.996 l 2.109,-3.34 c 3.118,-4.128 2.696,-3.519 6.645,-7.472 4.289,-4.289 11.129,-9.934 18.91,-9.934 5.395,0 10.531,4.215 12.707,7.461 -1.637,-0.035 -3.781,-1.008 -9.683,-1.008 -4.778,0 -10.461,1.899 -13.11,5.848 0.985,1.34 2.563,1.309 5.18,6.926 2.543,5.461 3.535,15.84 0.266,21.511 -0.172,0.29 -0.418,0.657 -0.661,0.958 -0.304,0.386 -0.484,0.691 -0.953,0.859 0,-5.531 -2.508,-13.141 -5.761,-17.633 -0.407,-0.559 -0.493,-0.769 -0.946,-1.269 -0.465,-0.524 -0.629,-0.821 -1.101,-1.321 -1.774,-1.863 -3.719,-2.969 -6.512,-2.969 -0.188,0.817 -0.574,1.235 -0.887,2.141 -2.551,7.348 4.535,15.082 -4.508,23.121 -0.543,0.485 -2.218,1.793 -2.871,1.969 0.582,-1.215 1.41,-4.07 1.41,-5.852" /><path
         id="path18"
         style="fill:#00b2ca;fill-opacity:1;fill-rule:evenodd;stroke:none"
         d="m 97.1523,195.094 c 51.7777,0 93.7497,-41.973 93.7497,-93.75 0,-51.7776 -41.972,-93.75025 -93.7497,-93.75025 -51.7773,0 -93.74996,41.97265 -93.74996,93.75025 0,51.777 41.97266,93.75 93.74996,93.75 z m 0.043,-1.364 c 50.9377,0 92.2267,-41.289 92.2267,-92.23 0,-50.9336 -41.289,-92.22266 -92.2267,-92.22266 -50.9375,0 -92.22655,41.28906 -92.22655,92.22266 0,50.941 41.28905,92.23 92.22655,92.23" /></g></g></svg>