<?xml version="1.0" encoding="UTF-8" standalone="no"?>
<svg
   xmlns:dc="http://purl.org/dc/elements/1.1/"
   xmlns:cc="http://creativecommons.org/ns#"
   xmlns:rdf="http://www.w3.org/1999/02/22-rdf-syntax-ns#"
   xmlns:svg="http://www.w3.org/2000/svg"
   xmlns="http://www.w3.org/2000/svg"
   viewBox="0 0 25.333332 28"
   height="28"
   width="25.333332"
   xml:space="preserve"
   id="svg2"
   version="1.1"><metadata
     id="metadata8"><rdf:RDF><cc:Work
         rdf:about=""><dc:format>image/svg+xml</dc:format><dc:type
           rdf:resource="http://purl.org/dc/dcmitype/StillImage" /></cc:Work></rdf:RDF></metadata><defs
     id="defs6" /><g
     transform="matrix(1.3333333,0,0,-1.3333333,0,28)"
     id="g10"><g
       transform="scale(0.1)"
       id="g12"><path
         id="path14"
         style="fill:#00679f;fill-opacity:1;fill-rule:evenodd;stroke:none"
         d="m 65.8945,90.0195 c 0,9.1758 2.0782,14.6565 8.3555,19.2505 2.1367,1.566 3.1484,2.902 5.8398,3.621 0.7305,-3.141 7.6836,-16.1371 9.9883,-20.7699 3.8555,-7.7578 5.6719,-8.7422 9.7305,-0.5234 2.3394,4.7304 9.4804,17.9923 10.2504,21.2933 2.554,-0.684 3.488,-1.864 5.386,-3.289 10.274,-7.723 9.86,-16.977 7.231,-28.2543 H 67.4727 c -0.6954,2.9765 -1.5782,4.9336 -1.5782,8.6718 z m -4.7304,1.5782 c 0,-6.7696 0.5976,-9.9883 3.9414,-14.9844 h 59.9375 c 6.215,9.2851 4.848,25.3517 -1.754,32.1567 -4.125,4.25 -9.414,9.64 -15.598,9.64 l -9.4605,-16.98 c -1.2032,0.992 -1.8086,2.32 -1.6758,2.347 1.668,0.348 2.4844,0.621 4.0433,3.59 l -5.3675,4.895 -5.5664,-4.746 c 0.7265,-2.832 2.7812,-3.426 3.0586,-3.711 0.082,-0.086 -0.9414,-0.903 -2.3789,-1.953 l -7.879,16.562 C 76.4141,118.402 70.8242,112.848 66.8633,108.77 63.3672,105.168 61.1641,98.5 61.1641,91.5977" /><path
         id="path16"
         style="fill:#00679f;fill-opacity:1;fill-rule:evenodd;stroke:none"
         d="m 94.2852,134.969 h 1.5781 c 2.2969,-9.856 12.2967,-6.403 10.2537,1.582 4.09,-1.094 4.805,-5.137 1.434,-7.598 -1.211,-0.887 -0.754,-0.262 -1.613,-1.543 -2.606,-3.871 -4.118,-10.086 -12.3013,-10.086 -2.9062,0 -8.1289,6.547 -9.3633,8.996 -2.6523,5.262 -5.6093,6.77 -2.6054,10.231 0.1797,-0.016 3.1601,0.422 2.9336,-0.371 -2.1602,-7.457 8.3164,-11.25 9.6836,-1.211 z m 1.6015,2.851 c -1.8828,0.075 -2.1992,0.164 -2.8789,0.348 1.0547,2.918 6.1563,3.199 9.1642,3.902 1.266,-1.894 3.555,-3.804 0.449,-3.879 -3.4647,-0.082 -3.5819,-0.371 -6.7343,-0.371 z m -18.9531,-2.851 c 0,-5.41 1.8398,-5.34 6.4531,-12.469 12.9961,-20.074 24.4533,2.566 26.8833,5.164 5.527,5.899 1.449,9.805 1.043,10.992 -0.36,1.055 2.05,11.723 -6.149,14.293 -4.68,1.457 -1.305,-0.773 -5.133,2.746 -5.8162,5.352 -15.3826,-0.629 -18.531,-4.781 -3.8242,-5.039 -2.7031,-9.766 -3.1172,-11.867 -0.3203,-1.621 -1.4492,-2.34 -1.4492,-4.078" /><path
         id="path18"
         style="fill:#00679f;fill-opacity:1;fill-rule:evenodd;stroke:none"
         d="m 105.328,92.3984 v -0.0117 h 4.699 v -4.7226 h 0.032 v -0.0118 h 5.519 v 4.7344 h 4.735 v 4.7305 h -0.036 v 0.0117 h -4.699 c 0,1.2266 0.02,2.1406 -0.031,2.8125 v 1.9176 c -1.328,0 -2.336,0.024 -3.102,0 l -2.386,-0.007 v -1.8989 c -0.051,-0.6758 -0.032,-1.5937 -0.032,-2.8242 h -4.734 v -4.7305 h 0.035" /><path
         id="path20"
         style="fill:#85c8c9;fill-opacity:1;fill-rule:nonzero;stroke:none"
         d="M 44.1914,35.7344 47,35.75 c 33.6602,-16.2617 51.2734,-20.9609 93.66,0.4336 l 2.903,0.0117 L 94.2539,3.78125 44.1914,35.7344" /><path
         id="path22"
         style="fill:#85c8c9;fill-opacity:1;fill-rule:evenodd;stroke:none"
         d="m 93.582,203.961 c 50.531,0 91.496,-40.969 91.496,-91.5 0,-50.5352 -40.965,-91.5001 -91.496,-91.5001 -50.5351,0 -91.49997,40.9649 -91.49997,91.5001 0,50.531 40.96487,91.5 91.49997,91.5 z m 0.0938,-2.434 c 48.7652,0 88.3042,-39.734 88.3042,-88.746 0,-49.0076 -39.539,-88.7419 -88.3042,-88.7419 -48.7735,0 -88.30861,39.7343 -88.30861,88.7419 0,49.012 39.53511,88.746 88.30861,88.746" /><path
         id="path24"
         style="fill:#ffffff;fill-opacity:1;fill-rule:evenodd;stroke:none"
         d="m 101.563,136.348 c 1.57,0 2.839,-1.27 2.839,-2.84 0,-1.57 -1.269,-2.84 -2.839,-2.84 -1.5708,0 -2.8403,1.27 -2.8403,2.84 0,1.57 1.2695,2.84 2.8403,2.84" /><path
         id="path26"
         style="fill:#ffffff;fill-opacity:1;fill-rule:evenodd;stroke:none"
         d="m 89.1367,136.629 c 1.5742,0 2.8438,-1.27 2.8438,-2.84 0,-1.57 -1.2696,-2.84 -2.8438,-2.84 -1.5703,0 -2.8398,1.27 -2.8398,2.84 0,1.57 1.2695,2.84 2.8398,2.84" /></g></g></svg>