<?xml version="1.0" encoding="UTF-8"?>
<!DOCTYPE svg PUBLIC "-//W3C//DTD SVG 1.1//EN" "http://www.w3.org/Graphics/SVG/1.1/DTD/svg11.dtd">
<!-- Creator: CorelDRAW -->
<svg xmlns="http://www.w3.org/2000/svg" xml:space="preserve" width="23mm" height="23mm" style="shape-rendering:geometricPrecision; text-rendering:geometricPrecision; image-rendering:optimizeQuality; fill-rule:evenodd; clip-rule:evenodd"
viewBox="0 0 23 23"
 xmlns:xlink="http://www.w3.org/1999/xlink">
 <defs>
  <style type="text/css">
   <![CDATA[
    .fil0 {fill:#C2DDF6}
   ]]>
  </style>
 </defs>
 <g id="Слой_x0020_1">
  <metadata id="CorelCorpID_0Corel-Layer"/>
  <path class="fil0" d="M11.6877 7.842l-0.2398 0.1199 -0.1199 0.12 -0.12 0.1199 -0.1199 0.12 -0.1199 0.1199c-1.8691,1.869 -0.8711,5.442 1.4392,6.5963l0.1199 0.12 0.1199 0.1199 0.3598 0 0 -0.1199 -0.1199 -0.12c-1.4702,-1.469 -1.7996,-5.036 -0.9595,-6.7162l0.12 -0.2399 0.1199 -0.12 0 -0.2399 -0.2399 0 -0.2399 0.12z"/>
  <path class="fil0" d="M7.1224 9.3412l0.12 -0.12 0.1199 -0.1199c1.1857,-0.5931 1.626,-0.8483 3.1183,-0.5996l0.3598 0.1199 0.2398 0.1199 0.2399 0.12 0.12 0 0.2398 -0.12 0.2399 -0.1199 0.3598 -0.1199 0.7196 -0.12 0.8395 0c5.2556,1.3139 2.4691,8.8752 -2.0389,8.8752l-0.2399 -0.12 -0.3597 0 -0.2399 0.12 -1.1994 0 -0.3597 -0.12c-2.6465,-1.3232 -4.7526,-5.3219 -2.2788,-7.7957zm2.2788 -3.9578l0.1199 -0.3599 0.2398 0 0.12 0.12c0.4622,0.4622 0.7651,0.6906 1.0794,1.3193l0.1199 0.3597 0.12 0.3599 0.1199 0.3598 -0.3598 -0.1199c-0.2491,-0.4984 -0.5956,-1.0775 -1.0794,-1.3193l-0.12 -0.12 -0.2398 -0.1199 -0.2563 -0.0022 0.1364 -0.4775zm6.4764 -0.5997l-0.12 0.2398c-0.7693,1.5387 -2.2284,2.4954 -3.9578,1.919l-0.1199 -0.12 0.1199 -0.3597 0.12 -0.2399c0.8927,-1.7855 2.0914,-1.799 4.0777,-1.799l0 0.12 -0.1199 0.2398zm-15.9512 18.23l23.1472 0 0 -23.0274 -23.1472 0 0 23.0274z"/>
 </g>
</svg>
