<?xml version="1.0" encoding="UTF-8"?>
<!DOCTYPE svg PUBLIC "-//W3C//DTD SVG 1.1//EN" "http://www.w3.org/Graphics/SVG/1.1/DTD/svg11.dtd">
<!-- Creator: CorelDRAW -->
<svg xmlns="http://www.w3.org/2000/svg" xml:space="preserve" width="13mm" height="13mm" style="shape-rendering:geometricPrecision; text-rendering:geometricPrecision; image-rendering:optimizeQuality; fill-rule:evenodd; clip-rule:evenodd"
viewBox="0 0 13 13"
 xmlns:xlink="http://www.w3.org/1999/xlink">
 <defs>
  <style type="text/css">
   <![CDATA[
    .fil1 {fill:#838281}
    .fil0 {fill:#008C00}
   ]]>
  </style>
 </defs>
 <g id="Слой_x0020_1">
  <metadata id="CorelCorpID_0Corel-Layer"/>
  <polygon class="fil0" points="5.6515,3.7451 5.6338,3.8065 5.6599,3.947 5.7213,3.9647 5.7546,3.9876 5.816,4.0053 5.8775,4.023 5.9389,4.0406 5.9722,4.0635 6.0336,4.0812 6.095,4.0989 6.1283,4.1218 6.1898,4.1394 6.2512,4.1571 6.3126,4.1748 6.3459,4.1977 6.4073,4.2154 6.4687,4.233 6.5301,4.2507 6.5635,4.2736 6.6249,4.2913 6.6863,4.309 6.7477,4.3266 6.781,4.3495 6.8424,4.3672 6.9039,4.3849 6.9372,4.4078 6.9986,4.4254 7.06,4.4431 7.1443,4.4275 7.1672,4.3942 7.1901,4.3608 7.2078,4.2994 7.1921,4.2151 7.1588,4.1922 7.1255,4.1693 7.0641,4.1517 7.0027,4.134 6.9693,4.1111 6.9079,4.0934 6.8465,4.0758 6.7851,4.0581 6.7518,4.0352 6.6904,4.0175 6.629,3.9998 6.5675,3.9822 6.5342,3.9593 6.4728,3.9416 6.4114,3.9239 6.3781,3.901 6.3167,3.8833 6.2552,3.8657 6.1938,3.848 6.1605,3.8251 6.0991,3.8074 6.0377,3.7898 5.9763,3.7721 5.943,3.7492 5.8815,3.7315 5.8201,3.7138 5.7587,3.6962 5.7025,3.7066 "/>
  <path class="fil0" d="M5.6031 4.2066l-0.0228 0.0333 -0.0177 0.0614 -0.0177 0.0614 -0.0177 0.0614 -0.0229 0.0334 -0.0176 0.0614 -0.0177 0.0614 -0.0229 0.0333 -0.0177 0.0614 -0.0177 0.0614 -0.0176 0.0614 -0.0229 0.0334 -0.0177 0.0614 -0.0177 0.0614 -0.0176 0.0614 -0.0229 0.0333 -0.0177 0.0614 -0.0177 0.0614 -0.0177 0.0615 -0.0229 0.0333 -0.0176 0.0614 -0.0177 0.0614 -0.0229 0.0333 -0.0177 0.0614 -0.0176 0.0615 -0.0177 0.0614 -0.0229 0.0333 -0.0177 0.0614 0.0261 0.1405 0.0614 0.0177 0.0333 0.0229 0.0614 0.0177 0.0614 0.0176 0.0334 0.0229 0.0614 0.0177 0.0614 0.0177 0.0614 0.0176 0.0333 0.0229 0.0614 0.0177 0.0614 0.0177 0.0615 0.0177 0.0333 0.0229 0.0614 0.0176 0.0614 0.0177 0.0333 0.0229 0.0614 0.0177 0.0614 0.0176 0.0615 0.0177 0.0333 0.0229 0.0614 0.0177 0.0614 0.0177 0.0614 0.0176 0.1124 -0.0208 0.0229 -0.0333 0.0229 -0.0333 0.0177 -0.0615 0.0177 -0.0614 0.0229 -0.0333 0.0176 -0.0614 0.0177 -0.0614 0.0177 -0.0614 0.0229 -0.0333 0.0177 -0.0615 0.0176 -0.0614 0.0177 -0.0614 0.0281 -0.0052 0.0614 0.0177 0.0333 0.0229 0.0615 0.0176 0.0333 0.0229 0.0614 0.0177 0.0333 0.0229 0.0614 0.0177c0.8869,0.4196 2.4636,0.935 2.8493,1.0459l0.0614 0.0176 0.0614 0.0177 0.0333 0.0229 0.0614 0.0177 0.0334 0.0229 0.1405 -0.0261 0.0176 -0.0614 0.0177 -0.0614 0.0229 -0.0333 0.0177 -0.0614 0.0177 -0.0615 0.0228 -0.0333 0.0177 -0.0614 -0.0156 -0.0843 -0.0333 -0.0229 -0.0333 -0.0229 -0.0615 -0.0176 -0.0614 -0.0177 -0.0614 -0.0177 -0.0614 -0.0177 -0.0614 -0.0177 -0.0614 -0.0176 -0.0615 -0.0177c-0.9727,-0.2663 -1.9368,-0.5837 -2.9023,-0.8617l-0.0614 -0.0176 -0.0614 -0.0177 -0.0614 -0.0177 -0.0333 -0.0229 0.0177 -0.0614 0.0228 -0.0333 0.0177 -0.0614 0.0177 -0.0614 0.0177 -0.0615 0.0229 -0.0333 0.0176 -0.0614 0.0177 -0.0614 0.0177 -0.0614 0.0229 -0.0333 0.0177 -0.0615 -0.0209 -0.1124 -0.0333 -0.0229 -0.0614 -0.0176 -0.0614 -0.0177 -0.0615 -0.0177 -0.0333 -0.0229 -0.0614 -0.0176 -0.0614 -0.0177 -0.0614 -0.0177 -0.0333 -0.0229 -0.0614 -0.0177 -0.0615 -0.0176 -0.0333 -0.0229 -0.0614 -0.0177 -0.0614 -0.0177 -0.0614 -0.0177 -0.0333 -0.0228 -0.0614 -0.0177 -0.0615 -0.0177 -0.0614 -0.0177 -0.0333 -0.0229 -0.0614 -0.0176 -0.0614 -0.0177 -0.0333 -0.0229 -0.0615 -0.0177 -0.0843 0.0157 -0.0229 0.0333z"/>
  <polygon class="fil0" points="4.8289,6.0626 4.8112,6.124 4.8321,6.2364 4.8654,6.2593 4.8987,6.2822 4.9601,6.2999 5.0215,6.3176 5.0829,6.3352 5.1163,6.3581 5.1777,6.3758 5.2391,6.3935 5.2724,6.4164 5.3338,6.434 5.3952,6.4517 5.4566,6.4694 5.49,6.4923 5.5514,6.51 5.6128,6.5276 5.6742,6.5453 5.7075,6.5682 5.7689,6.5859 5.8304,6.6035 5.8918,6.6212 5.9251,6.6441 5.9865,6.6618 6.0479,6.6795 6.0812,6.7024 6.1426,6.72 6.2041,6.7377 6.3446,6.7116 6.3675,6.6783 6.3851,6.6169 6.3695,6.5326 6.3362,6.5097 6.3029,6.4868 6.2696,6.4639 6.2081,6.4463 6.1467,6.4286 6.0853,6.4109 6.052,6.388 5.9906,6.3704 5.9292,6.3527 5.8958,6.3298 5.8344,6.3121 5.773,6.2944 5.7116,6.2768 5.6783,6.2539 5.6169,6.2362 5.5555,6.2185 5.494,6.2008 5.4607,6.178 5.3993,6.1603 5.3379,6.1426 5.3046,6.1197 5.2432,6.102 5.1817,6.0844 5.1203,6.0667 5.087,6.0438 5.0256,6.0261 4.9642,6.0084 4.8518,6.0293 "/>
  <path class="fil0" d="M4.0517 8.2479l3.2127 0 0.035 0.0349 0 0.2794 -0.035 0.0349 -3.1778 0 -0.0349 -0.0349 0 -0.3143zm0 -0.5936l0 0.3143 -0.2445 0 -0.0349 0.0349 0 0.8032 0.0349 0.0349 0.0349 0.0349 3.6319 0 0.0698 -0.0349 0.0349 -0.0699 0 -0.7333 -0.0349 -0.0349 -0.0349 -0.0349 -0.2445 0 0 -0.3493 -0.0349 -0.0349 -3.1429 0 -0.0349 0.0699z"/>
  <path id="path14" class="fil1" d="M6.463 0.5097c3.3256,0 6.0216,2.696 6.0216,6.0215 0.0001,3.3254 -2.6959,6.0214 -6.0216,6.0214 -3.3254,0 -6.0214,-2.696 -6.0214,-6.0214 0,-3.3255 2.696,-6.0215 6.0215,-6.0215l-0.0001 0zm0.0062 0.1601c3.2093,0 5.8112,2.6148 5.8112,5.8403 0,3.2251 -2.6018,5.8399 -5.8112,5.8399 -3.2095,0 -5.8114,-2.6148 -5.8114,-5.8399 0,-3.2254 2.6019,-5.8403 5.8115,-5.8403m-0.0001 0l0 0 0 0z"/>
 </g>
</svg>
