<?xml version="1.0" encoding="UTF-8"?>
<!DOCTYPE svg PUBLIC "-//W3C//DTD SVG 1.1//EN" "http://www.w3.org/Graphics/SVG/1.1/DTD/svg11.dtd">
<!-- Creator: CorelDRAW -->
<svg xmlns="http://www.w3.org/2000/svg" xml:space="preserve" width="22mm" height="22mm" style="shape-rendering:geometricPrecision; text-rendering:geometricPrecision; image-rendering:optimizeQuality; fill-rule:evenodd; clip-rule:evenodd"
viewBox="0 0 22 22"
 xmlns:xlink="http://www.w3.org/1999/xlink">
 <defs>
  <style type="text/css">
   <![CDATA[
    .fil2 {fill:#C2C1C1}
    .fil3 {fill:#020202}
    .fil1 {fill:#D4492B}
    .fil0 {fill:#F0917B}
    .fil4 {fill:#00923F;fill-rule:nonzero}
   ]]>
  </style>
 </defs>
 <g id="Слой_x0020_1">
  <metadata id="CorelCorpID_0Corel-Layer"/>
  <g id="_105661672">
   <path id="_105661288" class="fil0" d="M11.0293 0.6997c5.7371,0 10.3896,4.6525 10.3896,10.3896 0,5.7371 -4.6525,10.3896 -10.3896,10.3896 -5.7371,0 -10.3896,-4.6525 -10.3896,-10.3896 0,-5.7371 4.6525,-10.3896 10.3896,-10.3896zm0.1417 0.9445c5.1893,0 9.3978,4.2085 9.3978,9.3979 0,5.1893 -4.2085,9.3978 -9.3978,9.3978 -5.1894,0 -9.3979,-4.2085 -9.3979,-9.3978 0,-5.1894 4.2085,-9.3979 9.3979,-9.3979z"/>
   <path id="_105661408" class="fil1" d="M19.9269 16.5228c-1.8311,2.9592 -5.1056,4.9317 -8.8406,4.9317 -5.7371,0 -10.3896,-4.6525 -10.3896,-10.3896 0,-5.1717 3.7811,-9.4617 8.7289,-10.257 0.0298,0.3237 0.0675,0.6448 0.1124,0.9637 -4.3829,0.7964 -7.7079,4.6338 -7.7079,9.2461 0,5.1893 4.2085,9.3978 9.3979,9.3978 3.3205,0 6.2391,-1.7234 7.9108,-4.324 0.259,0.1496 0.5217,0.2936 0.7881,0.4313z"/>
   <path id="_105661504" class="fil2" d="M14.3998 19.3979c-0.9688,0.3546 -2.0151,0.5488 -3.1067,0.5488 -4.9904,0 -9.0375,-4.0472 -9.0375,-9.0375 0,-1.4349 0.3352,-2.7912 0.9304,-3.9961l0.8839 0.3668c-0.5303,1.0833 -0.8288,2.3006 -0.8288,3.5879 0,4.5138 3.6613,8.175 8.1752,8.175 0.943,0 1.849,-0.1601 2.692,-0.454l0.2915 0.8091z"/>
  </g>
  <g id="_105660856">
   <polygon id="_123130304" class="fil3" points="11.4118,6.5376 11.3484,6.5587 11.306,6.5799 11.2638,6.601 11.2426,6.6222 11.2215,6.6433 11.1792,6.6645 11.1581,6.6856 11.1369,6.7279 11.1157,6.749 11.0946,6.7702 11.0735,6.8125 11.0523,6.8547 11.0312,6.9182 11.0312,7.045 10.3334,7.045 10.2911,7.0662 10.2489,7.0873 10.2277,7.1296 10.2066,7.1719 10.2066,7.9754 10.2277,8.0177 10.2489,8.0599 10.2911,8.0811 10.3334,8.1022 12.8284,8.1022 12.8707,8.0811 12.913,8.0599 12.9341,8.0177 12.9553,7.9754 12.9553,7.1719 12.9341,7.1296 12.913,7.0873 12.8707,7.0662 12.8284,7.045 12.1307,7.045 12.1307,6.9393 12.1095,6.8759 12.0884,6.8336 12.0672,6.7913 12.0461,6.749 12.0249,6.7279 12.0038,6.7067 11.9827,6.6856 11.9615,6.6645 11.9404,6.6433 11.9192,6.6222 11.8769,6.601 11.8558,6.5799 11.8135,6.5587 11.7289,6.5376 11.6021,6.5164 11.5387,6.5164 "/>
   <polygon id="_105661696" class="fil3" points="11.4329,10.4915 13.7799,10.4915 13.7799,10.1532 11.4329,10.1532 "/>
   <polygon id="_105661864" class="fil3" points="10.8832,9.836 10.862,9.8572 10.8409,9.8783 10.8198,9.8995 10.7986,9.9206 10.7775,9.9418 10.7563,9.9629 10.7352,9.984 10.714,10.0052 10.6929,10.0263 10.6717,10.0475 10.6506,10.0686 10.6295,10.0898 10.6083,10.1109 10.5872,10.132 10.566,10.1532 10.5449,10.1743 10.5237,10.1955 10.5026,10.2166 10.4814,10.2378 10.4603,10.2589 10.4392,10.2801 10.418,10.3012 10.3969,10.3223 10.3757,10.3435 10.3546,10.3646 10.3334,10.3858 10.3123,10.4069 10.2911,10.428 10.27,10.4492 10.2489,10.4704 10.2277,10.4915 10.2066,10.5126 10.1854,10.5338 10.1643,10.5549 10.1431,10.5761 10.122,10.5972 10.1009,10.6183 10.0797,10.6395 10.0586,10.6607 10.0374,10.6818 10.0163,10.7029 9.9951,10.7029 9.974,10.6818 9.9528,10.6607 9.9317,10.6395 9.9106,10.6183 9.8894,10.5972 9.8683,10.5761 9.8471,10.5549 9.826,10.5338 9.8049,10.5126 9.7837,10.4915 9.7625,10.4704 9.7414,10.4492 9.7203,10.428 9.6991,10.4069 9.678,10.3858 9.6568,10.3646 9.6357,10.3435 9.6146,10.3223 9.5934,10.3012 9.5722,10.2801 9.5511,10.2589 9.53,10.2378 9.4877,10.2378 9.4665,10.2589 9.4454,10.2801 9.4243,10.3012 9.4031,10.3223 9.3819,10.3435 9.3608,10.3646 9.3397,10.3858 9.3185,10.4069 9.2974,10.428 9.2974,10.4704 9.3185,10.4915 9.3397,10.5126 9.3608,10.5338 9.3819,10.5549 9.4031,10.5761 9.4243,10.5972 9.4454,10.6183 9.4665,10.6395 9.4877,10.6607 9.5088,10.6818 9.53,10.7029 9.5511,10.7241 9.5722,10.7452 9.5934,10.7664 9.6146,10.7875 9.6357,10.8086 9.6568,10.8298 9.678,10.851 9.6991,10.8721 9.7203,10.8932 9.7414,10.9144 9.7625,10.9355 9.7837,10.9567 9.8049,10.9778 9.826,10.9989 9.8471,11.0201 9.8683,11.0412 9.8894,11.0624 9.9106,11.0835 9.9317,11.1047 9.9528,11.1258 9.974,11.1469 10.0374,11.1469 10.0586,11.1258 10.0797,11.1047 10.1009,11.0835 10.122,11.0624 10.1431,11.0412 10.1643,11.0201 10.1854,10.9989 10.2066,10.9778 10.2277,10.9567 10.2489,10.9355 10.27,10.9144 10.2911,10.8932 10.3123,10.8721 10.3334,10.851 10.3546,10.8298 10.3757,10.8086 10.3969,10.7875 10.418,10.7664 10.4392,10.7452 10.4603,10.7241 10.4814,10.7029 10.5026,10.6818 10.5237,10.6607 10.5449,10.6395 10.566,10.6183 10.5872,10.5972 10.6083,10.5761 10.6295,10.5549 10.6506,10.5338 10.6717,10.5126 10.6929,10.4915 10.714,10.4704 10.7352,10.4492 10.7563,10.428 10.7775,10.4069 10.7986,10.3858 10.8198,10.3646 10.8409,10.3435 10.862,10.3223 10.8832,10.3012 10.9043,10.2801 10.9255,10.2589 10.9466,10.2378 10.9678,10.2166 10.9889,10.1955 11.01,10.1743 11.0312,10.1532 11.0523,10.132 11.0735,10.1109 11.0946,10.0898 11.1157,10.0686 11.1369,10.0475 11.1369,10.0052 11.1157,9.984 11.0946,9.9629 11.0735,9.9418 11.0523,9.9206 11.0312,9.8995 11.01,9.8783 10.9889,9.8572 10.9678,9.836 10.9466,9.8149 10.9043,9.8149 "/>
   <polygon id="_105661888" class="fil3" points="11.4329,12.1618 13.7799,12.1618 13.7799,11.8236 11.4329,11.8236 "/>
   <polygon id="_105662176" class="fil3" points="10.8832,11.3372 10.862,11.3584 10.8409,11.3795 10.8198,11.4007 10.7986,11.4218 10.7775,11.443 10.7563,11.4641 10.7352,11.4853 10.714,11.5064 10.6929,11.5275 10.6717,11.5487 10.6506,11.5698 10.6295,11.591 10.6083,11.6121 10.5872,11.6333 10.566,11.6544 10.5449,11.6756 10.5237,11.6967 10.5026,11.7178 10.4814,11.739 10.4603,11.7601 10.4392,11.7813 10.418,11.8024 10.3969,11.8236 10.3757,11.8447 10.3546,11.8658 10.3334,11.887 10.3123,11.9081 10.2911,11.9293 10.27,11.9504 10.2489,11.9715 10.2277,11.9927 10.2066,12.0139 10.1854,12.035 10.1643,12.0561 10.1431,12.0773 10.122,12.0984 10.1009,12.1196 10.0797,12.1407 10.0586,12.1618 10.0374,12.183 10.0163,12.2042 9.9951,12.2042 9.974,12.183 9.9528,12.1618 9.9317,12.1407 9.9106,12.1196 9.8894,12.0984 9.8683,12.0773 9.8471,12.0561 9.826,12.035 9.8049,12.0139 9.7837,11.9927 9.7625,11.9715 9.7414,11.9504 9.7203,11.9293 9.6991,11.9081 9.678,11.887 9.6568,11.8658 9.6357,11.8447 9.6146,11.8236 9.5934,11.8024 9.5722,11.7813 9.5511,11.7601 9.4877,11.7601 9.4665,11.7813 9.4454,11.8024 9.4243,11.8236 9.4031,11.8447 9.3819,11.8658 9.3608,11.887 9.3397,11.9081 9.3185,11.9293 9.2974,11.9504 9.2974,11.9715 9.3185,11.9927 9.3397,12.0139 9.3608,12.035 9.3819,12.0561 9.4031,12.0773 9.4243,12.0984 9.4454,12.1196 9.4665,12.1407 9.4877,12.1618 9.5088,12.183 9.53,12.2042 9.5511,12.2253 9.5722,12.2464 9.5934,12.2676 9.6146,12.2887 9.6357,12.3099 9.6568,12.331 9.678,12.3521 9.6991,12.3733 9.7203,12.3945 9.7414,12.4156 9.7625,12.4367 9.7837,12.4579 9.8049,12.479 9.826,12.5002 9.8471,12.5213 9.8683,12.5424 9.8894,12.5636 9.9106,12.5847 9.9317,12.6059 9.9528,12.627 9.974,12.6482 9.9951,12.6693 10.0163,12.6693 10.0374,12.6482 10.0586,12.627 10.0797,12.6059 10.1009,12.5847 10.122,12.5636 10.1431,12.5424 10.1643,12.5213 10.1854,12.5002 10.2066,12.479 10.2277,12.4579 10.2489,12.4367 10.27,12.4156 10.2911,12.3945 10.3123,12.3733 10.3334,12.3521 10.3546,12.331 10.3757,12.3099 10.3969,12.2887 10.418,12.2676 10.4392,12.2464 10.4603,12.2253 10.4814,12.2042 10.5026,12.183 10.5237,12.1618 10.5449,12.1407 10.566,12.1196 10.5872,12.0984 10.6083,12.0773 10.6295,12.0561 10.6506,12.035 10.6717,12.0139 10.6929,11.9927 10.714,11.9715 10.7352,11.9504 10.7563,11.9293 10.7775,11.9081 10.7986,11.887 10.8198,11.8658 10.8409,11.8447 10.862,11.8236 10.8832,11.8024 10.9043,11.7813 10.9255,11.7601 10.9466,11.739 10.9678,11.7178 10.9889,11.6967 11.01,11.6756 11.0312,11.6544 11.0523,11.6333 11.0735,11.6121 11.0946,11.591 11.1157,11.5698 11.1369,11.5487 11.1369,11.5064 11.1157,11.4853 11.0946,11.4641 11.0735,11.443 11.0523,11.4218 11.0312,11.4007 11.01,11.3795 10.9889,11.3584 10.9678,11.3372 10.9466,11.3161 10.9043,11.3161 "/>
   <path id="_105662296" class="fil3" d="M8.9591 7.4045l0.7612 -0.0211 0 0.74 0.0211 0.1057 0.0211 0.0634 0.0212 0.0423 0.0212 0.0423 0.0211 0.0212 0.0211 0.0211 0.0212 0.0211 0.0211 0.0212 0.0212 0.0211 0.0211 0.0212 0.0423 0.0211 0.0423 0.0212 0.0634 0.0211 0.1057 0.0211 2.791 0 0.1058 -0.0211 0.0634 -0.0211 0.0423 -0.0212 0.0422 -0.0211 0.0212 -0.0212 0.0212 -0.0211 0.0211 -0.0212 0.0211 -0.0211 0.0212 -0.0211 0.0211 -0.0212 0.0212 -0.0423 0.0211 -0.0423 0.0211 -0.0634 0.0212 -0.1057 0 -0.741 0.7612 0.0221 0.0211 6.914 -0.0423 0 -5.2014 0 -0.0424 0 0.0213 -6.914zm-0.148 -0.3172l-0.0212 0.0212 -0.0423 0.0211 -0.0211 0.0211 -0.0211 0.0212 -0.0212 0.0212 -0.0211 0.0422 -0.0212 0.0423 -0.0211 0.0634 0 7.041 0.0211 0.0634 0.0212 0.0423 0.0211 0.0211 0.0212 0.0212 0.0211 0.0211 0.0211 0.0212 0.0212 0.0211 0.0211 0.0211 0.0423 0.0212 0.1057 0.0211 5.286 0 0.1057 -0.0211 0.0423 -0.0212 0.0212 -0.0211 0.0211 -0.0211 0.0212 -0.0212 0.0211 -0.0211 0.0211 -0.0212 0.0212 -0.0211 0.0211 -0.0423 0.0212 -0.0634 0 -7.041 -0.0212 -0.0634 -0.0211 -0.0423 -0.0212 -0.0422 -0.0211 -0.0212 -0.0211 -0.0212 -0.0212 -0.0211 -0.0423 -0.0211 -0.0211 -0.0212 -0.0634 -0.0211 -1.2052 0 0 0.1057 0.0211 0.0846 0 0.8457 -0.0211 0.0635 -0.0212 0.0211 -0.0212 0.0212 -0.0211 0.0211 -0.0634 0.0211 -2.7487 0 -0.0635 -0.0211 -0.0211 -0.0211 -0.0211 -0.0212 -0.0212 -0.0211 -0.0211 -0.0635 0 -0.8457 0.0211 -0.0846 0 -0.1057 -1.2052 0 -0.0634 0.0211z"/>
  </g>
  <polygon class="fil4" points="7.4129,12.7127 7.4129,11.4238 6.1136,11.4238 6.1136,10.5333 7.4129,10.5333 7.4129,9.2444 8.2791,9.2444 8.2791,10.5333 9.582,10.5333 9.582,11.4238 8.2791,11.4238 8.2791,12.7127 "/>
 </g>
</svg>
