<?xml version="1.0" encoding="UTF-8"?>
<!DOCTYPE svg PUBLIC "-//W3C//DTD SVG 1.1//EN" "http://www.w3.org/Graphics/SVG/1.1/DTD/svg11.dtd">
<!-- Creator: CorelDRAW -->
<svg xmlns="http://www.w3.org/2000/svg" xml:space="preserve" width="23mm" height="23mm" style="shape-rendering:geometricPrecision; text-rendering:geometricPrecision; image-rendering:optimizeQuality; fill-rule:evenodd; clip-rule:evenodd"
viewBox="0 0 23 23"
 xmlns:xlink="http://www.w3.org/1999/xlink">
 <defs>
  <style type="text/css">
   <![CDATA[
    .fil2 {fill:#C2C1C1}
    .fil4 {fill:black}
    .fil3 {fill:#008C00}
    .fil1 {fill:#D4492B}
    .fil0 {fill:#F0917B}
   ]]>
  </style>
 </defs>
 <g id="Слой_x0020_1">
  <metadata id="CorelCorpID_0Corel-Layer"/>
  <g id="_132203168">
   <path id="_134155520" class="fil0" d="M11.6426 0.9132c5.7371,0 10.3896,4.6525 10.3896,10.3896 0,5.7371 -4.6525,10.3896 -10.3896,10.3896 -5.7371,0 -10.3896,-4.6525 -10.3896,-10.3896 0,-5.7371 4.6525,-10.3896 10.3896,-10.3896zm0.1417 0.9445c5.1893,0 9.3978,4.2085 9.3978,9.3979 0,5.1893 -4.2085,9.3978 -9.3978,9.3978 -5.1894,0 -9.3979,-4.2085 -9.3979,-9.3978 0,-5.1894 4.2085,-9.3979 9.3979,-9.3979z"/>
   <path id="_132175352" class="fil1" d="M20.5402 16.7363c-1.8311,2.9592 -5.1056,4.9317 -8.8406,4.9317 -5.7371,0 -10.3896,-4.6525 -10.3896,-10.3896 0,-5.1717 3.7811,-9.4617 8.7289,-10.257 0.0298,0.3237 0.0675,0.6448 0.1124,0.9637 -4.3829,0.7964 -7.7079,4.6338 -7.7079,9.2461 0,5.1893 4.2085,9.3978 9.3979,9.3978 3.3205,0 6.2391,-1.7234 7.9108,-4.324 0.259,0.1496 0.5217,0.2936 0.7881,0.4313z"/>
   <path id="_321449096" class="fil2" d="M15.0131 19.6114c-0.9688,0.3546 -2.0151,0.5488 -3.1067,0.5488 -4.9904,0 -9.0375,-4.0472 -9.0375,-9.0375 0,-1.4349 0.3352,-2.7912 0.9304,-3.9961l0.8839 0.3668c-0.5303,1.0833 -0.8288,2.3006 -0.8288,3.5879 0,4.5138 3.6613,8.175 8.1752,8.175 0.943,0 1.849,-0.1601 2.692,-0.454l0.2915 0.8091z"/>
  </g>
  <path class="fil3" d="M11.0519 8.512l-0.0299 0 -0.03 0.0299 -0.0299 0 -0.1197 0.1196 0 0.03 -0.0299 0.0299 0 0.0299 -0.0299 0.0299 0 0.2693c-0.0299,0.0299 -0.0192,0.0299 -0.0598,0.0299l-0.0599 0.0599c-0.0367,0.0264 -0.0314,0.0015 -0.0898,0.0598 -0.0622,0.0622 -0.0573,0.0873 -0.1196,0.1496 -0.0587,0.0587 -0.0337,0.0534 -0.0598,0.0898l-0.03 0.0299 -0.0299 0 -0.0299 -0.0299 0 -0.03 -0.0898 -0.0897c0,-0.0407 0,-0.03 -0.0299,-0.0599 -0.0718,-0.0717 -0.018,-0.0479 -0.0898,-0.1196 -0.0715,-0.0716 -0.0182,-0.0481 -0.0897,-0.1197 -0.0299,-0.0299 -0.0299,-0.0192 -0.0299,-0.0599l-0.0599 -0.0598 -0.0299 0 -0.0299 -0.0299 -0.1197 0 -0.0898 0.0897 0 0.1496c0,0.0407 0.0001,0.03 0.03,0.0599l0.0598 0.0598 0 0.0299 0.0898 0.0898 0 0.0299 0.0598 0.0599c0.0265,0.0367 0.0014,0.0312 0.0598,0.0897l0.03 0.0299 0 0.0299 0.0897 0.0898c0.0263,0.0364 0.0012,0.031 0.0599,0.0898 0.0299,0.0299 0.0299,0.0192 0.0299,0.0598l0.0299 0.0299 0 0.0898 -0.0299 0.0299 0 0.0598 -0.0299 0.0599 0 0.1496 -0.03 0.0299 -0.1795 0 -0.8078 0.8078 0 0.1496 0.0898 0.0898 0.1495 0 0.0898 -0.0898 0.6283 -0.5984 0.0299 0 0.03 0.0299 0 0.1197 0.0299 0.0599c0.0063,0.0268 -0.0064,0.0629 0,0.0897l0.0299 0.0599 0 0.0598 -0.0598 0.0599 0 0.0299 -0.0898 0.0897c0,0.0407 0,0.03 -0.0299,0.0599 -0.0719,0.0719 -0.0179,0.0478 -0.0898,0.1197 -0.0587,0.0587 -0.0336,0.0533 -0.0598,0.0897l-0.0299 0.0299c-0.0263,0.0364 -0.0012,0.0311 -0.0599,0.0898l-0.0598 0.0598 0 0.03 -0.0599 0.0598 0 0.1795 0.0898 0.0898 0.1197 0 0.1795 -0.1796 0 -0.0299 0.0898 -0.0897c0,-0.0407 0,-0.03 0.0299,-0.0599l0.0598 -0.0598 0 -0.0299 0.0598 -0.0599 0.03 -0.0598 0.0299 -0.0299 0.0299 0 0.0598 0.0598 0 0.0299 0.2993 0.2992 0.0299 0 0.0299 0.0299 0.0299 0 0.0299 0.03 0.03 0 0.0299 0.0299 0.0598 0 0.0299 0.0299 0.0599 0 0.1197 0.0299 0.0897 0c0.0521,-0.0064 0.0884,-0.0299 0.1496,-0.0299l0.0598 0 0.03 -0.0299 0.0299 0 0.0299 -0.0299 0.0598 0 0.0599 -0.0599 0.0299 0 0.2992 -0.2992 0 -0.0299 0.0598 -0.0598 0.03 0 0.0598 0.0598 0 0.0299 0.0598 0.0599c0.0265,0.0366 0.0016,0.0314 0.0599,0.0897l0.0299 0.03c0,0.0406 0,0.0299 0.0299,0.0598l0.0599 0.0598 0 0.0299c0.0057,0.014 0.0839,0.0759 0.0897,0.0898l0 0.0299c0.0504,0.0504 0.0209,0.0207 0.0598,0.0299l0.0599 0.03 0.0598 0 0.0299 -0.03 0.03 0 0.0598 -0.0598 0 -0.1795 -0.0598 -0.0598 0 -0.03 -0.0898 -0.0897 0 -0.0299 -0.0598 -0.0599c-0.0264,-0.0366 -0.0014,-0.0313 -0.0599,-0.0897 -0.072,-0.0721 -0.0177,-0.0477 -0.0897,-0.1197 -0.0718,-0.0718 -0.0179,-0.0479 -0.0898,-0.1197l-0.0299 -0.0299 0 -0.0299 -0.0598 -0.0599 0 -0.0598 0.0299 -0.0299c0.0052,-0.0127 -0.0033,-0.0696 0,-0.0898l0.0299 -0.0898 0 -0.0897 0.0299 -0.0599 0.0299 0 0.389 0.3591 0.3291 0.3291 0.1496 0 0.0898 -0.0898 0 -0.1496 -0.8079 -0.8078 -0.1795 0 -0.0299 -0.0299 0 -0.1197c-0.0068,-0.0416 -0.0299,-0.0545 -0.0299,-0.1197l0 -0.0299 -0.0299 -0.0299 0 -0.0898c0.0715,-0.0716 0.0181,-0.0481 0.0897,-0.1197l0.0299 -0.0299 0 -0.0299 0.0898 -0.0898c0,-0.0406 0,-0.0299 0.0299,-0.0598 0.0718,-0.0718 0.018,-0.0479 0.0898,-0.1197 0.0718,-0.0718 0.0178,-0.0477 0.0897,-0.1196 0.0299,-0.0299 0.0299,-0.0193 0.0299,-0.0599l0.0898 -0.0897 0 -0.1796 -0.0898 -0.0897 -0.1196 0 -0.03 0.0299 -0.0299 0 -0.0299 0.0299c-0.0262,0.0364 -0.0011,0.0311 -0.0598,0.0898l-0.0599 0.0598 0 0.0299 -0.0598 0.0599c-0.0265,0.0368 -0.0015,0.0314 -0.0598,0.0897l-0.03 0.03 0 0.0299 -0.0897 0.0897 0 0.03 -0.0299 0.0299 -0.03 0 -0.0299 -0.0299 0 -0.03 -0.0598 -0.0598c-0.0339,-0.0391 -0.103,-0.146 -0.1496,-0.1795 -0.0369,-0.0266 -0.0315,-0.0015 -0.0898,-0.0599l-0.0299 -0.0299c-0.0407,0 -0.0299,0 -0.0598,-0.0299l0 -0.2693 -0.03 -0.0299c0,-0.0669 0.0091,-0.0508 -0.0299,-0.0898l-0.1197 -0.1196 -0.0299 0 -0.0299 -0.0299 -0.0598 0 -0.0299 -0.03 -0.2095 0 -0.0598 0.03z"/>
  <path class="fil4" d="M11.2256 6.8642c1.947,0 3.5259,1.5762 3.5259,3.5197 0,1.9436 -1.5789,3.5198 -3.5259,3.5198 -1.947,0 -3.5259,-1.5762 -3.5259,-3.5198 0,-1.9435 1.5789,-3.5197 3.5259,-3.5197zm3.6677 6.0541l0 0.0294 -0.0592 0.0592 0 0.0296 -0.0886 0.0887c-0.0243,0.0338 -0.0006,0.0301 -0.0591,0.0887l-0.0591 0.0591c-0.0347,0.0424 -0.0269,0.0566 -0.0889,0.1184l-0.3548 0.3548c-0.0421,0.0345 -0.0565,0.0269 -0.1183,0.0887l-0.0886 0.0887 -0.0296 0 -0.0887 0.0886 -0.0296 0 -0.0592 0.0592 -0.0294 0 -0.0297 0.0297 0 0.0593 1.863 1.8628 0.0296 0 0.0591 0.0592 0.0297 0 0.0296 0.0296 0.0296 0 0.0295 0.0294 0.0887 0 0.0295 0.0297c0.0674,0 0.1017,0.0238 0.1479,0.0295l0.1182 0 0.1478 -0.0295 0.0295 0 0.0594 -0.0297 0.0589 0 0.0297 -0.0294 0.0295 0 0.0297 -0.0296c0.0376,0 0.023,0.0064 0.0591,-0.0298 0.0724,-0.0722 0.0459,-0.0162 0.1183,-0.0886l0.1183 -0.1183 0 -0.0294 0.0592 -0.0593 0 -0.0295 0.0296 -0.0297 0 -0.0295 0.0294 -0.0297 0 -0.0589 0.0297 -0.0594 0 -0.0295 0.0295 -0.1478 0 -0.1182c-0.0057,-0.0462 -0.0295,-0.0805 -0.0295,-0.1479l-0.0297 -0.0295 0 -0.0887 -0.0294 -0.0295 0 -0.0296 -0.0296 -0.0296 0 -0.0297 -0.0592 -0.0591c0,-0.0376 0.0064,-0.0231 -0.0295,-0.0591l-1.8333 -1.8335 -0.0593 0 -0.0297 0.0297zm-4.14 -6.6833l-0.0887 0 -0.0295 0.0297 -0.148 0c-0.0411,0.0065 -0.0537,0.0294 -0.1182,0.0294l-0.0295 0 -0.0591 0.0296c-0.0267,0.0064 -0.0623,-0.0062 -0.0888,0l-0.0592 0.0298 -0.0295 0 -0.0592 0.0294c-0.0196,0.0047 -0.0746,-0.0057 -0.0886,0l-0.0295 0.0295 -0.0592 0 -0.0297 0.0297 -0.059 0 -0.0296 0.0295 -0.0296 0 -0.0295 0.0296 -0.0591 0 -0.0297 0.0296 -0.0294 0 -0.0299 0.0296 -0.059 0 -0.0295 0.0294 -0.0297 0 -0.0295 0.0297 -0.0296 0 -0.0295 0.0296 -0.0296 0 -0.0296 0.0295 -0.0295 0 -0.0295 0.0297 -0.0297 0 -0.0295 0.0295 -0.0297 0 -0.0593 0.0592 -0.0293 0 -0.0296 0.0294 -0.0296 0 -0.0591 0.0594 -0.0297 0 -0.0591 0.059 -0.0295 0 -0.0591 0.0591 -0.0297 0 -0.0887 0.0888c-0.0445,0.0364 -0.0639,0.0344 -0.1183,0.0886l-0.0888 0.0888c-0.0492,0.0427 -0.0985,0.0689 -0.1478,0.1182l-0.0887 0.0886c-0.0425,0.0492 -0.0692,0.0991 -0.1183,0.148l-0.0886 0.0887c-0.0364,0.0446 -0.0346,0.0642 -0.0887,0.1183 -0.0709,0.0708 -0.018,0.0476 -0.0887,0.1182l-0.0296 0.0297c0,0.0401 0,0.0295 -0.0295,0.0591l-0.0295 0.0295 0 0.0297 -0.0594 0.0591 0 0.0296 -0.0294 0.0296 0 0.0293 -0.0592 0.0593 0 0.0297 -0.0295 0.0295 0 0.0297 -0.0297 0.0295 0 0.0295 -0.0295 0.0296 0 0.0296 -0.0296 0.0295 0 0.0296 -0.0297 0.0295 0 0.0297 -0.0294 0.0295 0 0.059 -0.0296 0.0299 0 0.0294 -0.0296 0.0297 0 0.0591 -0.0296 0.0295 0 0.0296 -0.0295 0.0296 0 0.059 -0.0297 0.0297 0 0.0592 -0.0295 0.0295c-0.0057,0.014 0.0047,0.069 0,0.0886l-0.0294 0.0592 0 0.0592 -0.0298 0.0295 0 0.0888 -0.0296 0.0591 0 0.0295 -0.0294 0.1182 0 0.148 -0.0297 0.0295 0 0.1183 -0.0295 0.2664 0 0.325 0.0295 0.2071 0 0.1479 0.0297 0.1183 0 0.0294 0.0294 0.0593c0.0065,0.0272 -0.0064,0.0909 0,0.1182l0.0296 0.0591 0 0.0593 0.0298 0.0589 0 0.0592 0.0294 0.0591 0 0.0591 0.0295 0.0297 0 0.0591 0.0297 0.0297 0 0.0592 0.0295 0.0295 0 0.0592 0.0296 0.0296 0 0.0295 0.0296 0.0295 0 0.0591 0.0296 0.0296 0 0.0296 0.0294 0.0296 0 0.0297 0.0297 0.0294 0 0.0294 0.0296 0.0299 0 0.0294 0.0295 0.0296 0 0.0296 0.0297 0.0296 0 0.0295 0.0295 0.0296 0 0.0296 0.0592 0.0592 0 0.0295 0.0294 0.0295 0 0.0297 0.0594 0.0591 0 0.0296 0.059 0.0591 0 0.0297 0.0591 0.059 0 0.0296 0.0888 0.0888c0.0259,0.0361 0.001,0.0306 0.0591,0.0886l0.0886 0.0888c0.0516,0.0575 0.0933,0.1226 0.1479,0.1773l0.0886 0.0887c0.0576,0.0516 0.1229,0.0932 0.1776,0.1479l0.0888 0.0886 0.0295 0c0.0157,0.0158 0.1081,0.1142 0.1182,0.1183l0.0297 0 0.0591 0.0592 0.0295 0 0.0591 0.0592 0.0297 0 0.0591 0.0591 0.0296 0 0.0296 0.0296 0.0293 0 0.0593 0.0591 0.0297 0 0.0295 0.0295 0.0297 0 0.0295 0.0297 0.0295 0 0.0296 0.0295 0.0296 0 0.0295 0.0297 0.0296 0 0.0295 0.0295 0.0297 0 0.0295 0.0298 0.0297 0 0.0293 0.0293 0.0593 0 0.0297 0.0296 0.0295 0 0.0296 0.0296 0.0591 0 0.0296 0.0296 0.059 0 0.0297 0.0295 0.0592 0 0.0295 0.0297 0.0591 0 0.0591 0.0295c0.0265,0.0062 0.0623,-0.0063 0.0888,0l0.0591 0.0296 0.0592 0 0.0294 0.0295c0.0129,0.0052 0.0717,-0.0041 0.0888,0l0.0591 0.0297c0.0263,0.0062 0.1514,-0.0062 0.1775,0l0.0592 0.0294 0.9464 0c0.0608,0 0.0963,-0.0232 0.1477,-0.0294 0.0287,-0.0037 0.0955,0.0052 0.1184,0l0.059 -0.0297c0.0265,-0.0062 0.0622,0.0064 0.0887,0l0.0591 -0.0295 0.0887 0 0.0592 -0.0296 0.0295 0 0.0591 -0.0295 0.0591 0 0.0297 -0.0297 0.0591 0 0.0297 -0.0295 0.0592 0 0.0295 -0.0296 0.0592 0 0.0296 -0.0296 0.0295 0 0.0295 -0.0296 0.0591 0 0.0296 -0.0293 0.0296 0 0.0296 -0.0298 0.0297 0 0.0294 -0.0295 0.0294 0 0.0299 -0.0297 0.0294 0 0.0296 -0.0295 0.0296 0 0.0296 -0.0297 0.0295 0 0.0296 -0.0295 0.0296 0 0.0296 -0.0295 0.0296 0 0.059 -0.0592 0.0297 0 0.0591 -0.0591c0.0402,0 0.0296,0 0.0591,-0.0295l0.0296 -0.0297c0.0402,0 0.0297,0 0.0592,-0.0295l0.0295 -0.0297 0.0296 0 0.0888 -0.0886c0.0361,-0.0262 0.0306,-0.0011 0.0886,-0.0592l0.0888 -0.0887c0.0446,-0.0365 0.064,-0.0345 0.1182,-0.0886l0.207 -0.207c0.0364,-0.0444 0.0349,-0.0645 0.0887,-0.1184l0.0886 -0.0886c0.0261,-0.0361 0.0014,-0.0309 0.0591,-0.0888l0.0592 -0.0591 0 -0.0296 0.0592 -0.059 0 -0.0297 0.0592 -0.0591 0 -0.0296 0.0591 -0.0591c0,-0.0403 0,-0.0297 0.0296,-0.0592l0.0296 -0.0295 0 -0.0296 0.0295 -0.0296 0 -0.0296 0.0295 -0.0296 0 -0.0295 0.0297 -0.0296 0 -0.0296 0.0295 -0.0296 0 -0.0294 0.0297 -0.0299 0 -0.0294 0.0295 -0.0294 0 -0.0297 0.0298 -0.0296 0 -0.0296 0.0293 -0.0296 0 -0.0591 0.0296 -0.0295 0 -0.0295 0.0296 -0.0296 0 -0.0592 0.0296 -0.0295 0 -0.0592 0.0295 -0.0297 0 -0.0591 0.0297 -0.0297 0 -0.0591 0.0295 -0.0591 0 -0.0295 0.0296 -0.0592c0.0063,-0.0264 -0.0063,-0.0621 0,-0.0887l0.0295 -0.0591c0.0045,-0.0188 -0.0044,-0.0403 0,-0.0591l0.0297 -0.0591c0.0063,-0.0274 -0.0065,-0.1798 0,-0.207l0.0294 -0.0592 0 -0.9758 -0.0294 -0.0592c-0.0061,-0.0252 0.0052,-0.1153 0,-0.148l-0.0297 -0.0886c-0.0024,-0.0165 0.0047,-0.0775 0,-0.0888l-0.0295 -0.0294c-0.0054,-0.0131 0.0048,-0.0979 0,-0.1183l-0.0296 -0.0592 0 -0.0296 -0.0295 -0.0591 0 -0.0591 -0.0297 -0.0295 0 -0.0592 -0.0295 -0.0297 0 -0.059 -0.0296 -0.0296 0 -0.0591 -0.0296 -0.0296 0 -0.0295 -0.0296 -0.0297 0 -0.0593 -0.0293 -0.0293 0 -0.0297 -0.0298 -0.0295 0 -0.0297 -0.0295 -0.0295 0 -0.0296 -0.0297 -0.0295 0 -0.0296 -0.0295 -0.0296 0 -0.0295 -0.0297 -0.0295 0 -0.0297 -0.0295 -0.0295 0 -0.0297 -0.0295 -0.0295 0 -0.0298 -0.0592 -0.0589 0 -0.0296 -0.0591 -0.0591 0 -0.0297 -0.0592 -0.0591c0,-0.0402 0,-0.0295 -0.0295,-0.0592l-0.0297 -0.0294c0,-0.0403 0,-0.0297 -0.0293,-0.0592 -0.019,-0.0188 -0.0437,-0.0375 -0.0593,-0.0592 -0.0262,-0.0362 -0.0011,-0.0307 -0.0592,-0.0887l-0.0887 -0.0887c-0.0425,-0.0489 -0.0695,-0.0992 -0.1183,-0.148l-0.1478 -0.1477c-0.0492,-0.0427 -0.0985,-0.069 -0.1479,-0.1182l-0.0886 -0.0887c-0.0361,-0.026 -0.0305,-0.0012 -0.0888,-0.0592l-0.0591 -0.0592 -0.0296 0 -0.059 -0.0591c-0.0403,0 -0.0297,0 -0.0593,-0.0295l-0.0295 -0.0295c-0.0402,0 -0.0296,0 -0.0592,-0.0296l-0.0295 -0.0298c-0.0507,0 -0.0243,-0.0043 -0.0592,-0.0294 -0.0364,-0.0262 -0.0309,-0.0015 -0.0887,-0.0592l-0.0296 0 -0.0296 -0.0295 -0.0295 0 -0.0296 -0.0297 -0.0296 0 -0.0296 -0.0295 -0.0294 0 -0.0299 -0.0296 -0.0294 0 -0.0294 -0.0297 -0.0297 0 -0.0296 -0.0294 -0.0296 0 -0.0296 -0.0296 -0.0591 0 -0.0295 -0.0296 -0.0591 0 -0.0298 -0.0296 -0.0294 0 -0.0295 -0.0295 -0.0592 0 -0.0297 -0.0297 -0.0591 0 -0.0297 -0.0295 -0.0591 0 -0.0591 -0.0294 -0.0592 0 -0.0589 -0.0298 -0.0593 0 -0.0591 -0.0296c-0.0236,-0.0055 -0.0634,0.0042 -0.0887,0l-0.0888 -0.0294 -0.0294 0 -0.1183 -0.0297 -0.1479 0 -0.2662 -0.0295 -0.2659 0c-0.0441,0.0525 -0.2038,0.0295 -0.296,0.0295z"/>
 </g>
</svg>
