<?xml version="1.0" encoding="UTF-8"?>
<!DOCTYPE svg PUBLIC "-//W3C//DTD SVG 1.1//EN" "http://www.w3.org/Graphics/SVG/1.1/DTD/svg11.dtd">
<!-- Creator: CorelDRAW -->
<svg xmlns="http://www.w3.org/2000/svg" xml:space="preserve" width="23mm" height="23mm" style="shape-rendering:geometricPrecision; text-rendering:geometricPrecision; image-rendering:optimizeQuality; fill-rule:evenodd; clip-rule:evenodd"
viewBox="0 0 23 23"
 xmlns:xlink="http://www.w3.org/1999/xlink">
 <defs>
  <style type="text/css">
   <![CDATA[
    .fil3 {fill:#383431}
    .fil2 {fill:#C2C1C1}
    .fil1 {fill:#D4492B}
    .fil0 {fill:#F0917B}
    .fil4 {fill:#008C00;fill-rule:nonzero}
   ]]>
  </style>
 </defs>
 <g id="Слой_x0020_1">
  <metadata id="CorelCorpID_0Corel-Layer"/>
  <g id="_132205088">
   <path id="_134140688" class="fil0" d="M11.6981 1.5066c5.7371,0 10.3896,4.6525 10.3896,10.3896 0,5.7371 -4.6525,10.3896 -10.3896,10.3896 -5.7371,0 -10.3896,-4.6525 -10.3896,-10.3896 0,-5.7371 4.6525,-10.3896 10.3896,-10.3896zm0.1417 0.9445c5.1893,0 9.3978,4.2085 9.3978,9.3979 0,5.1893 -4.2085,9.3978 -9.3978,9.3978 -5.1894,0 -9.3979,-4.2085 -9.3979,-9.3978 0,-5.1894 4.2085,-9.3979 9.3979,-9.3979z"/>
   <path id="_134156648" class="fil1" d="M20.5957 17.3297c-1.8311,2.9592 -5.1056,4.9317 -8.8406,4.9317 -5.7371,0 -10.3896,-4.6525 -10.3896,-10.3896 0,-5.1717 3.7811,-9.4617 8.7289,-10.257 0.0298,0.3237 0.0675,0.6448 0.1124,0.9637 -4.3829,0.7964 -7.7079,4.6338 -7.7079,9.2461 0,5.1893 4.2085,9.3978 9.3979,9.3978 3.3205,0 6.2391,-1.7234 7.9108,-4.324 0.259,0.1496 0.5217,0.2936 0.7881,0.4313z"/>
   <path id="_132203528" class="fil2" d="M15.0686 20.2048c-0.9688,0.3546 -2.0151,0.5488 -3.1067,0.5488 -4.9904,0 -9.0375,-4.0472 -9.0375,-9.0375 0,-1.4349 0.3352,-2.7912 0.9304,-3.9961l0.8839 0.3668c-0.5303,1.0833 -0.8288,2.3006 -0.8288,3.5879 0,4.5138 3.6613,8.175 8.1752,8.175 0.943,0 1.849,-0.1601 2.692,-0.454l0.2915 0.8091z"/>
  </g>
  <path class="fil3" d="M8.6208 8.3965c0.8235,0.2106 1.069,0.947 2.4111,0.947 0.5951,0 1.06,-0.1953 1.5661,-0.3133l0.3359 0.4511 -0.2192 1.1085c0.2731,-0.361 0.3532,-0.7866 0.3532,-1.4029l0 -0.4699c0,-0.7548 -2.3496,-1.7227 -2.9756,-1.7227l-0.1566 0c-0.7731,0 -1.2523,0.6278 -1.5661,1.0963l0 1.4095 0.1228 -0.004 0.1284 -1.0996zm1.8135 6.9157l-0.3132 0 -0.5226 -2.3606c-1.1341,-0.0061 -1.5421,0.4276 -1.5421,1.5599l0 1.4095 5.6379 0 -0.3509 -2.6583c-0.245,-0.1933 -0.2377,-0.3172 -0.5888,-0.3172l-1.0962 0 -0.3726 2.3391 -0.2539 0.01 -0.3329 -1.5933 0.167 -0.3491 -0.2967 -0.2713 -0.2265 0.3119 0.1889 0.3092 -0.0974 1.6102z"/>
  <polygon class="fil4" points="14.4892,8.7633 14.4892,7.5297 13.2456,7.5297 13.2456,6.6773 14.4892,6.6773 14.4892,5.4436 15.3183,5.4436 15.3183,6.6773 16.5653,6.6773 16.5653,7.5297 15.3183,7.5297 15.3183,8.7633 "/>
 </g>
</svg>
