<?xml version="1.0" encoding="UTF-8"?>
<!DOCTYPE svg PUBLIC "-//W3C//DTD SVG 1.1//EN" "http://www.w3.org/Graphics/SVG/1.1/DTD/svg11.dtd">
<!-- Creator: CorelDRAW -->
<svg xmlns="http://www.w3.org/2000/svg" xml:space="preserve" width="15mm" height="15mm" style="shape-rendering:geometricPrecision; text-rendering:geometricPrecision; image-rendering:optimizeQuality; fill-rule:evenodd; clip-rule:evenodd"
viewBox="0 0 15 15"
 xmlns:xlink="http://www.w3.org/1999/xlink">
 <defs>
  <style type="text/css">
   <![CDATA[
    .fil0 {fill:white}
   ]]>
  </style>
 </defs>
 <g id="Слой_x0020_1">
  <metadata id="CorelCorpID_0Corel-Layer"/>
  <path class="fil0" d="M10.0388 2.2977c0.2566,0.223 0.5784,0.5426 1.0365,0.5528 1.1049,0.5847 2.4184,2.7055 2.4184,4.4223l0 1.0365c0,0.3053 -0.1382,0.2472 -0.1382,0.7601l-0.2724 0.0841 -0.004 0.2614c0,0.7783 -1.0813,1.894 -1.4649,2.4045 -0.4042,0.5381 -0.428,0.564 -1.0234,0.9113 -0.2454,0.1431 -1.2273,0.4129 -1.312,0.6227l-0.2764 0 -1.1747 0.0208 -0.2073 -0.0208c-0.0829,0.2055 -0.3433,0.2073 -0.6219,0.2073 -0.2903,0 -1.8102,-0.5186 -2.1164,-0.6474 -0.4657,-0.1959 -1.3025,-0.7933 -1.6334,-1.1306 -0.5571,-0.5679 -1.7089,-2.6834 -1.7089,-3.7498l0 -0.4837c0,-0.7748 0.2655,-1.9361 0.6026,-2.3686 0.4062,-0.5213 0.6996,-1.2786 1.1939,-1.7082l0.1242 -0.0135 0.4286 -0.4702c0.5316,-0.356 1.0838,-0.3975 1.5889,-0.6913 0.4302,-0.2504 0.9086,-0.6215 1.5896,-0.6215 0.5464,0 1.0162,0.1132 1.661,0.1355 0.8259,0.0287 0.8492,0.3632 1.3102,0.4863zm-8.2226 1.5893l-0.4837 0.4837c0,0.5192 -0.2714,1.4104 -0.4837,1.7274l-0.0818 0.0047 0.1821 3.176 0.072 -0.0166 0.9332 2.0183 0 0.1382c0.1343,0.2537 0.2534,0.2763 0.2764,0.5528l0.2073 0 0.2073 0.4146c0.5538,-0.1173 1.4527,1.3128 1.8657,1.3128l0.3455 0c0.0965,0.2667 1.9258,0.5528 2.4184,0.5528l0.2853 0.061 2.2022 -0.3374 0.2073 0c0.1194,-0.3298 0.5942,-0.247 0.9139,-0.399 0.1797,-0.0854 0.6116,-0.4135 0.7602,-0.5526 0.2267,-0.2123 0.2395,-0.095 0.3833,-0.2387 0.0844,-0.0843 0.1099,-0.2466 0.2541,-0.4368 0.1991,-0.2625 0.4587,-0.5558 0.5928,-0.7891 0.7026,-1.2229 1.3107,-2.035 1.3107,-4.0099 0,-1.1208 -0.3352,-1.7418 -0.5528,-2.5566l0.0945 -0.3578 -0.5782 -1.0933 -0.1359 0.0676 -0.2095 -0.344 -0.1382 0c-0.2499,-0.0667 -0.8908,-0.7824 -1.2023,-1.0089 -0.423,-0.3077 -0.9485,-0.6059 -1.4561,-0.8241 -1.2073,-0.519 -2.4551,-0.4472 -3.906,-0.4472 -0.4588,0.3073 -0.606,0.2449 -1.1346,0.4546 -0.3867,0.1534 -0.7415,0.3796 -1.0628,0.5956 -0.4869,0.3274 -1.4425,1.0603 -1.7412,1.5064l-0.127 0.0073 -0.2184 0.3382zm4.0767 6.4261l0.075 -1.0363 0.2705 -0.0002 0.0691 1.0365 0.6875 0.1558 0.0035 -0.6395c0,-0.5612 -0.091,-0.9865 -0.0727,-1.4541 0.0137,-0.3514 0.2109,-0.8084 0.2109,-1.3098 0.1548,-0.1036 0.2428,-0.2764 0.4146,-0.2764 0.0517,0 0.5528,0.3946 0.5528,0.6219 0,0.3996 -0.299,1.1683 -0.3455,1.7275l0.2764 0 0 0.4836c0,0.2401 0.1382,0.1055 0.1382,0.3455l0 0.3455 0.6219 0 0 -1.1746 0.3455 0 0 1.1746 0.4145 0c0.2427,0 0.2764,-0.3066 0.2764,-0.5528l0 -0.6218 0.3455 0 0 -0.1382 0.1382 0 -0.5145 -1.6477 1.0346 -1.0809 -0.546 -0.4416 -0.0432 0.0607c-0.0658,0.182 -0.616,0.7601 -0.8292,0.7601l-0.4836 0 -0.6207 -0.0774c-0.0812,-0.3351 -0.4748,-0.6827 -0.8304,-0.6827 -0.0786,0 -0.8496,0.785 -0.8983,0.9674l-0.9674 0 0.0505 -0.0516 -0.9788 -0.9557c-0.1596,0.1207 -0.3845,0.2636 -0.3845,0.4545 0,0.132 0.8392,0.476 0.8957,2.0065 0.0154,0.4198 0.0743,0.8389 0.0716,1.3794 -0.0025,0.501 0.0202,1.0036 0.6219,0.6218zm-0.6218 -4.7678c0,0.4038 0.3563,0.7601 0.76,0.7601l0.1382 0c0.3841,0 0.8087,-0.4065 0.7728,-0.7618l-0.0818 -0.6892c-0.1424,-0.0954 -0.1794,-0.2073 -0.3455,-0.2073l-0.7601 0c-0.1278,0.3532 -0.4836,0.1326 -0.4836,0.8982zm2.9712 -0.5527c-0.1247,-0.0835 -0.1215,-0.1382 -0.2764,-0.1382l-0.0691 0c-0.3411,0 -0.5526,0.2769 -0.691,0.4837 0.0843,0.0473 0.0739,0.0691 0.2073,0.0691 0.3493,0 0.367,-0.1113 0.691,-0.1382l0 0.2073c0,0.3723 0.3722,0.8291 0.7601,0.8291l0.1382 0c0.429,0 0.5863,-0.2933 0.76,-0.5527l0 -0.5528c0.1529,0.0809 0.3372,0.2073 0.5528,0.2073l0.3455 0c-0.0233,-0.2797 -0.3461,-0.5528 -0.5528,-0.5528l-0.2073 0c-0.1549,0 -0.1517,0.0547 -0.2763,0.1382 -0.2247,-0.1505 -0.3041,-0.3455 -0.691,-0.3455 -0.3252,0 -0.4951,0.2143 -0.691,0.3455z"/>
 </g>
</svg>
