<?xml version="1.0" encoding="UTF-8" standalone="no"?>
<!-- Creator: CorelDRAW -->

<svg
   xmlns:dc="http://purl.org/dc/elements/1.1/"
   xmlns:cc="http://creativecommons.org/ns#"
   xmlns:rdf="http://www.w3.org/1999/02/22-rdf-syntax-ns#"
   xmlns:svg="http://www.w3.org/2000/svg"
   xmlns="http://www.w3.org/2000/svg"
   xmlns:sodipodi="http://sodipodi.sourceforge.net/DTD/sodipodi-0.dtd"
   xmlns:inkscape="http://www.inkscape.org/namespaces/inkscape"
   xml:space="preserve"
   width="13.353601mm"
   height="13.351037mm"
   style="clip-rule:evenodd;fill-rule:evenodd;image-rendering:optimizeQuality;shape-rendering:geometricPrecision;text-rendering:geometricPrecision"
   viewBox="0 0 13.353601 13.351037"
   version="1.1"
   id="svg10"
   sodipodi:docname="obrazovanie_na_karte.svg"
   inkscape:version="0.92.2 (5c3e80d, 2017-08-06)"><metadata
     id="metadata14"><rdf:RDF><cc:Work
         rdf:about=""><dc:format>image/svg+xml</dc:format><dc:type
           rdf:resource="http://purl.org/dc/dcmitype/StillImage" /></cc:Work></rdf:RDF></metadata><sodipodi:namedview
     pagecolor="#ffffff"
     bordercolor="#666666"
     borderopacity="1"
     objecttolerance="10"
     gridtolerance="10"
     guidetolerance="10"
     inkscape:pageopacity="0"
     inkscape:pageshadow="2"
     inkscape:window-width="751"
     inkscape:window-height="480"
     id="namedview12"
     showgrid="false"
     inkscape:zoom="0.62441667"
     inkscape:cx="30.004156"
     inkscape:cy="24.820159"
     inkscape:window-x="0"
     inkscape:window-y="0"
     inkscape:window-maximized="0"
     inkscape:current-layer="svg10" /><defs
     id="defs4"><style
       type="text/css"
       id="style2"><![CDATA[
    .fil0 {fill:#DEDEDD}
   ]]></style></defs><g
     id="Слой_x0020_1"
     transform="translate(-42.0614,-43.215963)"><metadata
       id="CorelCorpID_0Corel-Layer" /><path
       class="fil0"
       d="m 50.9927,44.4058 c 0.1275,0.1903 1.0148,0.7518 1.382,0.76 1.3405,0.8977 2.4184,2.7212 2.4184,4.9751 v 0.2073 c 0,0.8327 -0.4144,1.1785 -0.6077,1.8107 -0.2697,0.8818 -0.471,0.9097 -0.9258,1.4926 -0.4188,0.5369 -0.5839,0.8586 -1.1742,1.2443 -0.5003,0.3269 -1.2275,0.4931 -1.6454,0.7729 l -1.1741,0.026 c -0.4441,-0.0164 -0.5197,0.1813 -0.8298,0.1813 h -0.1382 c -0.2848,0 -1.9115,-0.5388 -2.1673,-0.6657 -0.7504,-0.3722 -1.0569,-0.594 -1.616,-1.1479 -0.6384,-0.6325 -1.6754,-2.5805 -1.6754,-3.8524 v -0.5528 c 0,-1.7893 1.0065,-2.7928 1.7274,-3.8695 l 0.167,0.0232 0.3167,-0.4378 c 0.5124,-0.2711 1.2607,-0.4899 1.6726,-0.7458 0.4942,-0.3071 1.0052,-0.6361 1.7823,-0.6361 0.9436,0 1.7756,0.2244 2.4875,0.4146 z m -7.1862,9.9501 0.1368,0.3417 0.1833,-0.0355 1.6147,1.3521 h 0.2764 c 0.3743,0.2507 1.799,0.5528 2.4184,0.5528 h 0.5528 c 0.7963,0 2.1691,-0.247 2.6257,-0.5528 l 0.3533,0.0112 1.3084,-0.8397 0.0658,-0.4152 c 0.5458,-0.2889 1.1377,-1.3408 1.4287,-1.9571 0.3728,-0.7896 0.6442,-1.6094 0.6442,-2.7416 V 49.519 c 0,-0.651 -0.2736,-1.7043 -0.4837,-2.142 0,-0.5958 -0.1477,-1.075 -0.4146,-1.382 v -0.1382 l -0.2646,-0.0106 -0.219,-0.2658 h -0.1382 c -0.3438,-0.2302 -0.6998,-0.6848 -1.1042,-0.9688 -0.4606,-0.3235 -0.8182,-0.5086 -1.36,-0.782 -0.5242,-0.2646 -2.8565,-0.7836 -3.6439,-0.5584 -1.3752,0.3934 -1.8729,0.5868 -2.9305,1.286 -0.7988,0.5282 -1.6123,1.6498 -2.2244,2.0597 0,0.6255 -0.1944,0.5463 -0.2639,0.9799 -0.0344,0.2142 -0.0179,0.4242 -0.0675,0.5543 -0.1004,0.2631 -0.2214,0.1844 -0.2214,0.4005 l -0.0177,1.591 0.0868,0.9657 c 0.1343,0.2006 0.3729,1.0375 0.5047,1.3609 0.1632,0.4004 0.5351,1.0185 0.6008,1.2648 v 0.1382 c 0.2004,0.1342 0.2131,0.1429 0.2791,0.4061 z m 6.288,-2.0039 0.2073,-0.3455 v -0.1381 -0.1382 c 0.0722,-0.0831 0.273,-0.4146 0.3455,-0.4146 0.1472,0 0.3351,0.1566 0.5527,0.2073 v 0.4145 c 0,0.2856 -0.2977,0.6776 -0.4263,0.9152 z m -1.9463,0.3813 c -0.1328,-0.0861 -0.4031,-0.2852 -0.4031,-0.3813 0,-0.1969 0.2683,-0.636 0.3517,-0.9817 l 0.7081,0.3052 z m -0.5671,-1.1136 c -0.0968,0.2731 -0.1664,0.525 -0.527,0.525 l -0.2372,-0.0479 z m 1.3387,0.8705 -0.0525,0.0658 -0.0958,-0.4172 0.2865,-0.4778 h 0.1382 l 0.9004,-0.4096 c -0.1702,0.6243 -0.6408,0.9552 -1.1768,1.2388 z m 2.6257,-0.2764 c 0,-0.4352 0.1382,-0.4234 0.1382,-0.6219 0,-0.0827 -1.1222,-0.6218 -1.3128,-0.6218 -0.2149,0 -1.2388,0.4509 -1.4511,0.5528 -0.1773,-0.0939 -0.6034,-0.3455 -0.8292,-0.3455 -0.2567,0 -0.9906,0.4984 -1.2526,0.613 -0.2917,0.1276 -1.022,0.4202 -1.0967,0.6998 h 0.4837 c 0.3018,0 0.2509,-0.1382 0.5528,-0.1382 h 0.4836 c 0.1761,0 0.6566,0.5957 0.9674,0.7601 0.1854,-0.0981 1.3403,-0.7601 1.4511,-0.7601 0.033,0 0.9912,0.6835 1.1055,0.7601 z m -3.3858,-3.5931 c 0,-0.3326 0.3449,-0.7601 0.6219,-0.7601 0.1608,0 0.8292,0.4678 0.8292,0.691 v 0.3455 l -0.4502,0.4536 -0.3099,0.0301 c -0.3823,0 -0.691,-0.3984 -0.691,-0.7601 z m -0.8983,0.0691 c 0,0.6789 1.1482,2.4185 1.6584,2.4185 0.2047,0 0.8897,-0.8555 1.0884,-1.0537 0.4536,-0.4523 0.57,-0.6266 0.57,-1.503 v -0.0691 c 0,-0.7664 -0.7467,-1.5201 -1.5202,-1.5201 -1.0362,0 -1.7966,0.6997 -1.7966,1.7274 z"
       id="path7"
       inkscape:connector-curvature="0"
       style="fill:#dededd" /></g></svg>