<?xml version="1.0" encoding="UTF-8" standalone="no"?>
<svg
   xmlns:dc="http://purl.org/dc/elements/1.1/"
   xmlns:cc="http://creativecommons.org/ns#"
   xmlns:rdf="http://www.w3.org/1999/02/22-rdf-syntax-ns#"
   xmlns:svg="http://www.w3.org/2000/svg"
   xmlns="http://www.w3.org/2000/svg"
   viewBox="0 0 46.666668 48"
   height="48"
   width="46.666668"
   xml:space="preserve"
   id="svg2"
   version="1.1"><metadata
     id="metadata8"><rdf:RDF><cc:Work
         rdf:about=""><dc:format>image/svg+xml</dc:format><dc:type
           rdf:resource="http://purl.org/dc/dcmitype/StillImage" /></cc:Work></rdf:RDF></metadata><defs
     id="defs6" /><g
     transform="matrix(1.3333333,0,0,-1.3333333,0,48)"
     id="g10"><g
       transform="scale(0.1)"
       id="g12"><path
         id="path14"
         style="fill:#76a117;fill-opacity:1;fill-rule:evenodd;stroke:none"
         d="m 176.512,351.137 c 94.265,0 170.687,-76.422 170.687,-170.688 C 347.199,86.1836 270.777,9.76172 176.512,9.76172 82.2461,9.76172 5.82422,86.1836 5.82422,180.449 c 0,94.266 76.42188,170.688 170.68778,170.688 z m 0.176,-4.539 c 90.972,0 164.726,-74.121 164.726,-165.551 0,-91.422 -73.754,-165.5431 -164.726,-165.5431 -90.981,0 -164.7349,74.1211 -164.7349,165.5431 0,91.43 73.7539,165.551 164.7349,165.551" /><path
         id="path16"
         style="fill:#f67503;fill-opacity:1;fill-rule:evenodd;stroke:none"
         d="m 92.9258,246.266 v -26.137 c 0,-2.113 2.375,-3.266 4.5781,-3.266 H 255.629 c 2.199,0 4.574,1.153 4.574,3.266 v 26.137 c 0,9.668 -7.324,16.988 -16.988,16.988 H 109.914 c -9.664,0 -16.9882,-7.32 -16.9882,-16.988 z m 6.2265,-1.282 v -21.437 c 0,-1.734 1.9457,-2.68 3.7497,-2.68 h 149.313 c 1.808,0 3.754,0.946 3.754,2.68 v 21.437 c 0,7.93 -6.008,13.938 -13.938,13.938 H 113.086 c -7.926,0 -13.9337,-6.008 -13.9337,-13.938" /><path
         id="path18"
         style="fill:#f67503;fill-opacity:1;fill-rule:evenodd;stroke:none"
         d="m 92.9258,206.41 v -93.445 c 0,-9.664 7.3242,-16.9845 16.9882,-16.9845 h 133.301 c 9.664,0 16.988,7.3205 16.988,16.9845 v 93.445 c 0,2.125 -1.855,2.516 -3.269,3.262 l -2.614,-1.961 v -86.902 c 0,-6.024 1.711,-18.95 -10.453,-18.95 H 109.262 c -4.403,0 -7.559,2.461 -9.145,5.227 -1.867,3.254 -1.3123,8.051 -1.3084,13.07 v 87.555 c -0.4766,0.32 -0.4805,0.277 -1.1719,0.793 -0.7422,0.551 -0.8984,0.695 -1.4414,1.168 -1.414,-0.746 -3.2695,-1.137 -3.2695,-3.262" /><path
         id="path20"
         style="fill:#f67503;fill-opacity:1;fill-rule:evenodd;stroke:none"
         d="m 187.066,162.77 h 45.086 v -34.629 h -45.086 z m -5.23,3.269 v -41.168 c 0,-1.504 0.457,-1.957 1.961,-1.957 h 51.621 c 1.508,0 1.961,0.453 1.961,1.957 v 41.168 c 0,1.531 -1.086,2.613 -2.613,2.613 h -50.313 c -1.531,0 -2.617,-1.082 -2.617,-2.613" /><path
         id="path22"
         style="fill:#f67503;fill-opacity:1;fill-rule:evenodd;stroke:none"
         d="m 118.457,195.445 h 44.434 v -21.566 h -44.434 z m -5.883,2.614 c 0,-7.243 -0.773,-23.278 0.656,-29.407 6.727,-1.566 43.743,-0.652 53.579,-0.652 1.519,1.754 1.867,1.719 1.961,3.266 v 26.793 c 0,1.527 -1.086,2.613 -2.614,2.613 h -50.968 c -1.528,0 -2.614,-1.086 -2.614,-2.613" /><path
         id="path24"
         style="fill:#f67503;fill-opacity:1;fill-rule:evenodd;stroke:none"
         d="m 112.574,139.25 c 0,-2.324 1.524,-3.27 3.922,-3.27 6.059,0 48.824,-0.847 50.965,0.661 2.34,1.644 1.648,5.222 -2.613,5.222 -6.059,0 -48.825,0.852 -50.965,-0.656 -0.485,-0.34 -1.309,-1.258 -1.309,-1.957" /><path
         id="path26"
         style="fill:#f67503;fill-opacity:1;fill-rule:evenodd;stroke:none"
         d="m 112.574,154.93 c 0,-1.528 1.086,-2.614 2.614,-2.614 h 50.968 c 3.696,0 3.817,5.879 -1.961,5.879 h -47.047 c -2.203,0 -4.574,-1.152 -4.574,-3.265" /><path
         id="path28"
         style="fill:#f67503;fill-opacity:1;fill-rule:evenodd;stroke:none"
         d="m 181.836,183.68 c 0,-1.711 -0.336,-4.571 2.617,-4.571 h 50.313 c 2.953,0 2.613,2.86 2.613,4.571 -1.285,0.679 -1.93,1.308 -3.922,1.308 h -47.699 c -1.84,0 -2.75,-0.601 -3.922,-1.308" /><path
         id="path30"
         style="fill:#f67503;fill-opacity:1;fill-rule:evenodd;stroke:none"
         d="m 181.836,198.711 c 0,-2.121 -0.258,-3.266 1.961,-3.266 h 51.621 c 2.539,0 1.961,2.164 1.961,4.571 -6.723,1.566 -43.824,0.656 -53.582,0.656 -1.504,0 -1.961,-0.457 -1.961,-1.961" /><path
         id="path32"
         style="fill:#f67503;fill-opacity:1;fill-rule:evenodd;stroke:none"
         d="m 112.574,122.914 c 0,-1.531 1.086,-2.613 2.614,-2.613 h 50.968 c 3.481,0 3.481,5.226 0,5.226 h -50.968 c -1.528,0 -2.614,-1.086 -2.614,-2.613" /><path
         id="path34"
         style="fill:#f67503;fill-opacity:1;fill-rule:evenodd;stroke:none"
         d="m 112.574,239.223 c 0,-1.766 0.313,-1.801 0.656,-3.266 6.489,-1.516 32.649,-0.656 41.165,-0.656 1.992,0 2.636,0.629 3.918,1.308 0,1.711 0.339,4.575 -2.614,4.575 h -40.511 c -1.262,0 -2.614,-1.164 -2.614,-1.961" /><path
         id="path36"
         style="fill:#f67503;fill-opacity:1;fill-rule:evenodd;stroke:none"
         d="m 193.598,238.57 v -1.961 c 4.175,-2.211 10.195,-1.308 16.988,-1.308 0.008,0.008 5.488,5.883 -1.957,5.883 -7.785,0 -15.031,1.398 -15.031,-2.614" /><path
         id="path38"
         style="fill:#f67503;fill-opacity:1;fill-rule:evenodd;stroke:none"
         d="m 166.156,239.223 c 0.465,-2 1.016,-2.512 1.961,-3.922 h 15.68 c 0.945,1.41 1.496,1.922 1.961,3.922 -3.059,3.226 -5.926,1.961 -15.684,1.961 -2.031,0 -2.402,-0.289 -3.918,-1.961" /><path
         id="path40"
         style="fill:#f67503;fill-opacity:1;fill-rule:evenodd;stroke:none"
         d="m 220.391,238.57 v -1.961 c 4.164,-2.207 13.636,-1.738 18.293,-0.652 1.562,6.527 0.453,5.227 -15.68,5.227 -1.531,0 -2.613,-1.086 -2.613,-2.614" /></g></g></svg>