<?xml version="1.0" encoding="UTF-8" standalone="no"?>
<!-- Creator: CorelDRAW -->

<svg
   xmlns:dc="http://purl.org/dc/elements/1.1/"
   xmlns:cc="http://creativecommons.org/ns#"
   xmlns:rdf="http://www.w3.org/1999/02/22-rdf-syntax-ns#"
   xmlns:svg="http://www.w3.org/2000/svg"
   xmlns="http://www.w3.org/2000/svg"
   xmlns:sodipodi="http://sodipodi.sourceforge.net/DTD/sodipodi-0.dtd"
   xmlns:inkscape="http://www.inkscape.org/namespaces/inkscape"
   xml:space="preserve"
   width="5.851409mm"
   height="7.3916245mm"
   style="clip-rule:evenodd;fill-rule:evenodd;image-rendering:optimizeQuality;shape-rendering:geometricPrecision;text-rendering:geometricPrecision"
   viewBox="0 0 5.851409 7.3916245"
   version="1.1"
   id="svg10"
   sodipodi:docname="6. invalidi_master_klassi.svg"
   inkscape:version="0.92.2 (5c3e80d, 2017-08-06)"><metadata
     id="metadata14"><rdf:RDF><cc:Work
         rdf:about=""><dc:format>image/svg+xml</dc:format><dc:type
           rdf:resource="http://purl.org/dc/dcmitype/StillImage" /></cc:Work></rdf:RDF></metadata><sodipodi:namedview
     pagecolor="#ffffff"
     bordercolor="#666666"
     borderopacity="1"
     objecttolerance="10"
     gridtolerance="10"
     guidetolerance="10"
     inkscape:pageopacity="0"
     inkscape:pageshadow="2"
     inkscape:window-width="640"
     inkscape:window-height="480"
     id="namedview12"
     showgrid="false"
     inkscape:zoom="0.62441667"
     inkscape:cx="11.196628"
     inkscape:cy="9.8663097"
     inkscape:window-x="0"
     inkscape:window-y="0"
     inkscape:window-maximized="0"
     inkscape:current-layer="svg10" /><defs
     id="defs4"><style
       type="text/css"
       id="style2"><![CDATA[
    .fil0 {fill:#DEDEDD}
   ]]></style></defs><g transform="translate(-39.622304,-45.218836)"><metadata
       id="CorelCorpID_0Corel-Layer" /><path
       class="fil0"
       d="m 43.0385,51.4296 c 0.1669,-0.0593 0.4015,-0.1465 0.5774,-0.1365 0.1572,0.0087 0.4836,-0.0249 0.5622,-0.0128 -0.0987,0.0914 -0.4493,0.2344 -0.5714,0.2701 -0.2257,0.066 -0.3481,0.003 -0.5682,-0.1208 z M 42.487,47.84 c 0.0082,0.0366 0.0172,0.0978 0.027,0.1765 -0.1454,0.0523 -0.2685,0.1232 -0.356,0.2143 l -0.0419,-0.0383 0.2112,-0.2302 c 0.0432,-0.0471 0.0974,-0.0876 0.1597,-0.1223 z m 0.1654,0.1336 5e-4,-5e-4 -0.0191,-0.1989 c 0.5335,-0.1915 1.4238,-0.0744 1.7663,0.2398 0.0876,0.0807 0.1332,0.2057 0.1534,0.2953 -0.4023,-0.3692 -1.2898,-0.4939 -1.9011,-0.3357 z M 42.6233,47.667 42.4407,45.7746 c 0.0645,-0.08 0.0438,-0.0274 0.1138,-0.1082 0.0769,-0.0879 0.082,-0.2674 -0.0247,-0.3605 l -0.0216,-0.0187 c -0.0986,-0.0856 -0.2535,-0.0977 -0.3419,0.0033 l -0.0376,0.0431 c -0.1029,0.1183 -0.0706,0.2768 0.0468,0.3792 0.0453,0.0393 0.0348,0.017 0.104,0.0532 l 0.193,1.9515 c -0.262,0.0976 -0.5042,0.2439 -0.7045,0.4388 l -1.3599,-1.2882 c -0.0036,-0.1026 0.0151,-0.0494 0.0151,-0.1563 0,-0.1168 -0.1139,-0.2556 -0.2556,-0.2556 h -0.0284 c -0.1305,0 -0.2556,0.0927 -0.2556,0.2272 v 0.0567 c 0,0.1571 0.128,0.2556 0.284,0.2556 0.0601,0 0.0374,-0.0102 0.1135,-0.0283 l 1.3795,1.3014 -0.157,0.1711 c -0.5157,0.5614 -0.5012,1.4639 -0.3396,2.0245 0.1,0.3468 0.3028,0.6577 0.5164,0.983 0.1963,0.2989 0.5421,0.7137 0.4975,1.004 -0.6714,0.2387 -2.0946,-1.7504 -2.508,-1.2999 -0.1668,0.1819 0.1421,0.5162 0.3518,0.7086 -0.0194,-0.1714 -0.3107,-0.3541 -0.2681,-0.6315 0.3037,-0.0738 0.8734,0.4161 1.2172,0.7318 0.31,0.2846 1.0109,0.8309 1.2312,0.5905 l 0.0388,-0.042 c 0.1686,-0.1836 -0.1789,-0.7808 -0.3623,-0.9493 l 0.0383,-0.0419 0.0837,0.0768 c 0.6179,0.5674 2.137,0.4861 2.708,-0.136 l 0.2112,-0.23 c 0.799,-0.8708 0.721,-2.2683 -0.1515,-3.0694 l -0.0839,-0.0765 c -0.5348,-0.4909 -1.353,-0.6237 -2.061,-0.4156 z m -0.8368,0.7205 c 0.0178,0.012 0.0442,0.0326 0.0778,0.0614 -0.4578,0.8847 -0.2057,1.9837 0.6004,2.7238 0.4689,0.4297 0.824,0.5113 1.2734,0.6289 -0.408,0.2598 -1.1355,-0.0781 -1.6101,-0.5141 l -0.021,-0.0192 c -0.7978,-0.7326 -1.0518,-2.13 -0.3453,-2.8998 l 0.0021,-0.0024 z m 0.1616,0.1354 0.0634,0.0577 v -0.148 c 0.289,-0.3057 1.1092,-0.4511 1.444,-0.4149 0.3055,0.0336 1.3414,0.2584 1.2599,0.7871 -0.749,-0.6876 -2.2288,-0.6376 -2.8718,0.0628 -0.0128,-0.0643 0.0419,-0.231 0.1045,-0.3447 z m -0.0096,-0.205 -0.0696,-0.0661 0.1426,-0.1552 c 0.0709,-0.0776 0.1037,-0.0919 0.1763,-0.1081 -0.0959,0.1045 -0.1791,0.2151 -0.2493,0.3294 z m 1.7124,3.3269 c 0.2752,-0.0979 0.3674,-0.1012 0.6493,-0.3301 0.1008,-0.0816 0.5563,-0.278 0.651,-0.2886 -0.4283,0.467 -0.8445,0.8569 -1.3003,0.6187 z m -0.3932,-1.6721 c 0.1246,-0.1148 0.2635,-0.1952 0.4177,-0.0962 0.1245,0.0797 0.3201,0.1952 0.4144,0.2817 0.0347,0.0317 0.0131,0.1224 0.0071,0.1608 -0.1649,0.0399 -0.4482,0.0126 -0.6299,-0.1541 z m 0.7135,-0.3 0.1107,0.3412 -0.3925,-0.265 z m -1.476,0.7953 c 0.3071,0.2819 1.066,0.4243 1.3844,0.4125 0.2508,-0.0091 0.427,-0.0125 0.6803,-0.0748 0.1885,-0.0463 0.5296,-0.2192 0.6533,-0.2328 -0.0395,0.0695 -0.0361,0.1233 -0.0732,0.1636 -0.3322,0.3619 -1.0174,0.4341 -1.388,0.4514 -0.3727,0.0179 -1.0284,-0.1633 -1.4089,-0.5124 l -0.1046,-0.0962 c -0.3084,-0.283 -0.5086,-0.6716 -0.4638,-0.965 0.1042,0.1522 0.2048,0.3805 0.3648,0.527 z m 0.1361,-0.5688 c 0.3967,-0.4318 0.777,-0.5111 1.1784,-0.6533 l 0.1447,0.2989 c -0.1143,0.109 -0.7115,0.2075 -1.0335,0.5429 z m -0.5474,-0.5798 c 0.2366,-0.2465 0.9535,-0.4883 1.1868,-0.4527 -0.0648,0.0416 -0.389,0.1816 -0.5319,0.2555 -0.1337,0.0696 -0.3792,0.2749 -0.5051,0.4119 z m 0.2336,0.2916 c 0.2417,-0.2632 1.1425,-0.8453 1.2776,-0.6777 l 0.1664,0.1959 c -0.3422,0.2332 -0.7077,0.1421 -1.2138,0.6932 z m 0.0698,0.2181 c 0.8226,0.7554 2.1663,0.7756 2.9257,0.2568 l -0.0249,0.283 c -0.4512,0.3057 -0.8853,0.3871 -1.3526,0.4093 -0.3109,0.0147 -1.0641,-0.119 -1.3638,-0.3941 L 42.237,50.0769 c -0.1304,-0.1197 -0.4211,-0.5076 -0.3276,-0.6093 l 0.0769,-0.0833 0.3084,0.3753 z m 1.3266,-0.9412 c 0.4076,0.0112 0.5273,0.1419 0.6806,0.5338 0.0929,0.2378 0.2136,0.6286 0.0825,0.8608 l -0.2412,0.031 c -0.0298,-0.0309 -0.1035,-0.5605 -0.1561,-0.7176 -0.0545,-0.1624 -0.237,-0.5682 -0.3658,-0.708 z m 0.8792,0.3442 0.1254,0.1152 c 0.084,0.0773 -0.0228,0.4495 -0.0771,0.5463 l -0.2735,-0.7524 c 0.0822,-0.0163 0.1383,0.0112 0.2252,0.0909 z m -2.7832,-0.2025 c 0.6497,-0.7073 2.0694,-0.8381 2.7869,-0.1796 l 0.1254,0.1154 c 0.0706,0.0645 0.0503,0.1874 0.0313,0.26 -0.8365,-0.649 -2.24,-0.6259 -2.9871,0.1881 -0.0198,-0.0813 -0.0248,-0.3088 0.0435,-0.3839 z m 2.8053,1.1867 c 0.1857,-0.212 0.2785,-0.795 0.2682,-1.0168 -0.0097,-0.2026 -0.0044,-0.2928 -0.0555,-0.4998 -0.031,-0.1247 -0.1493,-0.4032 -0.1573,-0.4758 0.2907,0.2668 0.4059,0.6599 0.4322,0.9463 0.0162,0.181 0.0417,0.8053 -0.0897,0.9485 -0.0382,0.0414 -0.283,0.0892 -0.3564,0.1361 z"
       id="path7"
       inkscape:connector-curvature="0"
       style="fill:#fff" /></g></svg>