<?xml version="1.0" encoding="UTF-8" standalone="no"?>
<!-- Creator: CorelDRAW -->

<svg
   xmlns:dc="http://purl.org/dc/elements/1.1/"
   xmlns:cc="http://creativecommons.org/ns#"
   xmlns:rdf="http://www.w3.org/1999/02/22-rdf-syntax-ns#"
   xmlns:svg="http://www.w3.org/2000/svg"
   xmlns="http://www.w3.org/2000/svg"
   xmlns:sodipodi="http://sodipodi.sourceforge.net/DTD/sodipodi-0.dtd"
   xmlns:inkscape="http://www.inkscape.org/namespaces/inkscape"
   xml:space="preserve"
   width="7.0304003mm"
   height="6.3683mm"
   style="clip-rule:evenodd;fill-rule:evenodd;image-rendering:optimizeQuality;shape-rendering:geometricPrecision;text-rendering:geometricPrecision"
   viewBox="0 0 7.0304003 6.3683"
   version="1.1"
   id="svg10"
   sodipodi:docname="2. invalidi_koncert.svg"
   inkscape:version="0.92.2 (5c3e80d, 2017-08-06)"><metadata
     id="metadata14"><rdf:RDF><cc:Work
         rdf:about=""><dc:format>image/svg+xml</dc:format><dc:type
           rdf:resource="http://purl.org/dc/dcmitype/StillImage" /></cc:Work></rdf:RDF></metadata><sodipodi:namedview
     pagecolor="#ffffff"
     bordercolor="#666666"
     borderopacity="1"
     objecttolerance="10"
     gridtolerance="10"
     guidetolerance="10"
     inkscape:pageopacity="0"
     inkscape:pageshadow="2"
     inkscape:window-width="640"
     inkscape:window-height="480"
     id="namedview12"
     showgrid="false"
     inkscape:zoom="0.62441667"
     inkscape:cx="0.57579379"
     inkscape:cy="1.3122534"
     inkscape:window-x="0"
     inkscape:window-y="0"
     inkscape:window-maximized="0"
     inkscape:current-layer="svg10" /><defs
     id="defs4"><style
       type="text/css"
       id="style2"><![CDATA[
    .fil0 {fill:#DEDEDD}
   ]]></style></defs><g transform="translate(-42.4324,-43.9789)"><metadata
       id="CorelCorpID_0Corel-Layer" /><path
       class="fil0"
       d="m 46.5998,48.5433 h 1.2989 v -0.2528 h -0.2708 v -1.0103 h -1.0281 z m -0.398,1.4439 0.488,-0.4158 v 0.5053 l -0.425,-0.006 z m 0.9496,-1.2847 0.0076,1.3742 h -0.3067 v -0.7576 c 0.0729,0.0168 0.0902,0.0541 0.1624,0.0541 0.056,0 0.1082,-0.0573 0.1082,-0.1264 0,-0.0916 -0.0399,-0.1371 -0.1282,-0.145 z m 1.5052,1.3742 V 48.2724 H 48.476 v 1.8043 h -1.1367 v -1.4434 h -0.4689 c -0.1394,0.5989 -0.6299,1.0199 -1.1367,1.263 V 49.824 h -0.5772 v -0.9199 c 0.1307,-0.0111 0.2525,-0.1846 0.2525,-0.3249 v -0.0721 c 0,-0.1886 -0.2022,-0.3429 -0.4148,-0.3429 -0.1581,0 -0.3609,0.1772 -0.3609,0.325 v 0.1082 c 0,0.2308 0.2528,0.2993 0.2528,0.3608 v 0.8658 h -0.5414 v 0.1444 c -0.3182,-0.0264 -0.8334,-0.4644 -0.9973,-0.6806 -0.2378,-0.3139 -0.428,-0.7238 -0.428,-1.2679 0,-0.5866 0.2735,-1.0428 0.5546,-1.3578 0.2259,-0.2534 0.8245,-0.6264 1.2855,-0.6264 h 0.2708 c 0.4087,0 0.823,0.1908 1.0647,0.3604 0.1646,0.1155 0.6309,0.5588 0.6489,0.7759 l 0.3179,-0.0044 -0.065,-0.1758 c 0.09,-0.0023 0.1261,-0.0352 0.1261,-0.1264 v -0.0181 c 0,-0.0487 -0.0086,-0.0497 -0.0179,-0.0902 -0.0406,-0.0094 -0.0416,-0.018 -0.0903,-0.018 h -0.0541 c -0.0433,0 -0.0529,0.0291 -0.0902,0.0541 -0.0123,-0.022 -0.0181,-0.0192 -0.0181,-0.0541 v -1.804 h 0.0722 c 0.2648,0 0.5112,-0.1083 0.7029,-0.1097 l 0.5318,-0.2131 -0.0078,-0.0201 h -1.281 v -0.1441 h 1.281 V 44.4116 C 48.0459,44.4095 47.7337,44.2339 47.5924,44.2131 47.3798,44.181 47.18,44.1052 46.9245,44.1052 h -0.0722 v -0.1263 h -0.1625 v 0.1263 h -0.1262 c -0.2897,0 -1.0532,0.1863 -1.1546,0.3247 h 1.2808 v 0.1805 H 45.409 c 0.1011,0.1378 0.8688,0.3247 1.1546,0.3247 h 0.1262 v 1.6056 c -0.0467,-0.017 -0.3231,-0.3276 -0.505,-0.415 0.037,-0.0503 0.0722,-0.0359 0.0722,-0.1263 v -0.0361 c 0,-0.0434 -0.0648,-0.1082 -0.1083,-0.1082 h -0.0359 c -0.07,0 -0.112,0.0823 -0.1264,0.1443 -0.1956,-0.1035 -0.6262,-0.2525 -0.9202,-0.2525 v -0.1084 c 0,-0.042 -0.048,-0.09 -0.09,-0.09 h -0.0724 c -0.042,0 -0.0902,0.048 -0.0902,0.09 v 0.1084 c -0.1541,0 -0.3777,0.062 -0.5064,0.0888 -0.1504,0.0313 -0.2975,0.1324 -0.4317,0.1637 -0.0054,-0.0656 -0.0434,-0.1443 -0.1082,-0.1443 h -0.0359 c -0.0436,0 -0.1084,0.0648 -0.1084,0.1082 v 0.0361 c 0,0.0694 0.01,0.0743 0.0543,0.0904 v 0.0539 c -0.1684,0.0184 -0.5733,0.5084 -0.6675,0.6495 -0.0373,-0.025 -0.0468,-0.0541 -0.0904,-0.0541 h -0.0543 c -0.0485,0 -0.0495,0.0086 -0.09,0.018 -0.0094,0.0405 -0.018,0.0415 -0.018,0.0902 v 0.0181 c 0,0.0912 0.0361,0.1241 0.1262,0.1264 -0.0029,0.0356 -0.126,0.322 -0.1509,0.3902 -0.0279,0.0765 -0.0835,0.3619 -0.0835,0.4575 v 0.0904 c -0.0783,-0.0067 -0.2165,-0.0238 -0.2165,0.09 v 0.0543 c 0,0.0432 0.0648,0.1082 0.1082,0.1082 h 0.0181 c 0.0487,0 0.0497,-0.0086 0.0902,-0.0182 v 0.0541 c 0,0.1935 0.0397,0.3184 0.083,0.4763 0.0388,0.1417 0.1278,0.3068 0.1514,0.4077 -0.0537,0.0047 -0.1262,0.0366 -0.1262,0.0904 v 0.0901 c 0,0.0584 0.0655,0.0904 0.1262,0.0904 h 0.0182 c 0.0421,0 0.0535,-0.0373 0.1261,-0.0541 0.0829,0.1562 0.1773,0.2354 0.2902,0.3593 0.0751,0.0827 0.325,0.2568 0.3595,0.3081 -0.0249,0.0371 -0.0543,0.0467 -0.0543,0.0902 v 0.0358 c 0,0.0845 0.0421,0.1265 0.1263,0.1265 0.0895,0 0.1194,-0.0424 0.1262,-0.1265 0.0584,0.0016 0.2147,0.0671 0.2531,0.0899 0.1042,0.0618 0.2061,0.0086 0.2163,0.1229 l 0.7395,0.0219 c 2.2796,0 4.3751,-0.0629 4.3751,-0.0629 0,2e-4 0.0033,-0.1865 0.0033,-0.1865 -0.2504,0.0359 -0.5383,-0.0211 -0.8062,-0.0211 z m -0.9383,-1.8943 h 1.6776 v -0.3607 l -0.0023,-1.2589 -0.7552,-0.0041 h -0.9201 z"
       id="path7"
       inkscape:connector-curvature="0"
       style="fill:#fff" /></g></svg>